Drill report for powerdisplay.kicad_pcb
Created on Fri Oct 27 21:06:58 2023

Copper Layer Stackup:
    =============================================================
    L1 :  F.Cu                      front
    L2 :  B.Cu                      back


Drill file 'powerdisplay.drl' contains
    plated through holes:
    =============================================================
    T1  0.700mm  0.0276"  (3 holes)
    T2  1.016mm  0.0400"  (10 holes)
    T3  3.200mm  0.1260"  (2 holes)  (with 2 slots)

    Total plated holes count 15


Not plated through holes are merged with plated holes
    unplated through holes:
    =============================================================
    T4  5.000mm  0.1969"  (2 holes)

    Total unplated holes count 2
