G04 #@! TF.GenerationSoftware,KiCad,Pcbnew,7.0.8-7.0.8~ubuntu22.04.1*
G04 #@! TF.CreationDate,2023-10-27T21:06:58-04:00*
G04 #@! TF.ProjectId,powerdisplay,706f7765-7264-4697-9370-6c61792e6b69,rev?*
G04 #@! TF.SameCoordinates,Original*
G04 #@! TF.FileFunction,Copper,L2,Bot*
G04 #@! TF.FilePolarity,Positive*
%FSLAX46Y46*%
G04 Gerber Fmt 4.6, Leading zero omitted, Abs format (unit mm)*
G04 Created by KiCad (PCBNEW 7.0.8-7.0.8~ubuntu22.04.1) date 2023-10-27 21:06:58*
%MOMM*%
%LPD*%
G01*
G04 APERTURE LIST*
G04 #@! TA.AperFunction,ComponentPad*
%ADD10C,1.500000*%
G04 #@! TD*
G04 #@! TA.AperFunction,ComponentPad*
%ADD11O,6.800000X4.000000*%
G04 #@! TD*
G04 #@! TA.AperFunction,ComponentPad*
%ADD12R,1.727200X1.727200*%
G04 #@! TD*
G04 #@! TA.AperFunction,ComponentPad*
%ADD13O,1.727200X1.727200*%
G04 #@! TD*
G04 APERTURE END LIST*
D10*
G04 #@! TO.P,TP3,1,1*
G04 #@! TO.N,-12V*
X99301190Y-85000000D03*
G04 #@! TD*
G04 #@! TO.P,TP2,1,1*
G04 #@! TO.N,+12V*
X99301190Y-65000000D03*
G04 #@! TD*
D11*
G04 #@! TO.P,H1,1*
G04 #@! TO.N,GND*
X104901190Y-3000000D03*
G04 #@! TD*
G04 #@! TO.P,H2,1*
G04 #@! TO.N,GND*
X104901190Y-197000000D03*
G04 #@! TD*
D10*
G04 #@! TO.P,TP1,1,1*
G04 #@! TO.N,GND*
X99301190Y-50000000D03*
G04 #@! TD*
D12*
G04 #@! TO.P,J2,1,-12V*
G04 #@! TO.N,-12V*
X98031190Y-180080000D03*
D13*
G04 #@! TO.P,J2,2,-12V*
X100571190Y-180080000D03*
G04 #@! TO.P,J2,3,GND*
G04 #@! TO.N,GND*
X98031190Y-177540000D03*
G04 #@! TO.P,J2,4,GND*
X100571190Y-177540000D03*
G04 #@! TO.P,J2,5,GND*
X98031190Y-175000000D03*
G04 #@! TO.P,J2,6,GND*
X100571190Y-175000000D03*
G04 #@! TO.P,J2,7,GND*
X98031190Y-172460000D03*
G04 #@! TO.P,J2,8,GND*
X100571190Y-172460000D03*
G04 #@! TO.P,J2,9,+12V*
G04 #@! TO.N,+12V*
X98031190Y-169920000D03*
G04 #@! TO.P,J2,10,+12V*
X100571190Y-169920000D03*
G04 #@! TD*
G04 #@! TA.AperFunction,Conductor*
G04 #@! TO.N,GND*
G36*
X100016545Y-177309685D02*
G01*
X100062300Y-177362489D01*
X100072244Y-177431647D01*
X100068483Y-177448936D01*
X100063190Y-177466961D01*
X100063190Y-177613038D01*
X100068483Y-177631064D01*
X100068484Y-177700933D01*
X100030710Y-177759712D01*
X99967154Y-177788738D01*
X99949506Y-177790000D01*
X98652874Y-177790000D01*
X98585835Y-177770315D01*
X98540080Y-177717511D01*
X98530136Y-177648353D01*
X98533897Y-177631064D01*
X98539190Y-177613038D01*
X98539190Y-177466961D01*
X98533897Y-177448936D01*
X98533896Y-177379067D01*
X98571670Y-177320288D01*
X98635226Y-177291262D01*
X98652874Y-177290000D01*
X99949506Y-177290000D01*
X100016545Y-177309685D01*
G37*
G04 #@! TD.AperFunction*
G04 #@! TA.AperFunction,Conductor*
G36*
X98208702Y-175507589D02*
G01*
X98261506Y-175553344D01*
X98281190Y-175620383D01*
X98281190Y-176919616D01*
X98261505Y-176986655D01*
X98208701Y-177032410D01*
X98139545Y-177042354D01*
X98067527Y-177032000D01*
X98067524Y-177032000D01*
X97994856Y-177032000D01*
X97994852Y-177032000D01*
X97922835Y-177042354D01*
X97853677Y-177032410D01*
X97800874Y-176986654D01*
X97781190Y-176919616D01*
X97781190Y-175620383D01*
X97800875Y-175553344D01*
X97853679Y-175507589D01*
X97922835Y-175497645D01*
X97994856Y-175508000D01*
X97994859Y-175508000D01*
X98067521Y-175508000D01*
X98067524Y-175508000D01*
X98139544Y-175497645D01*
X98208702Y-175507589D01*
G37*
G04 #@! TD.AperFunction*
G04 #@! TA.AperFunction,Conductor*
G36*
X100748702Y-175507589D02*
G01*
X100801506Y-175553344D01*
X100821190Y-175620383D01*
X100821190Y-176919616D01*
X100801505Y-176986655D01*
X100748701Y-177032410D01*
X100679545Y-177042354D01*
X100607527Y-177032000D01*
X100607524Y-177032000D01*
X100534856Y-177032000D01*
X100534852Y-177032000D01*
X100462835Y-177042354D01*
X100393677Y-177032410D01*
X100340874Y-176986654D01*
X100321190Y-176919616D01*
X100321190Y-175620383D01*
X100340875Y-175553344D01*
X100393679Y-175507589D01*
X100462835Y-175497645D01*
X100534856Y-175508000D01*
X100534859Y-175508000D01*
X100607521Y-175508000D01*
X100607524Y-175508000D01*
X100679544Y-175497645D01*
X100748702Y-175507589D01*
G37*
G04 #@! TD.AperFunction*
G04 #@! TA.AperFunction,Conductor*
G36*
X100016545Y-174769685D02*
G01*
X100062300Y-174822489D01*
X100072244Y-174891647D01*
X100068483Y-174908936D01*
X100063190Y-174926961D01*
X100063190Y-175073038D01*
X100068483Y-175091064D01*
X100068484Y-175160933D01*
X100030710Y-175219712D01*
X99967154Y-175248738D01*
X99949506Y-175250000D01*
X98652874Y-175250000D01*
X98585835Y-175230315D01*
X98540080Y-175177511D01*
X98530136Y-175108353D01*
X98533897Y-175091064D01*
X98539190Y-175073038D01*
X98539190Y-174926961D01*
X98533897Y-174908936D01*
X98533896Y-174839067D01*
X98571670Y-174780288D01*
X98635226Y-174751262D01*
X98652874Y-174750000D01*
X99949506Y-174750000D01*
X100016545Y-174769685D01*
G37*
G04 #@! TD.AperFunction*
G04 #@! TA.AperFunction,Conductor*
G36*
X98208702Y-172967589D02*
G01*
X98261506Y-173013344D01*
X98281190Y-173080383D01*
X98281190Y-174379616D01*
X98261505Y-174446655D01*
X98208701Y-174492410D01*
X98139545Y-174502354D01*
X98067527Y-174492000D01*
X98067524Y-174492000D01*
X97994856Y-174492000D01*
X97994852Y-174492000D01*
X97922835Y-174502354D01*
X97853677Y-174492410D01*
X97800874Y-174446654D01*
X97781190Y-174379616D01*
X97781190Y-173080383D01*
X97800875Y-173013344D01*
X97853679Y-172967589D01*
X97922835Y-172957645D01*
X97994856Y-172968000D01*
X97994859Y-172968000D01*
X98067521Y-172968000D01*
X98067524Y-172968000D01*
X98139544Y-172957645D01*
X98208702Y-172967589D01*
G37*
G04 #@! TD.AperFunction*
G04 #@! TA.AperFunction,Conductor*
G36*
X100748702Y-172967589D02*
G01*
X100801506Y-173013344D01*
X100821190Y-173080383D01*
X100821190Y-174379616D01*
X100801505Y-174446655D01*
X100748701Y-174492410D01*
X100679545Y-174502354D01*
X100607527Y-174492000D01*
X100607524Y-174492000D01*
X100534856Y-174492000D01*
X100534852Y-174492000D01*
X100462835Y-174502354D01*
X100393677Y-174492410D01*
X100340874Y-174446654D01*
X100321190Y-174379616D01*
X100321190Y-173080383D01*
X100340875Y-173013344D01*
X100393679Y-172967589D01*
X100462835Y-172957645D01*
X100534856Y-172968000D01*
X100534859Y-172968000D01*
X100607521Y-172968000D01*
X100607524Y-172968000D01*
X100679544Y-172957645D01*
X100748702Y-172967589D01*
G37*
G04 #@! TD.AperFunction*
G04 #@! TA.AperFunction,Conductor*
G36*
X100016545Y-172229685D02*
G01*
X100062300Y-172282489D01*
X100072244Y-172351647D01*
X100068483Y-172368936D01*
X100063190Y-172386961D01*
X100063190Y-172533038D01*
X100068483Y-172551064D01*
X100068484Y-172620933D01*
X100030710Y-172679712D01*
X99967154Y-172708738D01*
X99949506Y-172710000D01*
X98652874Y-172710000D01*
X98585835Y-172690315D01*
X98540080Y-172637511D01*
X98530136Y-172568353D01*
X98533897Y-172551064D01*
X98539190Y-172533038D01*
X98539190Y-172386961D01*
X98533897Y-172368936D01*
X98533896Y-172299067D01*
X98571670Y-172240288D01*
X98635226Y-172211262D01*
X98652874Y-172210000D01*
X99949506Y-172210000D01*
X100016545Y-172229685D01*
G37*
G04 #@! TD.AperFunction*
G04 #@! TA.AperFunction,Conductor*
G36*
X109193729Y-70185D02*
G01*
X109239484Y-122989D01*
X109250690Y-174500D01*
X109250690Y-199825500D01*
X109231005Y-199892539D01*
X109178201Y-199938294D01*
X109126690Y-199949500D01*
X89475690Y-199949500D01*
X89408651Y-199929815D01*
X89362896Y-199877011D01*
X89351690Y-199825500D01*
X89351690Y-196749999D01*
X101012901Y-196749999D01*
X101012902Y-196750000D01*
X101781775Y-196750000D01*
X101848814Y-196769685D01*
X101894569Y-196822489D01*
X101905393Y-196883729D01*
X101896242Y-197000000D01*
X101905393Y-197116271D01*
X101891029Y-197184648D01*
X101841977Y-197234405D01*
X101781775Y-197250000D01*
X101012902Y-197250000D01*
X101040614Y-197469370D01*
X101040616Y-197469379D01*
X101118849Y-197774073D01*
X101234645Y-198066544D01*
X101234649Y-198066552D01*
X101386193Y-198342209D01*
X101386204Y-198342227D01*
X101571091Y-198596702D01*
X101571099Y-198596712D01*
X101786437Y-198826023D01*
X102028825Y-199026544D01*
X102294422Y-199195096D01*
X102294428Y-199195099D01*
X102579052Y-199329034D01*
X102579057Y-199329036D01*
X102878231Y-199426244D01*
X103187240Y-199485191D01*
X103187247Y-199485192D01*
X103422616Y-199500000D01*
X104651190Y-199500000D01*
X104651190Y-198724000D01*
X104670875Y-198656961D01*
X104723679Y-198611206D01*
X104775190Y-198600000D01*
X105027190Y-198600000D01*
X105094229Y-198619685D01*
X105139984Y-198672489D01*
X105151190Y-198724000D01*
X105151190Y-199500000D01*
X106379764Y-199500000D01*
X106615132Y-199485192D01*
X106615139Y-199485191D01*
X106924148Y-199426244D01*
X107223322Y-199329036D01*
X107223327Y-199329034D01*
X107507951Y-199195099D01*
X107507957Y-199195096D01*
X107773554Y-199026544D01*
X108015942Y-198826023D01*
X108231280Y-198596712D01*
X108231288Y-198596702D01*
X108416175Y-198342227D01*
X108416186Y-198342209D01*
X108567730Y-198066552D01*
X108567734Y-198066544D01*
X108683530Y-197774073D01*
X108761763Y-197469379D01*
X108761765Y-197469370D01*
X108789478Y-197250000D01*
X108020605Y-197250000D01*
X107953566Y-197230315D01*
X107907811Y-197177511D01*
X107896987Y-197116271D01*
X107906138Y-197000000D01*
X107896987Y-196883728D01*
X107911351Y-196815352D01*
X107960403Y-196765595D01*
X108020605Y-196750000D01*
X108789478Y-196750000D01*
X108789478Y-196749999D01*
X108761765Y-196530629D01*
X108761763Y-196530620D01*
X108683530Y-196225926D01*
X108567734Y-195933455D01*
X108567730Y-195933447D01*
X108416186Y-195657790D01*
X108416175Y-195657772D01*
X108231288Y-195403297D01*
X108231280Y-195403287D01*
X108015942Y-195173976D01*
X107773554Y-194973455D01*
X107507957Y-194804903D01*
X107507951Y-194804900D01*
X107223327Y-194670965D01*
X107223322Y-194670963D01*
X106924148Y-194573755D01*
X106615139Y-194514808D01*
X106615132Y-194514807D01*
X106379764Y-194500000D01*
X105151190Y-194500000D01*
X105151190Y-195276000D01*
X105131505Y-195343039D01*
X105078701Y-195388794D01*
X105027190Y-195400000D01*
X104775190Y-195400000D01*
X104708151Y-195380315D01*
X104662396Y-195327511D01*
X104651190Y-195276000D01*
X104651190Y-194500000D01*
X103422616Y-194500000D01*
X103187247Y-194514807D01*
X103187240Y-194514808D01*
X102878231Y-194573755D01*
X102579057Y-194670963D01*
X102579052Y-194670965D01*
X102294428Y-194804900D01*
X102294422Y-194804903D01*
X102028825Y-194973455D01*
X101786437Y-195173976D01*
X101571099Y-195403287D01*
X101571091Y-195403297D01*
X101386204Y-195657772D01*
X101386193Y-195657790D01*
X101234649Y-195933447D01*
X101234645Y-195933455D01*
X101118849Y-196225926D01*
X101040616Y-196530620D01*
X101040614Y-196530629D01*
X101012901Y-196749999D01*
X89351690Y-196749999D01*
X89351690Y-169920005D01*
X96654388Y-169920005D01*
X96673165Y-170146610D01*
X96673165Y-170146613D01*
X96673166Y-170146614D01*
X96728987Y-170367047D01*
X96820329Y-170575285D01*
X96944700Y-170765649D01*
X97098707Y-170932946D01*
X97098711Y-170932949D01*
X97098714Y-170932952D01*
X97278142Y-171072606D01*
X97278157Y-171072616D01*
X97302478Y-171085778D01*
X97352068Y-171134997D01*
X97367176Y-171203214D01*
X97343005Y-171268769D01*
X97302480Y-171303885D01*
X97282822Y-171314523D01*
X97282813Y-171314529D01*
X97104486Y-171453327D01*
X97104474Y-171453338D01*
X96951430Y-171619587D01*
X96827829Y-171808774D01*
X96737054Y-172015721D01*
X96687856Y-172210000D01*
X97409506Y-172210000D01*
X97476545Y-172229685D01*
X97522300Y-172282489D01*
X97532244Y-172351647D01*
X97528483Y-172368936D01*
X97523190Y-172386961D01*
X97523190Y-172533038D01*
X97528483Y-172551064D01*
X97528484Y-172620933D01*
X97490710Y-172679712D01*
X97427154Y-172708738D01*
X97409506Y-172710000D01*
X96687856Y-172710000D01*
X96737054Y-172904278D01*
X96827829Y-173111225D01*
X96951430Y-173300412D01*
X97104474Y-173466661D01*
X97104486Y-173466672D01*
X97282813Y-173605470D01*
X97282818Y-173605473D01*
X97311408Y-173620946D01*
X97360998Y-173670166D01*
X97376105Y-173738383D01*
X97351934Y-173803938D01*
X97311408Y-173839054D01*
X97282818Y-173854526D01*
X97282813Y-173854529D01*
X97104486Y-173993327D01*
X97104474Y-173993338D01*
X96951430Y-174159587D01*
X96827829Y-174348774D01*
X96737054Y-174555721D01*
X96687856Y-174750000D01*
X97409506Y-174750000D01*
X97476545Y-174769685D01*
X97522300Y-174822489D01*
X97532244Y-174891647D01*
X97528483Y-174908936D01*
X97523190Y-174926961D01*
X97523190Y-175073038D01*
X97528483Y-175091064D01*
X97528484Y-175160933D01*
X97490710Y-175219712D01*
X97427154Y-175248738D01*
X97409506Y-175250000D01*
X96687856Y-175250000D01*
X96737054Y-175444278D01*
X96827829Y-175651225D01*
X96951430Y-175840412D01*
X97104474Y-176006661D01*
X97104486Y-176006672D01*
X97282813Y-176145470D01*
X97282818Y-176145473D01*
X97311408Y-176160946D01*
X97360998Y-176210166D01*
X97376105Y-176278383D01*
X97351934Y-176343938D01*
X97311408Y-176379054D01*
X97282818Y-176394526D01*
X97282813Y-176394529D01*
X97104486Y-176533327D01*
X97104474Y-176533338D01*
X96951430Y-176699587D01*
X96827829Y-176888774D01*
X96737054Y-177095721D01*
X96687856Y-177290000D01*
X97409506Y-177290000D01*
X97476545Y-177309685D01*
X97522300Y-177362489D01*
X97532244Y-177431647D01*
X97528483Y-177448936D01*
X97523190Y-177466961D01*
X97523190Y-177613038D01*
X97528483Y-177631064D01*
X97528484Y-177700933D01*
X97490710Y-177759712D01*
X97427154Y-177788738D01*
X97409506Y-177790000D01*
X96687856Y-177790000D01*
X96737054Y-177984278D01*
X96827829Y-178191225D01*
X96951430Y-178380412D01*
X97082723Y-178523033D01*
X97113646Y-178585687D01*
X97105786Y-178655113D01*
X97061639Y-178709269D01*
X97034829Y-178723197D01*
X96921385Y-178765511D01*
X96804329Y-178853139D01*
X96716701Y-178970195D01*
X96665601Y-179107195D01*
X96665601Y-179107197D01*
X96659090Y-179167745D01*
X96659090Y-180992254D01*
X96665601Y-181052802D01*
X96665601Y-181052804D01*
X96716700Y-181189803D01*
X96716701Y-181189804D01*
X96804329Y-181306861D01*
X96921386Y-181394489D01*
X97058389Y-181445589D01*
X97085640Y-181448518D01*
X97118935Y-181452099D01*
X97118952Y-181452100D01*
X98943428Y-181452100D01*
X98943444Y-181452099D01*
X98970482Y-181449191D01*
X99003991Y-181445589D01*
X99140994Y-181394489D01*
X99258051Y-181306861D01*
X99345679Y-181189804D01*
X99385287Y-181083610D01*
X99427157Y-181027681D01*
X99492621Y-181003264D01*
X99560894Y-181018116D01*
X99592695Y-181042963D01*
X99638707Y-181092946D01*
X99638711Y-181092949D01*
X99638714Y-181092952D01*
X99818142Y-181232606D01*
X99818157Y-181232616D01*
X100006365Y-181334469D01*
X100018135Y-181340839D01*
X100018138Y-181340840D01*
X100174410Y-181394488D01*
X100233205Y-181414672D01*
X100457495Y-181452100D01*
X100457496Y-181452100D01*
X100684884Y-181452100D01*
X100684885Y-181452100D01*
X100909175Y-181414672D01*
X101124245Y-181340839D01*
X101324229Y-181232612D01*
X101379227Y-181189806D01*
X101503665Y-181092952D01*
X101503673Y-181092946D01*
X101657680Y-180925649D01*
X101782051Y-180735285D01*
X101873393Y-180527047D01*
X101929214Y-180306614D01*
X101947992Y-180080000D01*
X101929214Y-179853386D01*
X101873393Y-179632953D01*
X101782051Y-179424715D01*
X101657680Y-179234351D01*
X101503673Y-179067054D01*
X101503668Y-179067050D01*
X101503665Y-179067047D01*
X101324237Y-178927393D01*
X101324226Y-178927386D01*
X101299900Y-178914221D01*
X101250310Y-178865001D01*
X101235203Y-178796784D01*
X101259375Y-178731228D01*
X101299904Y-178696111D01*
X101319562Y-178685473D01*
X101319566Y-178685470D01*
X101497893Y-178546672D01*
X101497905Y-178546661D01*
X101650949Y-178380412D01*
X101774550Y-178191225D01*
X101865325Y-177984278D01*
X101914524Y-177790000D01*
X101192874Y-177790000D01*
X101125835Y-177770315D01*
X101080080Y-177717511D01*
X101070136Y-177648353D01*
X101073897Y-177631064D01*
X101079190Y-177613038D01*
X101079190Y-177466961D01*
X101073897Y-177448936D01*
X101073896Y-177379067D01*
X101111670Y-177320288D01*
X101175226Y-177291262D01*
X101192874Y-177290000D01*
X101914524Y-177290000D01*
X101865325Y-177095721D01*
X101774550Y-176888774D01*
X101650949Y-176699587D01*
X101497905Y-176533338D01*
X101497893Y-176533327D01*
X101319566Y-176394529D01*
X101290972Y-176379055D01*
X101241382Y-176329835D01*
X101226274Y-176261619D01*
X101250444Y-176196063D01*
X101290972Y-176160945D01*
X101319566Y-176145470D01*
X101497893Y-176006672D01*
X101497905Y-176006661D01*
X101650949Y-175840412D01*
X101774550Y-175651225D01*
X101865325Y-175444278D01*
X101914524Y-175250000D01*
X101192874Y-175250000D01*
X101125835Y-175230315D01*
X101080080Y-175177511D01*
X101070136Y-175108353D01*
X101073897Y-175091064D01*
X101079190Y-175073038D01*
X101079190Y-174926961D01*
X101073897Y-174908936D01*
X101073896Y-174839067D01*
X101111670Y-174780288D01*
X101175226Y-174751262D01*
X101192874Y-174750000D01*
X101914524Y-174750000D01*
X101865325Y-174555721D01*
X101774550Y-174348774D01*
X101650949Y-174159587D01*
X101497905Y-173993338D01*
X101497893Y-173993327D01*
X101319566Y-173854529D01*
X101290972Y-173839055D01*
X101241382Y-173789835D01*
X101226274Y-173721619D01*
X101250444Y-173656063D01*
X101290972Y-173620945D01*
X101319566Y-173605470D01*
X101497893Y-173466672D01*
X101497905Y-173466661D01*
X101650949Y-173300412D01*
X101774550Y-173111225D01*
X101865325Y-172904278D01*
X101914524Y-172710000D01*
X101192874Y-172710000D01*
X101125835Y-172690315D01*
X101080080Y-172637511D01*
X101070136Y-172568353D01*
X101073897Y-172551064D01*
X101079190Y-172533038D01*
X101079190Y-172386961D01*
X101073897Y-172368936D01*
X101073896Y-172299067D01*
X101111670Y-172240288D01*
X101175226Y-172211262D01*
X101192874Y-172210000D01*
X101914524Y-172210000D01*
X101865325Y-172015721D01*
X101774550Y-171808774D01*
X101650949Y-171619587D01*
X101497905Y-171453338D01*
X101497893Y-171453327D01*
X101319566Y-171314529D01*
X101319557Y-171314523D01*
X101299901Y-171303886D01*
X101250310Y-171254667D01*
X101235203Y-171186450D01*
X101259374Y-171120894D01*
X101299903Y-171085777D01*
X101324222Y-171072616D01*
X101324223Y-171072614D01*
X101324229Y-171072612D01*
X101503673Y-170932946D01*
X101657680Y-170765649D01*
X101782051Y-170575285D01*
X101873393Y-170367047D01*
X101929214Y-170146614D01*
X101947992Y-169920000D01*
X101929214Y-169693386D01*
X101873393Y-169472953D01*
X101782051Y-169264715D01*
X101657680Y-169074351D01*
X101503673Y-168907054D01*
X101503668Y-168907050D01*
X101503665Y-168907047D01*
X101324237Y-168767393D01*
X101324222Y-168767383D01*
X101124255Y-168659166D01*
X101124241Y-168659159D01*
X100909177Y-168585328D01*
X100759648Y-168560375D01*
X100684885Y-168547900D01*
X100457495Y-168547900D01*
X100401422Y-168557257D01*
X100233202Y-168585328D01*
X100018138Y-168659159D01*
X100018124Y-168659166D01*
X99818157Y-168767383D01*
X99818142Y-168767393D01*
X99638714Y-168907047D01*
X99638704Y-168907057D01*
X99484697Y-169074354D01*
X99404999Y-169196343D01*
X99351852Y-169241699D01*
X99282621Y-169251123D01*
X99219285Y-169221621D01*
X99197381Y-169196343D01*
X99117682Y-169074354D01*
X99117681Y-169074353D01*
X99117680Y-169074351D01*
X98963673Y-168907054D01*
X98963668Y-168907050D01*
X98963665Y-168907047D01*
X98784237Y-168767393D01*
X98784222Y-168767383D01*
X98584255Y-168659166D01*
X98584241Y-168659159D01*
X98369177Y-168585328D01*
X98219648Y-168560375D01*
X98144885Y-168547900D01*
X97917495Y-168547900D01*
X97861422Y-168557257D01*
X97693202Y-168585328D01*
X97478138Y-168659159D01*
X97478124Y-168659166D01*
X97278157Y-168767383D01*
X97278142Y-168767393D01*
X97098714Y-168907047D01*
X97098704Y-168907057D01*
X96944697Y-169074354D01*
X96820327Y-169264718D01*
X96728987Y-169472952D01*
X96673165Y-169693389D01*
X96654388Y-169919994D01*
X96654388Y-169920005D01*
X89351690Y-169920005D01*
X89351690Y-85000000D01*
X98037883Y-85000000D01*
X98057075Y-85219371D01*
X98114070Y-85432076D01*
X98207134Y-85631654D01*
X98333441Y-85812038D01*
X98489152Y-85967749D01*
X98669536Y-86094056D01*
X98869114Y-86187120D01*
X99081819Y-86244115D01*
X99238512Y-86257823D01*
X99301188Y-86263307D01*
X99301190Y-86263307D01*
X99301192Y-86263307D01*
X99356032Y-86258509D01*
X99520561Y-86244115D01*
X99733266Y-86187120D01*
X99932844Y-86094056D01*
X100113228Y-85967749D01*
X100268939Y-85812038D01*
X100395246Y-85631654D01*
X100488310Y-85432076D01*
X100545305Y-85219371D01*
X100564497Y-85000000D01*
X100545305Y-84780629D01*
X100488310Y-84567924D01*
X100395246Y-84368347D01*
X100395244Y-84368344D01*
X100395243Y-84368342D01*
X100332092Y-84278154D01*
X100268939Y-84187962D01*
X100113228Y-84032251D01*
X99932844Y-83905944D01*
X99932840Y-83905942D01*
X99733271Y-83812882D01*
X99733269Y-83812881D01*
X99733266Y-83812880D01*
X99581967Y-83772339D01*
X99520562Y-83755885D01*
X99520555Y-83755884D01*
X99301192Y-83736693D01*
X99301188Y-83736693D01*
X99081824Y-83755884D01*
X99081817Y-83755885D01*
X98869110Y-83812881D01*
X98669536Y-83905944D01*
X98669532Y-83905946D01*
X98489157Y-84032247D01*
X98489150Y-84032252D01*
X98333442Y-84187960D01*
X98333437Y-84187967D01*
X98207136Y-84368342D01*
X98207134Y-84368346D01*
X98114071Y-84567920D01*
X98057075Y-84780627D01*
X98057074Y-84780634D01*
X98037883Y-84999997D01*
X98037883Y-85000000D01*
X89351690Y-85000000D01*
X89351690Y-65000000D01*
X98037883Y-65000000D01*
X98057075Y-65219371D01*
X98114070Y-65432076D01*
X98207134Y-65631654D01*
X98333441Y-65812038D01*
X98489152Y-65967749D01*
X98669536Y-66094056D01*
X98869114Y-66187120D01*
X99081819Y-66244115D01*
X99238512Y-66257823D01*
X99301188Y-66263307D01*
X99301190Y-66263307D01*
X99301192Y-66263307D01*
X99356032Y-66258509D01*
X99520561Y-66244115D01*
X99733266Y-66187120D01*
X99932844Y-66094056D01*
X100113228Y-65967749D01*
X100268939Y-65812038D01*
X100395246Y-65631654D01*
X100488310Y-65432076D01*
X100545305Y-65219371D01*
X100564497Y-65000000D01*
X100545305Y-64780629D01*
X100488310Y-64567924D01*
X100395246Y-64368347D01*
X100395244Y-64368344D01*
X100395243Y-64368342D01*
X100332092Y-64278154D01*
X100268939Y-64187962D01*
X100113228Y-64032251D01*
X99932844Y-63905944D01*
X99932840Y-63905942D01*
X99733271Y-63812882D01*
X99733269Y-63812881D01*
X99733266Y-63812880D01*
X99581967Y-63772339D01*
X99520562Y-63755885D01*
X99520555Y-63755884D01*
X99301192Y-63736693D01*
X99301188Y-63736693D01*
X99081824Y-63755884D01*
X99081817Y-63755885D01*
X98869110Y-63812881D01*
X98669536Y-63905944D01*
X98669532Y-63905946D01*
X98489157Y-64032247D01*
X98489150Y-64032252D01*
X98333442Y-64187960D01*
X98333437Y-64187967D01*
X98207136Y-64368342D01*
X98207134Y-64368346D01*
X98114071Y-64567920D01*
X98057075Y-64780627D01*
X98057074Y-64780634D01*
X98037883Y-64999997D01*
X98037883Y-65000000D01*
X89351690Y-65000000D01*
X89351690Y-50000000D01*
X98046415Y-50000000D01*
X98065477Y-50217884D01*
X98065479Y-50217894D01*
X98122084Y-50429150D01*
X98122088Y-50429159D01*
X98214525Y-50627391D01*
X98258063Y-50689571D01*
X98258064Y-50689572D01*
X98800637Y-50147000D01*
X98861960Y-50113515D01*
X98931652Y-50118499D01*
X98987585Y-50160371D01*
X98992127Y-50166859D01*
X99040125Y-50240326D01*
X99139790Y-50317898D01*
X99180603Y-50374609D01*
X99184278Y-50444382D01*
X99151309Y-50503433D01*
X98611616Y-51043124D01*
X98673801Y-51086666D01*
X98673803Y-51086667D01*
X98872030Y-51179101D01*
X98872039Y-51179105D01*
X99083295Y-51235710D01*
X99083305Y-51235712D01*
X99301189Y-51254775D01*
X99301191Y-51254775D01*
X99519074Y-51235712D01*
X99519084Y-51235710D01*
X99730340Y-51179105D01*
X99730349Y-51179101D01*
X99928577Y-51086666D01*
X99990762Y-51043124D01*
X99447596Y-50499958D01*
X99414111Y-50438635D01*
X99419095Y-50368943D01*
X99460967Y-50313010D01*
X99476252Y-50303227D01*
X99519137Y-50280019D01*
X99598250Y-50194079D01*
X99601745Y-50186110D01*
X99646700Y-50132624D01*
X99713436Y-50111934D01*
X99780764Y-50130608D01*
X99802982Y-50148239D01*
X100344314Y-50689572D01*
X100387856Y-50627387D01*
X100480291Y-50429159D01*
X100480295Y-50429150D01*
X100536900Y-50217894D01*
X100536902Y-50217884D01*
X100555965Y-50000000D01*
X100555965Y-49999999D01*
X100536902Y-49782115D01*
X100536900Y-49782105D01*
X100480295Y-49570849D01*
X100480291Y-49570840D01*
X100387858Y-49372615D01*
X100344313Y-49310427D01*
X99801741Y-49852998D01*
X99740418Y-49886483D01*
X99670726Y-49881499D01*
X99614793Y-49839627D01*
X99610251Y-49833138D01*
X99562255Y-49759674D01*
X99562252Y-49759671D01*
X99462589Y-49682100D01*
X99421776Y-49625390D01*
X99418101Y-49555617D01*
X99451070Y-49496566D01*
X99990762Y-48956874D01*
X99990761Y-48956873D01*
X99928581Y-48913335D01*
X99730349Y-48820898D01*
X99730340Y-48820894D01*
X99519084Y-48764289D01*
X99519074Y-48764287D01*
X99301191Y-48745225D01*
X99301189Y-48745225D01*
X99083305Y-48764287D01*
X99083295Y-48764289D01*
X98872039Y-48820894D01*
X98872030Y-48820898D01*
X98673804Y-48913332D01*
X98673802Y-48913333D01*
X98611618Y-48956875D01*
X98611617Y-48956875D01*
X99154784Y-49500041D01*
X99188269Y-49561364D01*
X99183285Y-49631055D01*
X99141414Y-49686989D01*
X99126121Y-49696776D01*
X99083246Y-49719979D01*
X99083242Y-49719981D01*
X99004129Y-49805922D01*
X99000631Y-49813896D01*
X98955671Y-49867379D01*
X98888934Y-49888065D01*
X98821607Y-49869386D01*
X98799397Y-49851760D01*
X98258065Y-49310427D01*
X98258065Y-49310428D01*
X98214523Y-49372612D01*
X98214522Y-49372614D01*
X98122088Y-49570840D01*
X98122084Y-49570849D01*
X98065479Y-49782105D01*
X98065477Y-49782115D01*
X98046415Y-49999999D01*
X98046415Y-50000000D01*
X89351690Y-50000000D01*
X89351690Y-2749999D01*
X101012901Y-2749999D01*
X101012902Y-2750000D01*
X101781775Y-2750000D01*
X101848814Y-2769685D01*
X101894569Y-2822489D01*
X101905393Y-2883729D01*
X101896242Y-3000000D01*
X101905393Y-3116271D01*
X101891029Y-3184648D01*
X101841977Y-3234405D01*
X101781775Y-3250000D01*
X101012902Y-3250000D01*
X101040614Y-3469370D01*
X101040616Y-3469379D01*
X101118849Y-3774073D01*
X101234645Y-4066544D01*
X101234649Y-4066552D01*
X101386193Y-4342209D01*
X101386204Y-4342227D01*
X101571091Y-4596702D01*
X101571099Y-4596712D01*
X101786437Y-4826023D01*
X102028825Y-5026544D01*
X102294422Y-5195096D01*
X102294428Y-5195099D01*
X102579052Y-5329034D01*
X102579057Y-5329036D01*
X102878231Y-5426244D01*
X103187240Y-5485191D01*
X103187247Y-5485192D01*
X103422616Y-5500000D01*
X104651190Y-5500000D01*
X104651190Y-4724000D01*
X104670875Y-4656961D01*
X104723679Y-4611206D01*
X104775190Y-4600000D01*
X105027190Y-4600000D01*
X105094229Y-4619685D01*
X105139984Y-4672489D01*
X105151190Y-4724000D01*
X105151190Y-5500000D01*
X106379764Y-5500000D01*
X106615132Y-5485192D01*
X106615139Y-5485191D01*
X106924148Y-5426244D01*
X107223322Y-5329036D01*
X107223327Y-5329034D01*
X107507951Y-5195099D01*
X107507957Y-5195096D01*
X107773554Y-5026544D01*
X108015942Y-4826023D01*
X108231280Y-4596712D01*
X108231288Y-4596702D01*
X108416175Y-4342227D01*
X108416186Y-4342209D01*
X108567730Y-4066552D01*
X108567734Y-4066544D01*
X108683530Y-3774073D01*
X108761763Y-3469379D01*
X108761765Y-3469370D01*
X108789478Y-3250000D01*
X108020605Y-3250000D01*
X107953566Y-3230315D01*
X107907811Y-3177511D01*
X107896987Y-3116271D01*
X107906138Y-3000000D01*
X107896987Y-2883728D01*
X107911351Y-2815352D01*
X107960403Y-2765595D01*
X108020605Y-2750000D01*
X108789478Y-2750000D01*
X108789478Y-2749999D01*
X108761765Y-2530629D01*
X108761763Y-2530620D01*
X108683530Y-2225926D01*
X108567734Y-1933455D01*
X108567730Y-1933447D01*
X108416186Y-1657790D01*
X108416175Y-1657772D01*
X108231288Y-1403297D01*
X108231280Y-1403287D01*
X108015942Y-1173976D01*
X107773554Y-973455D01*
X107507957Y-804903D01*
X107507951Y-804900D01*
X107223327Y-670965D01*
X107223322Y-670963D01*
X106924148Y-573755D01*
X106615139Y-514808D01*
X106615132Y-514807D01*
X106379764Y-500000D01*
X105151190Y-500000D01*
X105151190Y-1276000D01*
X105131505Y-1343039D01*
X105078701Y-1388794D01*
X105027190Y-1400000D01*
X104775190Y-1400000D01*
X104708151Y-1380315D01*
X104662396Y-1327511D01*
X104651190Y-1276000D01*
X104651190Y-500000D01*
X103422616Y-500000D01*
X103187247Y-514807D01*
X103187240Y-514808D01*
X102878231Y-573755D01*
X102579057Y-670963D01*
X102579052Y-670965D01*
X102294428Y-804900D01*
X102294422Y-804903D01*
X102028825Y-973455D01*
X101786437Y-1173976D01*
X101571099Y-1403287D01*
X101571091Y-1403297D01*
X101386204Y-1657772D01*
X101386193Y-1657790D01*
X101234649Y-1933447D01*
X101234645Y-1933455D01*
X101118849Y-2225926D01*
X101040616Y-2530620D01*
X101040614Y-2530629D01*
X101012901Y-2749999D01*
X89351690Y-2749999D01*
X89351690Y-174500D01*
X89371375Y-107461D01*
X89424179Y-61706D01*
X89475690Y-50500D01*
X109126690Y-50500D01*
X109193729Y-70185D01*
G37*
G04 #@! TD.AperFunction*
G04 #@! TD*
M02*
