G04 #@! TF.GenerationSoftware,KiCad,Pcbnew,7.0.8-7.0.8~ubuntu22.04.1*
G04 #@! TF.CreationDate,2023-10-27T21:06:58-04:00*
G04 #@! TF.ProjectId,powerdisplay,706f7765-7264-4697-9370-6c61792e6b69,rev?*
G04 #@! TF.SameCoordinates,Original*
G04 #@! TF.FileFunction,Other,Comment*
%FSLAX46Y46*%
G04 Gerber Fmt 4.6, Leading zero omitted, Abs format (unit mm)*
G04 Created by KiCad (PCBNEW 7.0.8-7.0.8~ubuntu22.04.1) date 2023-10-27 21:06:58*
%MOMM*%
%LPD*%
G01*
G04 APERTURE LIST*
%ADD10C,0.120000*%
%ADD11C,0.150000*%
G04 APERTURE END LIST*
D10*
G04 #@! TO.C,H1*
X106301190Y-6000000D02*
X103501190Y-6000000D01*
X106301190Y0D02*
X103501190Y0D01*
X106301190Y-6000000D02*
G75*
G03*
X106301190Y0I0J3000000D01*
G01*
X103501190Y0D02*
G75*
G03*
X103501190Y-6000000I0J-3000000D01*
G01*
G04 #@! TO.C,H2*
X106301190Y-200000000D02*
X103501190Y-200000000D01*
X106301190Y-194000000D02*
X103501190Y-194000000D01*
X106301190Y-200000000D02*
G75*
G03*
X106301190Y-194000000I0J3000000D01*
G01*
X103501190Y-194000000D02*
G75*
G03*
X103501190Y-200000000I0J-3000000D01*
G01*
D11*
G04 #@! TO.C,H3*
X102101190Y-75150000D02*
G75*
G03*
X102101190Y-75150000I-2800000J0D01*
G01*
G04 #@! TO.C,H4*
X102101190Y-95000000D02*
G75*
G03*
X102101190Y-95000000I-2800000J0D01*
G01*
G04 #@! TD*
M02*
