<?xml version="1.0" standalone="no"?>
 <!DOCTYPE svg PUBLIC "-//W3C//DTD SVG 1.1//EN" 
 "http://www.w3.org/Graphics/SVG/1.1/DTD/svg11.dtd"> 
<svg
  xmlns:svg="http://www.w3.org/2000/svg"
  xmlns="http://www.w3.org/2000/svg"
  xmlns:xlink="http://www.w3.org/1999/xlink"
  version="1.1"
  width="20.7772mm" height="202.3110mm" viewBox="0.0000 0.0000 20.7772 202.3110">
<title>SVG Image created as powerdisplay_back.svg date 2023/10/27 21:06:51 </title>
  <desc>Image generated by PCBNEW </desc>
<g style="fill:#000000; fill-opacity:1.0000;stroke:#000000; stroke-opacity:1.0000;
stroke-linecap:round; stroke-linejoin:round;"
 transform="translate(0 0) scale(1 1)">
</g>
<g style="fill:#000000; fill-opacity:0.0; 
stroke:#000000; stroke-width:0.0000; stroke-opacity:1; 
stroke-linecap:round; stroke-linejoin:round;">
</g>
<g style="fill:#E8B2A7; fill-opacity:0.0; 
stroke:#E8B2A7; stroke-width:0.0000; stroke-opacity:1; 
stroke-linecap:round; stroke-linejoin:round;">
</g>
<g style="fill:#E8B2A7; fill-opacity:0.0; 
stroke:#E8B2A7; stroke-width:0.1500; stroke-opacity:1; 
stroke-linecap:round; stroke-linejoin:round;">
<text x="10.9972" y="188.5550"
transform="scale(-1 1) translate(-21.994400 0)"
textLength="4.2500" font-size="1.3333" lengthAdjust="spacingAndGlyphs"
text-anchor="middle" opacity="0">-12V</text>
<g class="stroked-text"><desc>-12V</desc>
<path d="M9.2353 188.1289
L9.9972 188.1289
" />
<path d="M10.9972 188.5098
L10.4258 188.5098
" />
<path d="M10.7115 188.5098
L10.7115 187.5098
" />
<path d="M10.7115 187.5098
L10.6162 187.6527
" />
<path d="M10.6162 187.6527
L10.5210 187.7479
" />
<path d="M10.5210 187.7479
L10.4258 187.7955
" />
<path d="M11.3782 187.6051
L11.4258 187.5574
" />
<path d="M11.4258 187.5574
L11.5210 187.5098
" />
<path d="M11.5210 187.5098
L11.7591 187.5098
" />
<path d="M11.7591 187.5098
L11.8543 187.5574
" />
<path d="M11.8543 187.5574
L11.9020 187.6051
" />
<path d="M11.9020 187.6051
L11.9496 187.7003
" />
<path d="M11.9496 187.7003
L11.9496 187.7955
" />
<path d="M11.9496 187.7955
L11.9020 187.9384
" />
<path d="M11.9020 187.9384
L11.3305 188.5098
" />
<path d="M11.3305 188.5098
L11.9496 188.5098
" />
<path d="M12.2353 187.5098
L12.5686 188.5098
" />
<path d="M12.5686 188.5098
L12.9020 187.5098
" />
</g><text x="10.4972" y="187.0550"
transform="scale(-1 1) translate(-20.994400 0)"
textLength="9.0119" font-size="1.3333" lengthAdjust="spacingAndGlyphs"
text-anchor="middle" opacity="0">RED STRIPE</text>
<g class="stroked-text"><desc>RED STRIPE</desc>
<path d="M6.9258 187.0098
L6.5924 186.5336
" />
<path d="M6.3543 187.0098
L6.3543 186.0098
" />
<path d="M6.3543 186.0098
L6.7353 186.0098
" />
<path d="M6.7353 186.0098
L6.8305 186.0574
" />
<path d="M6.8305 186.0574
L6.8782 186.1051
" />
<path d="M6.8782 186.1051
L6.9258 186.2003
" />
<path d="M6.9258 186.2003
L6.9258 186.3432
" />
<path d="M6.9258 186.3432
L6.8782 186.4384
" />
<path d="M6.8782 186.4384
L6.8305 186.4860
" />
<path d="M6.8305 186.4860
L6.7353 186.5336
" />
<path d="M6.7353 186.5336
L6.3543 186.5336
" />
<path d="M7.3543 186.4860
L7.6877 186.4860
" />
<path d="M7.8305 187.0098
L7.3543 187.0098
" />
<path d="M7.3543 187.0098
L7.3543 186.0098
" />
<path d="M7.3543 186.0098
L7.8305 186.0098
" />
<path d="M8.2591 187.0098
L8.2591 186.0098
" />
<path d="M8.2591 186.0098
L8.4972 186.0098
" />
<path d="M8.4972 186.0098
L8.6401 186.0574
" />
<path d="M8.6401 186.0574
L8.7353 186.1527
" />
<path d="M8.7353 186.1527
L8.7829 186.2479
" />
<path d="M8.7829 186.2479
L8.8305 186.4384
" />
<path d="M8.8305 186.4384
L8.8305 186.5812
" />
<path d="M8.8305 186.5812
L8.7829 186.7717
" />
<path d="M8.7829 186.7717
L8.7353 186.8670
" />
<path d="M8.7353 186.8670
L8.6401 186.9622
" />
<path d="M8.6401 186.9622
L8.4972 187.0098
" />
<path d="M8.4972 187.0098
L8.2591 187.0098
" />
<path d="M9.9734 186.9622
L10.1162 187.0098
" />
<path d="M10.1162 187.0098
L10.3543 187.0098
" />
<path d="M10.3543 187.0098
L10.4496 186.9622
" />
<path d="M10.4496 186.9622
L10.4972 186.9146
" />
<path d="M10.4972 186.9146
L10.5448 186.8193
" />
<path d="M10.5448 186.8193
L10.5448 186.7241
" />
<path d="M10.5448 186.7241
L10.4972 186.6289
" />
<path d="M10.4972 186.6289
L10.4496 186.5812
" />
<path d="M10.4496 186.5812
L10.3543 186.5336
" />
<path d="M10.3543 186.5336
L10.1639 186.4860
" />
<path d="M10.1639 186.4860
L10.0686 186.4384
" />
<path d="M10.0686 186.4384
L10.0210 186.3908
" />
<path d="M10.0210 186.3908
L9.9734 186.2955
" />
<path d="M9.9734 186.2955
L9.9734 186.2003
" />
<path d="M9.9734 186.2003
L10.0210 186.1051
" />
<path d="M10.0210 186.1051
L10.0686 186.0574
" />
<path d="M10.0686 186.0574
L10.1639 186.0098
" />
<path d="M10.1639 186.0098
L10.4020 186.0098
" />
<path d="M10.4020 186.0098
L10.5448 186.0574
" />
<path d="M10.8305 186.0098
L11.4020 186.0098
" />
<path d="M11.1162 187.0098
L11.1162 186.0098
" />
<path d="M12.3067 187.0098
L11.9734 186.5336
" />
<path d="M11.7353 187.0098
L11.7353 186.0098
" />
<path d="M11.7353 186.0098
L12.1162 186.0098
" />
<path d="M12.1162 186.0098
L12.2115 186.0574
" />
<path d="M12.2115 186.0574
L12.2591 186.1051
" />
<path d="M12.2591 186.1051
L12.3067 186.2003
" />
<path d="M12.3067 186.2003
L12.3067 186.3432
" />
<path d="M12.3067 186.3432
L12.2591 186.4384
" />
<path d="M12.2591 186.4384
L12.2115 186.4860
" />
<path d="M12.2115 186.4860
L12.1162 186.5336
" />
<path d="M12.1162 186.5336
L11.7353 186.5336
" />
<path d="M12.7353 187.0098
L12.7353 186.0098
" />
<path d="M13.2115 187.0098
L13.2115 186.0098
" />
<path d="M13.2115 186.0098
L13.5924 186.0098
" />
<path d="M13.5924 186.0098
L13.6877 186.0574
" />
<path d="M13.6877 186.0574
L13.7353 186.1051
" />
<path d="M13.7353 186.1051
L13.7829 186.2003
" />
<path d="M13.7829 186.2003
L13.7829 186.3432
" />
<path d="M13.7829 186.3432
L13.7353 186.4384
" />
<path d="M13.7353 186.4384
L13.6877 186.4860
" />
<path d="M13.6877 186.4860
L13.5924 186.5336
" />
<path d="M13.5924 186.5336
L13.2115 186.5336
" />
<path d="M14.2115 186.4860
L14.5448 186.4860
" />
<path d="M14.6877 187.0098
L14.2115 187.0098
" />
<path d="M14.2115 187.0098
L14.2115 186.0098
" />
<path d="M14.2115 186.0098
L14.6877 186.0098
" />
</g><text x="10.9972" y="164.3550"
transform="scale(-1 1) translate(-21.994400 0)"
textLength="4.2500" font-size="1.3333" lengthAdjust="spacingAndGlyphs"
text-anchor="middle" opacity="0">+12V</text>
<g class="stroked-text"><desc>+12V</desc>
<path d="M9.2353 163.9289
L9.9972 163.9289
" />
<path d="M9.6162 164.3098
L9.6162 163.5479
" />
<path d="M10.9972 164.3098
L10.4258 164.3098
" />
<path d="M10.7115 164.3098
L10.7115 163.3098
" />
<path d="M10.7115 163.3098
L10.6162 163.4527
" />
<path d="M10.6162 163.4527
L10.5210 163.5479
" />
<path d="M10.5210 163.5479
L10.4258 163.5955
" />
<path d="M11.3782 163.4051
L11.4258 163.3574
" />
<path d="M11.4258 163.3574
L11.5210 163.3098
" />
<path d="M11.5210 163.3098
L11.7591 163.3098
" />
<path d="M11.7591 163.3098
L11.8543 163.3574
" />
<path d="M11.8543 163.3574
L11.9020 163.4051
" />
<path d="M11.9020 163.4051
L11.9496 163.5003
" />
<path d="M11.9496 163.5003
L11.9496 163.5955
" />
<path d="M11.9496 163.5955
L11.9020 163.7384
" />
<path d="M11.9020 163.7384
L11.3305 164.3098
" />
<path d="M11.3305 164.3098
L11.9496 164.3098
" />
<path d="M12.2353 163.3098
L12.5686 164.3098
" />
<path d="M12.5686 164.3098
L12.9020 163.3098
" />
</g></g>
<g style="fill:#E8B2A7; fill-opacity:0.0; 
stroke:#E8B2A7; stroke-width:0.1200; stroke-opacity:1; 
stroke-linecap:round; stroke-linejoin:round;">
<circle cx="10.7272" cy="85.2750" r="0.9500" /> 
<circle cx="10.7272" cy="65.2750" r="0.9500" /> 
<circle cx="10.7272" cy="50.2750" r="0.9500" /> 
<path d="M15.4022 164.8450
L15.4022 185.7050
" />
<path d="M15.4022 185.7050
L6.0522 185.7050
" />
<path d="M15.1472 165.1050
L15.1472 185.4550
" />
<path d="M15.1472 185.4550
L14.5972 184.9050
" />
<path d="M15.1472 185.4550
L6.2972 185.4550
" />
<path d="M15.0972 177.5250
L14.6172 177.5250
" />
<path d="M14.5972 165.6550
L15.0972 165.1550
" />
<path d="M14.5972 165.6550
L14.5972 173.0050
" />
<path d="M14.5972 173.0250
L15.1072 173.0250
" />
<path d="M14.5972 177.5250
L14.5972 184.9050
" />
<path d="M14.5972 184.9050
L6.8472 184.9050
" />
<path d="M6.8472 165.6550
L14.5972 165.6550
" />
<path d="M6.8472 165.6550
L6.2972 165.1050
" />
<path d="M6.8472 184.9050
L6.8472 165.6550
" />
<path d="M6.8472 184.9050
L6.2972 185.4550
" />
<path d="M6.2972 165.1050
L15.1472 165.1050
" />
<path d="M6.2972 185.4550
L6.2972 165.1050
" />
<path d="M6.0522 164.8450
L15.4022 164.8450
" />
<path d="M6.0522 185.7050
L6.0522 164.8450
" />
</g>
<g style="fill:#E8B2A7; fill-opacity:1.0000; 
stroke:#E8B2A7; stroke-width:0.0000; stroke-opacity:1; 
stroke-linecap:round; stroke-linejoin:round;">
<path style="fill:#E8B2A7; fill-opacity:1.0000; 
stroke:#E8B2A7; stroke-width:0.0000; stroke-opacity:1; 
stroke-linecap:round; stroke-linejoin:round;fill-rule:evenodd;"
d="M 2.8707,84.1171
2.8707,84.2570
3.3793,84.2570
3.8878,84.2570
3.8878,84.1171
3.8878,83.9773
3.3793,83.9773
2.8707,83.9773
Z" /> 
<path style="fill:#E8B2A7; fill-opacity:1.0000; 
stroke:#E8B2A7; stroke-width:0.0000; stroke-opacity:1; 
stroke-linecap:round; stroke-linejoin:round;fill-rule:evenodd;"
d="M 3.2521,63.6370
3.2521,63.9421
2.9470,63.9421
2.6419,63.9421
2.6419,64.0946
2.6419,64.2472
2.9470,64.2472
3.2521,64.2472
3.2521,64.5523
3.2521,64.8574
3.3920,64.8574
3.5318,64.8574
3.5318,64.5531
3.5318,64.2487
3.8433,64.2416
4.1547,64.2345
4.1624,64.0883
4.1700,63.9421
3.8509,63.9421
3.5318,63.9421
3.5318,63.6370
3.5318,63.3319
3.3920,63.3319
3.2521,63.3319
Z" /> 
<path style="fill:#E8B2A7; fill-opacity:1.0000; 
stroke:#E8B2A7; stroke-width:0.0000; stroke-opacity:1; 
stroke-linecap:round; stroke-linejoin:round;fill-rule:evenodd;"
d="M 5.1336,48.9512
5.1336,50.2886
5.2862,50.2886
5.4387,50.2886
5.4387,49.1157
5.4387,47.9428
5.5319,47.9579
5.6114,47.9783
5.7379,48.0299
5.8670,48.1001
5.9790,48.1792
6.0743,48.2583
6.0743,49.2734
6.0743,50.2886
6.2271,50.2886
6.3799,50.2886
6.3733,48.9601
6.3667,47.6317
6.2269,47.6317
6.0871,47.6317
6.0793,47.7521
6.0716,47.8725
5.9254,47.7988
5.8130,47.7472
5.5781,47.6720
5.3179,47.6308
5.1336,47.6138
Z" /> 
<path style="fill:#E8B2A7; fill-opacity:1.0000; 
stroke:#E8B2A7; stroke-width:0.0000; stroke-opacity:1; 
stroke-linecap:round; stroke-linejoin:round;fill-rule:evenodd;"
d="M 4.7077,82.7291
4.6898,82.7434
4.6316,82.7941
4.5493,82.8686
4.4512,82.9594
4.3454,83.0590
4.0530,83.3370
4.1406,83.4283
4.1719,83.4592
4.2237,83.5026
4.2564,83.5196
4.2703,83.5148
4.3150,83.4828
4.3708,83.4307
4.4005,83.4012
4.4493,83.3585
4.4775,83.3417
4.4789,83.3440
4.4833,83.3828
4.4873,83.4654
4.4909,83.5864
4.4938,83.7404
4.4960,83.9219
4.4975,84.1256
4.4980,84.3460
4.4980,85.3503
4.6378,85.3503
4.7776,85.3503
4.7776,84.0137
4.7776,82.6771
Z" /> 
<path style="fill:#E8B2A7; fill-opacity:1.0000; 
stroke:#E8B2A7; stroke-width:0.0000; stroke-opacity:1; 
stroke-linecap:round; stroke-linejoin:round;fill-rule:evenodd;"
d="M 4.9747,62.7120
4.9642,62.7217
4.9063,62.7750
4.8231,62.8514
4.7241,62.9423
4.6187,63.0387
4.5767,63.0774
4.4855,63.1628
4.4121,63.2338
4.3632,63.2837
4.3454,63.3061
4.3516,63.3196
4.3831,63.3635
4.4323,63.4230
4.5193,63.5225
4.6304,63.4145
4.6827,63.3655
4.7331,63.3228
4.7595,63.3064
4.7608,63.3087
4.7647,63.3476
4.7682,63.4302
4.7714,63.5512
4.7740,63.7052
4.7759,63.8867
4.7772,64.0904
4.7776,64.3107
4.7776,65.3150
4.9175,65.3150
5.0573,65.3150
5.0573,63.9752
5.0573,62.6354
Z" /> 
<path style="fill:#E8B2A7; fill-opacity:1.0000; 
stroke:#E8B2A7; stroke-width:0.0000; stroke-opacity:1; 
stroke-linecap:round; stroke-linejoin:round;fill-rule:evenodd;"
d="M 4.6950,47.6449
4.6646,47.6463
4.5373,47.6695
4.3911,47.7167
4.2425,47.7818
4.1077,47.8591
4.0548,47.8962
3.8701,48.0631
3.7185,48.2620
3.6045,48.4847
3.5324,48.7230
3.5068,48.9688
3.5109,49.0424
3.5356,49.1903
3.5776,49.3500
3.6313,49.5017
3.6912,49.6254
3.7432,49.7059
3.9003,49.8921
4.0876,50.0495
4.2954,50.1706
4.5141,50.2483
4.5728,50.2605
4.6966,50.2785
4.8094,50.2865
4.9556,50.2886
4.9556,49.2716
4.9556,48.2546
4.6124,48.2546
4.2691,48.2546
4.2691,48.3933
4.2691,48.5321
4.4662,48.5395
4.6632,48.5470
4.6700,49.2673
4.6767,49.9877
4.5937,49.9700
4.4945,49.9412
4.3196,49.8547
4.1566,49.7302
4.0153,49.5759
3.9056,49.3999
3.8933,49.3747
3.8612,49.3033
3.8409,49.2404
3.8298,49.1712
3.8252,49.0808
3.8242,48.9543
3.8242,48.9319
3.8257,48.8109
3.8314,48.7239
3.8438,48.6564
3.8655,48.5938
3.8989,48.5215
3.9330,48.4578
4.0665,48.2765
4.2357,48.1275
4.4345,48.0153
4.6569,47.9445
4.8031,47.9139
4.8031,47.7791
4.8031,47.6444
Z" /> 
<path style="fill:#E8B2A7; fill-opacity:1.0000; 
stroke:#E8B2A7; stroke-width:0.0000; stroke-opacity:1; 
stroke-linecap:round; stroke-linejoin:round;fill-rule:evenodd;"
d="M 6.5359,48.0296
6.5341,48.2004
6.5329,48.4108
6.5322,48.6647
6.5320,48.9657
6.5320,50.2886
6.6706,50.2886
6.6883,50.2885
6.9398,50.2618
7.1729,50.1879
7.3884,50.0665
7.5872,49.8970
7.6378,49.8436
7.7918,49.6440
7.8984,49.4333
7.9606,49.2049
7.9810,48.9520
7.9806,48.9124
7.9763,48.8684
7.6926,48.8684
7.6904,49.0605
7.6445,49.2686
7.5580,49.4648
7.4358,49.6407
7.2828,49.7874
7.1041,49.8965
7.0556,49.9178
6.9707,49.9514
6.9070,49.9720
6.8371,49.9890
6.8371,48.9692
6.8371,47.9495
6.8943,47.9497
6.9304,47.9537
7.0280,47.9862
7.1420,48.0455
7.2598,48.1246
7.3688,48.2164
7.4288,48.2785
7.5587,48.4587
7.6484,48.6589
7.6926,48.8684
7.9763,48.8684
7.9603,48.7040
7.9058,48.5097
7.8117,48.3103
7.8110,48.3089
7.6705,48.1071
7.4930,47.9345
7.2860,47.7961
7.0572,47.6971
6.8143,47.6427
6.7802,47.6387
6.6822,47.6298
6.6062,47.6265
6.5664,47.6296
6.5662,47.6296
6.5584,47.6405
6.5519,47.6688
6.5464,47.7180
6.5420,47.7921
6.5386,47.8947
6.5375,47.9495
Z" /> 
<path style="fill:#E8B2A7; fill-opacity:1.0000; 
stroke:#E8B2A7; stroke-width:0.0000; stroke-opacity:1; 
stroke-linecap:round; stroke-linejoin:round;fill-rule:evenodd;"
d="M 8.5533,62.6708
8.2233,63.7370
8.1744,63.8944
8.1084,64.1057
8.0481,64.2975
7.9948,64.4650
7.9503,64.6033
7.9161,64.7076
7.8937,64.7730
7.8846,64.7946
7.8805,64.7838
7.8626,64.7302
7.8324,64.6362
7.7913,64.5067
7.7410,64.3469
7.6829,64.1616
7.6187,63.9559
7.5501,63.7348
7.2241,62.6835
7.0655,62.6759
6.9988,62.6734
6.9427,62.6758
6.9205,62.6868
6.9225,62.7088
6.9242,62.7137
6.9392,62.7595
6.9675,62.8476
7.0076,62.9734
7.0580,63.1319
7.1172,63.3186
7.1838,63.5288
7.2561,63.7576
7.3328,64.0004
7.3578,64.0797
7.4330,64.3181
7.5034,64.5407
7.5673,64.7429
7.6233,64.9199
7.6700,65.0671
7.7059,65.1799
7.7294,65.2535
7.7391,65.2833
7.7580,65.2948
7.8116,65.3067
7.8827,65.3147
7.9544,65.3178
8.0099,65.3146
8.0321,65.3041
8.0337,65.2981
8.0477,65.2516
8.0750,65.1633
8.1142,65.0376
8.1639,64.8790
8.2226,64.6920
8.2889,64.4811
8.3615,64.2508
8.4389,64.0056
8.4744,63.8932
8.5499,63.6536
8.6199,63.4304
8.6830,63.2284
8.7378,63.0521
8.7829,62.9059
8.8168,62.7946
8.8383,62.7226
8.8457,62.6945
8.8311,62.6842
8.7781,62.6745
8.6995,62.6708
Z" /> 
<path style="fill:#E8B2A7; fill-opacity:1.0000; 
stroke:#E8B2A7; stroke-width:0.0000; stroke-opacity:1; 
stroke-linecap:round; stroke-linejoin:round;fill-rule:evenodd;"
d="M 5.3153,82.7286
5.3047,82.7318
5.2170,82.7616
5.1512,82.7887
5.1209,82.8077
5.1203,82.8169
5.1340,82.8609
5.1618,82.9240
5.1954,82.9896
5.2267,83.0411
5.2473,83.0620
5.2505,83.0613
5.2859,83.0482
5.3458,83.0238
5.4580,82.9932
5.6115,82.9922
5.7655,83.0303
5.9074,83.1042
6.0244,83.2105
6.0547,83.2506
6.1282,83.3953
6.1630,83.5531
6.1573,83.7110
6.1094,83.8562
6.0951,83.8786
6.0505,83.9411
5.9810,84.0344
5.8906,84.1531
5.7834,84.2922
5.6633,84.4462
5.5345,84.6100
5.4402,84.7293
5.3190,84.8825
5.2101,85.0202
5.1174,85.1376
5.0446,85.2296
4.9957,85.2916
4.9744,85.3185
4.9737,85.3195
4.9778,85.3289
5.0059,85.3363
5.0627,85.3419
5.1524,85.3459
5.2797,85.3484
5.4489,85.3499
5.6644,85.3503
6.3795,85.3503
6.3795,85.1984
6.3795,85.0464
5.9744,85.0394
5.5694,85.0325
5.9605,84.5392
6.0356,84.4435
6.1415,84.3055
6.2353,84.1794
6.3121,84.0722
6.3669,83.9906
6.3946,83.9417
6.3968,83.9363
6.4192,83.8553
6.4380,83.7472
6.4492,83.6341
6.4463,83.4564
6.4095,83.2916
6.3333,83.1401
6.2128,82.9887
6.0870,82.8725
5.9099,82.7641
5.7199,82.7032
5.5204,82.6910
Z" /> 
<path style="fill:#E8B2A7; fill-opacity:1.0000; 
stroke:#E8B2A7; stroke-width:0.0000; stroke-opacity:1; 
stroke-linecap:round; stroke-linejoin:round;fill-rule:evenodd;"
d="M 6.7735,82.6806
6.6935,82.6820
6.6530,82.6891
6.6415,82.7062
6.6485,82.7378
6.6594,82.7720
6.6840,82.8500
6.7208,82.9665
6.7683,83.1165
6.8247,83.2951
6.8886,83.4972
6.9583,83.7178
7.0322,83.9519
7.1020,84.1729
7.1737,84.3994
7.2402,84.6097
7.3000,84.7984
7.3513,84.9601
7.3924,85.0894
7.4216,85.1810
7.4372,85.2295
7.4768,85.3503
7.6146,85.3503
7.6702,85.3493
7.7294,85.3454
7.7524,85.3393
7.7561,85.3264
7.7733,85.2704
7.8028,85.1752
7.8431,85.0461
7.8923,84.8885
7.9489,84.7079
8.0111,84.5097
8.0772,84.2992
8.1455,84.0819
8.2143,83.8632
8.2820,83.6484
8.3467,83.4431
8.4068,83.2525
8.4607,83.0822
8.5065,82.9375
8.5426,82.8238
8.5674,82.7466
8.5790,82.7112
8.5802,82.7068
8.5689,82.6906
8.5229,82.6840
8.4344,82.6858
8.2781,82.6933
7.9895,83.6213
7.9852,83.6353
7.9189,83.8487
7.8560,84.0516
7.7983,84.2377
7.7480,84.4007
7.7068,84.5341
7.6769,84.6317
7.6601,84.6870
7.6413,84.7444
7.6175,84.7914
7.5998,84.7887
7.5993,84.7878
7.5858,84.7512
7.5598,84.6732
7.5232,84.5603
7.4784,84.4192
7.4273,84.2566
7.3722,84.0790
7.3266,83.9315
7.2628,83.7256
7.1996,83.5222
7.1408,83.3330
7.0897,83.1694
7.0501,83.0429
6.9361,82.6806
6.7832,82.6806
Z" /> 
<path style="fill:#E8B2A7; fill-opacity:1.0000; 
stroke:#E8B2A7; stroke-width:0.0000; stroke-opacity:1; 
stroke-linecap:round; stroke-linejoin:round;fill-rule:evenodd;"
d="M 5.7774,62.6746
5.6684,62.6896
5.5632,62.7128
5.4736,62.7412
5.4112,62.7714
5.3879,62.8003
5.3883,62.8035
5.4040,62.8405
5.4354,62.8976
5.4725,62.9585
5.5056,63.0070
5.5248,63.0268
5.5321,63.0251
5.5754,63.0115
5.6421,62.9886
5.6982,62.9707
5.8031,62.9532
5.9077,62.9635
6.0329,63.0023
6.0951,63.0302
6.2231,63.1198
6.3286,63.2378
6.4048,63.3737
6.4452,63.5169
6.4433,63.6570
6.4417,63.6653
6.4346,63.6998
6.4252,63.7333
6.4114,63.7692
6.3908,63.8105
6.3612,63.8604
6.3204,63.9219
6.2661,63.9982
6.1959,64.0924
6.1076,64.2076
5.9990,64.3470
5.8678,64.5137
5.7117,64.7107
5.5285,64.9413
5.3158,65.2086
5.2310,65.3150
5.9451,65.3150
6.6591,65.3150
6.6591,65.1752
6.6591,65.0354
6.2523,65.0354
6.1615,65.0350
6.0360,65.0333
5.9359,65.0303
5.8695,65.0264
5.8455,65.0219
5.8502,65.0138
5.8809,64.9716
5.9364,64.8985
6.0124,64.8005
6.1044,64.6833
6.2078,64.5525
6.2505,64.4985
6.3586,64.3586
6.4581,64.2256
6.5432,64.1077
6.6080,64.0129
6.6464,63.9495
6.6640,63.9148
6.6951,63.8429
6.7129,63.7740
6.7208,63.6901
6.7227,63.5734
6.7227,63.5682
6.7201,63.4477
6.7102,63.3587
6.6899,63.2829
6.6557,63.2017
6.6479,63.1855
6.5399,63.0112
6.4001,62.8721
6.2210,62.7603
6.1293,62.7169
6.0457,62.6875
5.9622,62.6740
5.8558,62.6708
Z" /> 
<path style="fill:#E8B2A7; fill-opacity:1.0000; 
stroke:#E8B2A7; stroke-width:0.0000; stroke-opacity:1; 
stroke-linecap:round; stroke-linejoin:round;fill-rule:evenodd;"
d="M 1.6735,82.3537
1.6710,82.4174
1.6687,82.4966
1.6666,82.5928
1.6646,82.7076
1.6628,82.8425
1.6612,82.9991
1.6597,83.1789
1.6583,83.3833
1.6571,83.6141
1.6560,83.8726
1.6550,84.1604
1.6542,84.4792
1.6534,84.8303
1.6528,85.2154
1.6522,85.6359
1.6517,86.0935
1.6514,86.5896
1.6510,87.1258
1.6508,87.7037
1.6506,88.3247
1.6505,88.9904
1.6504,89.7024
1.6503,90.4621
1.6503,91.2711
1.6503,91.3861
1.6504,92.2220
1.6505,93.0085
1.6507,93.7468
1.6510,94.4381
1.6514,95.0838
1.6518,95.6849
1.6524,96.2429
1.6530,96.7588
1.6538,97.2341
1.6547,97.6698
1.6557,98.0673
1.6568,98.4278
1.6580,98.7526
1.6594,99.0428
1.6609,99.2998
1.6625,99.5247
1.6643,99.7189
1.6662,99.8835
1.6682,100.0199
1.6704,100.1292
1.6728,100.2126
1.6753,100.2716
1.6780,100.3072
1.6808,100.3208
1.6811,100.3210
1.7124,100.3238
1.7921,100.3265
1.9181,100.3291
2.0882,100.3315
2.3002,100.3338
2.5518,100.3360
2.8409,100.3381
3.1652,100.3400
3.5226,100.3419
3.9109,100.3435
4.3277,100.3451
4.7710,100.3466
5.2385,100.3479
5.7280,100.3491
6.2372,100.3501
6.7641,100.3511
7.3064,100.3519
7.8618,100.3526
8.4282,100.3531
9.0034,100.3536
9.5851,100.3539
10.1711,100.3541
10.7593,100.3541
11.3474,100.3540
11.9332,100.3539
12.5146,100.3535
13.0892,100.3531
13.6550,100.3525
14.2096,100.3518
14.7509,100.3510
15.2767,100.3501
15.7848,100.3490
16.2729,100.3478
16.7388,100.3465
17.1804,100.3450
17.5955,100.3434
17.9817,100.3417
18.3370,100.3399
18.6591,100.3380
18.9458,100.3359
19.1949,100.3337
19.4042,100.3313
19.5714,100.3289
19.6944,100.3263
19.7710,100.3236
19.7990,100.3208
19.7994,100.3202
19.8022,100.3038
19.8049,100.2651
19.8074,100.2030
19.8075,100.1987
19.6769,100.1987
10.7399,100.1987
1.8029,100.1987
1.8029,91.2617
1.8029,82.3246
10.7399,82.3246
19.6769,82.3246
19.6769,91.2617
19.6769,100.1987
19.8075,100.1987
19.8097,100.1161
19.8119,100.0033
19.8139,99.8633
19.8158,99.6948
19.8175,99.4966
19.8192,99.2675
19.8206,99.0061
19.8220,98.7114
19.8232,98.3820
19.8243,98.0166
19.8253,97.6141
19.8261,97.1732
19.8269,96.6926
19.8275,96.1711
19.8281,95.6075
19.8285,95.0005
19.8289,94.3488
19.8292,93.6513
19.8294,92.9067
19.8295,92.1137
19.8295,91.2711
19.8295,90.9707
19.8295,90.1798
19.8294,89.4377
19.8293,88.7427
19.8292,88.0935
19.8289,87.4884
19.8287,86.9259
19.8283,86.4044
19.8279,85.9225
19.8274,85.4786
19.8268,85.0711
19.8261,84.6986
19.8254,84.3594
19.8245,84.0521
19.8234,83.7751
19.8223,83.5269
19.8210,83.3059
19.8196,83.1106
19.8181,82.9395
19.8164,82.7910
19.8145,82.6636
19.8125,82.5557
19.8103,82.4658
19.8079,82.3924
19.8053,82.3340
19.8026,82.2890
19.7997,82.2558
19.7965,82.2329
19.7931,82.2189
19.7895,82.2121
19.7879,82.2108
19.7787,82.2073
19.7618,82.2040
19.7355,82.2009
19.6983,82.1980
19.6488,82.1953
19.5853,82.1928
19.5063,82.1905
19.4103,82.1884
19.2958,82.1864
19.1611,82.1846
19.0049,82.1830
18.8254,82.1815
18.6213,82.1801
18.3909,82.1789
18.1327,82.1778
17.8452,82.1768
17.5269,82.1760
17.1761,82.1752
16.7914,82.1745
16.3713,82.1740
15.9141,82.1735
15.4184,82.1731
14.8826,82.1728
14.3052,82.1726
13.6846,82.1724
13.0193,82.1722
12.3078,82.1722
11.5485,82.1721
10.7399,82.1721
10.4523,82.1721
9.6611,82.1721
8.9186,82.1722
8.2234,82.1723
7.5739,82.1724
6.9685,82.1726
6.4058,82.1729
5.8841,82.1733
5.4020,82.1737
4.9579,82.1742
4.5503,82.1748
4.1777,82.1754
3.8384,82.1762
3.5310,82.1771
3.2539,82.1782
3.0055,82.1793
2.7845,82.1806
2.5891,82.1820
2.4179,82.1835
2.2694,82.1852
2.1419,82.1871
2.0340,82.1891
1.9441,82.1913
1.8707,82.1937
1.8123,82.1962
1.7672,82.1990
1.7340,82.2019
1.7112,82.2051
1.6971,82.2085
1.6903,82.2121
1.6889,82.2138
1.6854,82.2231
1.6822,82.2401
1.6791,82.2666
1.6762,82.3039
1.6751,82.3246
Z" /> 
<path style="fill:#E8B2A7; fill-opacity:1.0000; 
stroke:#E8B2A7; stroke-width:0.0000; stroke-opacity:1; 
stroke-linecap:round; stroke-linejoin:round;fill-rule:evenodd;"
d="M 1.6513,51.7145
1.6520,52.0036
1.6529,52.2547
1.6542,52.4705
1.6557,52.6536
1.6577,52.8068
1.6600,52.9326
1.6627,53.0338
1.6660,53.1131
1.6697,53.1732
1.6739,53.2166
1.6788,53.2462
1.6842,53.2645
1.6903,53.2743
1.6919,53.2756
1.7011,53.2791
1.7180,53.2824
1.7443,53.2854
1.7815,53.2883
1.8310,53.2910
1.8945,53.2935
1.9735,53.2958
2.0695,53.2980
2.1840,53.2999
2.3187,53.3017
2.4749,53.3034
2.6544,53.3049
2.8585,53.3062
3.0889,53.3075
3.3471,53.3086
3.6346,53.3095
3.9529,53.3104
4.3037,53.3111
4.6884,53.3118
5.1085,53.3123
5.5657,53.3128
6.0614,53.3132
6.5972,53.3135
7.1746,53.3138
7.7952,53.3140
8.4605,53.3141
9.1720,53.3142
9.9313,53.3142
10.7399,53.3142
11.0275,53.3142
11.8187,53.3142
12.5612,53.3142
13.2564,53.3140
13.9059,53.3139
14.5113,53.3137
15.0740,53.3134
15.5957,53.3131
16.0778,53.3127
16.5219,53.3122
16.9295,53.3116
17.3022,53.3109
17.6415,53.3101
17.9489,53.3092
18.2260,53.3082
18.4743,53.3070
18.6954,53.3058
18.8907,53.3044
19.0619,53.3028
19.2105,53.3011
19.3379,53.2993
19.4458,53.2972
19.5357,53.2950
19.6091,53.2927
19.6676,53.2901
19.7126,53.2873
19.7458,53.2844
19.7687,53.2812
19.7827,53.2779
19.7895,53.2743
19.7944,53.2671
19.8000,53.2508
19.8049,53.2238
19.8093,53.1834
19.8116,53.1490
19.6642,53.1490
10.7455,53.1554
10.6950,53.1554
9.8706,53.1560
9.0956,53.1564
8.3687,53.1568
7.6885,53.1570
7.0537,53.1571
6.4630,53.1571
5.9149,53.1570
5.4082,53.1568
4.9415,53.1564
4.5134,53.1559
4.1227,53.1553
3.7679,53.1545
3.4477,53.1536
3.1607,53.1525
2.9057,53.1513
2.6813,53.1499
2.4860,53.1484
2.3187,53.1467
2.1779,53.1448
2.0622,53.1428
1.9704,53.1406
1.9011,53.1382
1.8529,53.1356
1.8245,53.1329
1.8146,53.1299
1.8140,53.1244
1.8125,53.0763
1.8112,52.9819
1.8101,52.8443
1.8092,52.6669
1.8084,52.4527
1.8079,52.2052
1.8075,51.9275
1.8074,51.6229
1.8075,51.2946
1.8078,50.9457
1.8083,50.5797
1.8090,50.1996
1.8156,47.3011
10.7399,47.3011
19.6642,47.3011
19.6642,50.2250
19.6642,53.1490
19.8116,53.1490
19.8131,53.1270
19.8165,53.0519
19.8193,52.9554
19.8217,52.8349
19.8237,52.6876
19.8254,52.5108
19.8267,52.3020
19.8277,52.0584
19.8284,51.7774
19.8290,51.4562
19.8293,51.0922
19.8295,50.6827
19.8295,50.2250
19.8295,49.8577
19.8293,49.4385
19.8290,49.0654
19.8286,48.7356
19.8279,48.4465
19.8269,48.1954
19.8257,47.9796
19.8241,47.7965
19.8222,47.6433
19.8198,47.5175
19.8171,47.4163
19.8139,47.3370
19.8101,47.2769
19.8059,47.2335
19.8011,47.2039
19.7956,47.1856
19.7895,47.1758
19.7879,47.1745
19.7787,47.1710
19.7618,47.1677
19.7355,47.1647
19.6983,47.1618
19.6488,47.1591
19.5853,47.1566
19.5063,47.1543
19.4103,47.1522
19.2958,47.1502
19.1611,47.1484
19.0049,47.1467
18.8254,47.1452
18.6213,47.1439
18.3909,47.1426
18.1327,47.1415
17.8452,47.1406
17.5269,47.1397
17.1761,47.1390
16.7914,47.1383
16.3713,47.1378
15.9141,47.1373
15.4184,47.1369
14.8826,47.1366
14.3052,47.1363
13.6846,47.1361
13.0193,47.1360
12.3078,47.1359
11.5485,47.1359
10.7399,47.1359
10.4523,47.1359
9.6611,47.1359
8.9186,47.1359
8.2234,47.1361
7.5739,47.1362
6.9685,47.1364
6.4058,47.1367
5.8841,47.1370
5.4020,47.1374
4.9579,47.1379
4.5503,47.1385
4.1777,47.1392
3.8384,47.1400
3.5310,47.1409
3.2539,47.1419
3.0055,47.1431
2.7845,47.1443
2.5891,47.1457
2.4179,47.1473
2.2694,47.1490
2.1419,47.1509
2.0340,47.1529
1.9441,47.1551
1.8707,47.1574
1.8123,47.1600
1.7672,47.1628
1.7340,47.1657
1.7112,47.1689
1.6971,47.1722
1.6903,47.1758
1.6854,47.1830
1.6798,47.1993
1.6749,47.2263
1.6705,47.2667
1.6667,47.3231
1.6634,47.3982
1.6605,47.4947
1.6581,47.6152
1.6561,47.7625
1.6545,47.9393
1.6531,48.1481
1.6521,48.3917
1.6514,48.6727
1.6509,48.9939
1.6505,49.3579
1.6504,49.7674
1.6503,50.2250
1.6504,50.5924
1.6505,51.0116
1.6508,51.3847
1.6511,51.6229
Z" /> 
<path style="fill:#E8B2A7; fill-opacity:1.0000; 
stroke:#E8B2A7; stroke-width:0.0000; stroke-opacity:1; 
stroke-linecap:round; stroke-linejoin:round;fill-rule:evenodd;"
d="M 1.6701,62.3974
1.6679,62.5103
1.6659,62.6503
1.6640,62.8188
1.6623,63.0170
1.6607,63.2461
1.6592,63.5074
1.6579,63.8022
1.6566,64.1316
1.6556,64.4970
1.6546,64.8995
1.6537,65.3404
1.6530,65.8210
1.6523,66.3425
1.6518,66.9061
1.6513,67.5131
1.6509,68.1647
1.6507,68.8622
1.6505,69.6068
1.6504,70.3998
1.6503,71.2424
1.6503,71.5428
1.6503,72.3337
1.6504,73.0759
1.6505,73.7708
1.6507,74.4201
1.6509,75.0252
1.6511,75.5877
1.6515,76.1092
1.6519,76.5911
1.6524,77.0350
1.6530,77.4424
1.6537,77.8150
1.6545,78.1541
1.6554,78.4614
1.6564,78.7384
1.6575,78.9867
1.6588,79.2076
1.6602,79.4029
1.6618,79.5741
1.6635,79.7226
1.6653,79.8500
1.6673,79.9579
1.6695,80.0477
1.6719,80.1211
1.6745,80.1796
1.6772,80.2246
1.6802,80.2578
1.6833,80.2806
1.6867,80.2947
1.6903,80.3015
1.6919,80.3028
1.7011,80.3063
1.7180,80.3096
1.7443,80.3127
1.7815,80.3156
1.8310,80.3182
1.8945,80.3207
1.9735,80.3230
2.0695,80.3252
2.1840,80.3271
2.3187,80.3289
2.4749,80.3306
2.6544,80.3321
2.8585,80.3335
3.0889,80.3347
3.3471,80.3358
3.6346,80.3368
3.9529,80.3376
4.3037,80.3384
4.6884,80.3390
5.1085,80.3396
5.5657,80.3400
6.0614,80.3404
6.5972,80.3407
7.1746,80.3410
7.7952,80.3412
8.4605,80.3413
9.1720,80.3414
9.9313,80.3415
10.7399,80.3415
11.0275,80.3415
11.8187,80.3414
12.5612,80.3414
13.2564,80.3413
13.9059,80.3411
14.5113,80.3409
15.0740,80.3406
15.5957,80.3403
16.0778,80.3399
16.5219,80.3394
16.9295,80.3388
17.3022,80.3381
17.6415,80.3373
17.9489,80.3364
18.2260,80.3354
18.4743,80.3343
18.6954,80.3330
18.8907,80.3316
19.0619,80.3300
19.2105,80.3283
19.3379,80.3265
19.4458,80.3245
19.5357,80.3223
19.6091,80.3199
19.6676,80.3173
19.7126,80.3146
19.7458,80.3116
19.7687,80.3085
19.7827,80.3051
19.7895,80.3015
19.7909,80.2998
19.7944,80.2905
19.7977,80.2734
19.8007,80.2470
19.8036,80.2097
19.8063,80.1599
19.8088,80.0962
19.8111,80.0170
19.8132,79.9208
19.8152,79.8059
19.8170,79.6710
19.8186,79.5145
19.8201,79.3347
19.8215,79.1302
19.8227,78.8995
19.8238,78.6410
19.8248,78.3531
19.8257,78.0344
19.8264,77.6833
19.8271,77.2982
19.8276,76.8776
19.8281,76.4201
19.8285,75.9239
19.8288,75.3877
19.8290,74.8099
19.8292,74.1889
19.8294,73.5232
19.8294,72.8112
19.8295,72.0515
19.8295,71.2424
19.8295,71.1275
19.8295,70.2915
19.8293,69.5051
19.8291,68.7668
19.8288,68.0754
19.8285,67.4298
19.8280,66.8286
19.8274,66.2707
19.8268,65.7547
19.8260,65.2795
19.8251,64.8438
19.8241,64.4463
19.8230,64.0858
19.8218,63.7610
19.8204,63.4708
19.8189,63.2138
19.8173,62.9889
19.8156,62.7947
19.8137,62.6301
19.8116,62.4937
19.8094,62.3844
19.8074,62.3148
19.6770,62.3148
19.6706,71.2455
19.6642,80.1762
10.7505,80.1826
10.2463,80.1829
9.5856,80.1833
8.9394,80.1835
8.3093,80.1837
7.6973,80.1838
7.1051,80.1837
6.5347,80.1836
5.9877,80.1834
5.4661,80.1831
4.9717,80.1827
4.5062,80.1822
4.0715,80.1816
3.6695,80.1810
3.3019,80.1803
2.9705,80.1795
2.6773,80.1786
2.4240,80.1777
2.2124,80.1767
2.0444,80.1756
1.9217,80.1745
1.8463,80.1733
1.8199,80.1720
1.8189,80.1565
1.8176,80.0928
1.8164,79.9814
1.8152,79.8241
1.8140,79.6229
1.8129,79.3795
1.8118,79.0957
1.8108,78.7734
1.8098,78.4144
1.8089,78.0205
1.8080,77.5935
1.8071,77.1352
1.8064,76.6476
1.8057,76.1323
1.8051,75.5912
1.8045,75.0262
1.8040,74.4391
1.8036,73.8316
1.8033,73.2056
1.8031,72.5630
1.8029,71.9055
1.8029,71.2349
1.8029,62.3148
10.7399,62.3148
19.6770,62.3148
19.8074,62.3148
19.8070,62.3009
19.8045,62.2420
19.8018,62.2064
19.7990,62.1928
19.7987,62.1926
19.7675,62.1898
19.6877,62.1871
19.5617,62.1845
19.3916,62.1821
19.1797,62.1797
18.9280,62.1775
18.6389,62.1755
18.3146,62.1735
17.9572,62.1717
17.5690,62.1700
17.1521,62.1685
16.7088,62.1670
16.2414,62.1657
15.7519,62.1645
15.2426,62.1634
14.7157,62.1625
14.1734,62.1617
13.6180,62.1610
13.0516,62.1604
12.4765,62.1600
11.8948,62.1597
11.3087,62.1595
10.7205,62.1595
10.1324,62.1595
9.5466,62.1597
8.9652,62.1600
8.3906,62.1605
7.8248,62.1610
7.2702,62.1617
6.7289,62.1626
6.2031,62.1635
5.6951,62.1646
5.2070,62.1658
4.7410,62.1671
4.2994,62.1686
3.8844,62.1701
3.4981,62.1718
3.1428,62.1737
2.8207,62.1756
2.5340,62.1777
2.2849,62.1799
2.0757,62.1822
1.9084,62.1847
1.7854,62.1873
1.7088,62.1900
1.6808,62.1928
1.6804,62.1934
1.6776,62.2098
1.6750,62.2484
1.6725,62.3106
1.6723,62.3148
Z" /> 
<g >
</g>
<g >
</g>
<g >
</g>
<g >
</g>
<g >
</g>
<g >
</g>
<g >
</g>
<g >
</g>
<g >
</g>
<g >
</g>
<g >
</g>
<g >
</g>
<g >
</g>
<g >
</g>
<g >
</g>
<g >
</g>
<g >
</g>
<g >
</g>
</g>
<g style="fill:#FFFFFF; fill-opacity:1.0000; 
stroke:#FFFFFF; stroke-width:0.0000; stroke-opacity:1; 
stroke-linecap:round; stroke-linejoin:round;">
<circle cx="10.7272" cy="85.2750" r="0.3500" /> 
</g>
<g style="fill:#FFFFFF; fill-opacity:1.0000; 
stroke:#FFFFFF; stroke-width:0.0212; stroke-opacity:1; 
stroke-linecap:round; stroke-linejoin:round;">
</g>
<g style="fill:#FFFFFF; fill-opacity:1.0000; 
stroke:#FFFFFF; stroke-width:0.0000; stroke-opacity:1; 
stroke-linecap:round; stroke-linejoin:round;">
<circle cx="10.7272" cy="65.2750" r="0.3500" /> 
</g>
<g style="fill:#FFFFFF; fill-opacity:1.0000; 
stroke:#FFFFFF; stroke-width:0.0212; stroke-opacity:1; 
stroke-linecap:round; stroke-linejoin:round;">
</g>
<g style="fill:#FFFFFF; fill-opacity:1.0000; 
stroke:#FFFFFF; stroke-width:3.2000; stroke-opacity:1; 
stroke-linecap:round; stroke-linejoin:round;">
</g>
<g style="fill:#FFFFFF; fill-opacity:0.0; 
stroke:#FFFFFF; stroke-width:3.2000; stroke-opacity:1; 
stroke-linecap:round; stroke-linejoin:round;">
<path d="M3.7272 3.2750
L6.5272 3.2750
" />
<path d="M3.7272 197.2750
L6.5272 197.2750
" />
</g>
<g style="fill:#FFFFFF; fill-opacity:1.0000; 
stroke:#FFFFFF; stroke-width:0.0000; stroke-opacity:1; 
stroke-linecap:round; stroke-linejoin:round;">
<circle cx="10.7272" cy="50.2750" r="0.3500" /> 
</g>
<g style="fill:#FFFFFF; fill-opacity:1.0000; 
stroke:#FFFFFF; stroke-width:0.0212; stroke-opacity:1; 
stroke-linecap:round; stroke-linejoin:round;">
</g>
<g style="fill:#FFFFFF; fill-opacity:1.0000; 
stroke:#FFFFFF; stroke-width:0.0000; stroke-opacity:1; 
stroke-linecap:round; stroke-linejoin:round;">
<circle cx="11.9972" cy="180.3550" r="0.5080" /> 
</g>
<g style="fill:#FFFFFF; fill-opacity:1.0000; 
stroke:#FFFFFF; stroke-width:0.0212; stroke-opacity:1; 
stroke-linecap:round; stroke-linejoin:round;">
</g>
<g style="fill:#FFFFFF; fill-opacity:1.0000; 
stroke:#FFFFFF; stroke-width:0.0000; stroke-opacity:1; 
stroke-linecap:round; stroke-linejoin:round;">
<circle cx="9.4572" cy="180.3550" r="0.5080" /> 
</g>
<g style="fill:#FFFFFF; fill-opacity:1.0000; 
stroke:#FFFFFF; stroke-width:0.0212; stroke-opacity:1; 
stroke-linecap:round; stroke-linejoin:round;">
</g>
<g style="fill:#FFFFFF; fill-opacity:1.0000; 
stroke:#FFFFFF; stroke-width:0.0000; stroke-opacity:1; 
stroke-linecap:round; stroke-linejoin:round;">
<circle cx="11.9972" cy="177.8150" r="0.5080" /> 
</g>
<g style="fill:#FFFFFF; fill-opacity:1.0000; 
stroke:#FFFFFF; stroke-width:0.0212; stroke-opacity:1; 
stroke-linecap:round; stroke-linejoin:round;">
</g>
<g style="fill:#FFFFFF; fill-opacity:1.0000; 
stroke:#FFFFFF; stroke-width:0.0000; stroke-opacity:1; 
stroke-linecap:round; stroke-linejoin:round;">
<circle cx="9.4572" cy="177.8150" r="0.5080" /> 
</g>
<g style="fill:#FFFFFF; fill-opacity:1.0000; 
stroke:#FFFFFF; stroke-width:0.0212; stroke-opacity:1; 
stroke-linecap:round; stroke-linejoin:round;">
</g>
<g style="fill:#FFFFFF; fill-opacity:1.0000; 
stroke:#FFFFFF; stroke-width:0.0000; stroke-opacity:1; 
stroke-linecap:round; stroke-linejoin:round;">
<circle cx="11.9972" cy="175.2750" r="0.5080" /> 
</g>
<g style="fill:#FFFFFF; fill-opacity:1.0000; 
stroke:#FFFFFF; stroke-width:0.0212; stroke-opacity:1; 
stroke-linecap:round; stroke-linejoin:round;">
</g>
<g style="fill:#FFFFFF; fill-opacity:1.0000; 
stroke:#FFFFFF; stroke-width:0.0000; stroke-opacity:1; 
stroke-linecap:round; stroke-linejoin:round;">
<circle cx="9.4572" cy="175.2750" r="0.5080" /> 
</g>
<g style="fill:#FFFFFF; fill-opacity:1.0000; 
stroke:#FFFFFF; stroke-width:0.0212; stroke-opacity:1; 
stroke-linecap:round; stroke-linejoin:round;">
</g>
<g style="fill:#FFFFFF; fill-opacity:1.0000; 
stroke:#FFFFFF; stroke-width:0.0000; stroke-opacity:1; 
stroke-linecap:round; stroke-linejoin:round;">
<circle cx="11.9972" cy="172.7350" r="0.5080" /> 
</g>
<g style="fill:#FFFFFF; fill-opacity:1.0000; 
stroke:#FFFFFF; stroke-width:0.0212; stroke-opacity:1; 
stroke-linecap:round; stroke-linejoin:round;">
</g>
<g style="fill:#FFFFFF; fill-opacity:1.0000; 
stroke:#FFFFFF; stroke-width:0.0000; stroke-opacity:1; 
stroke-linecap:round; stroke-linejoin:round;">
<circle cx="9.4572" cy="172.7350" r="0.5080" /> 
</g>
<g style="fill:#FFFFFF; fill-opacity:1.0000; 
stroke:#FFFFFF; stroke-width:0.0212; stroke-opacity:1; 
stroke-linecap:round; stroke-linejoin:round;">
</g>
<g style="fill:#FFFFFF; fill-opacity:1.0000; 
stroke:#FFFFFF; stroke-width:0.0000; stroke-opacity:1; 
stroke-linecap:round; stroke-linejoin:round;">
<circle cx="11.9972" cy="170.1950" r="0.5080" /> 
</g>
<g style="fill:#FFFFFF; fill-opacity:1.0000; 
stroke:#FFFFFF; stroke-width:0.0212; stroke-opacity:1; 
stroke-linecap:round; stroke-linejoin:round;">
</g>
<g style="fill:#FFFFFF; fill-opacity:1.0000; 
stroke:#FFFFFF; stroke-width:0.0000; stroke-opacity:1; 
stroke-linecap:round; stroke-linejoin:round;">
<circle cx="9.4572" cy="170.1950" r="0.5080" /> 
</g>
<g style="fill:#FFFFFF; fill-opacity:1.0000; 
stroke:#FFFFFF; stroke-width:0.0212; stroke-opacity:1; 
stroke-linecap:round; stroke-linejoin:round;">
</g>
<g style="fill:#FFFFFF; fill-opacity:1.0000; 
stroke:#FFFFFF; stroke-width:0.0000; stroke-opacity:1; 
stroke-linecap:round; stroke-linejoin:round;">
<circle cx="10.7272" cy="75.4250" r="2.5000" /> 
</g>
<g style="fill:#FFFFFF; fill-opacity:1.0000; 
stroke:#FFFFFF; stroke-width:0.0212; stroke-opacity:1; 
stroke-linecap:round; stroke-linejoin:round;">
</g>
<g style="fill:#FFFFFF; fill-opacity:1.0000; 
stroke:#FFFFFF; stroke-width:0.0000; stroke-opacity:1; 
stroke-linecap:round; stroke-linejoin:round;">
<circle cx="10.7272" cy="95.2750" r="2.5000" /> 
</g>
<g style="fill:#FFFFFF; fill-opacity:1.0000; 
stroke:#FFFFFF; stroke-width:0.0212; stroke-opacity:1; 
stroke-linecap:round; stroke-linejoin:round;">
</g>
<g style="fill:#000000; fill-opacity:1.0000; 
stroke:#000000; stroke-width:0.0212; stroke-opacity:1; 
stroke-linecap:round; stroke-linejoin:round;">
<g >
</g>
<g >
</g>
<g >
</g>
<g >
</g>
<g >
</g>
<g >
</g>
<g style="fill:#4D7FC4; fill-opacity:1.0000; 
stroke:#4D7FC4; stroke-width:0.0212; stroke-opacity:1; 
stroke-linecap:round; stroke-linejoin:round;">
</g>
<g style="fill:#4D7FC4; fill-opacity:1.0000; 
stroke:#4D7FC4; stroke-width:0.0000; stroke-opacity:1; 
stroke-linecap:round; stroke-linejoin:round;">
<circle cx="10.7272" cy="85.2750" r="0.7500" /> 
</g>
<g style="fill:#4D7FC4; fill-opacity:1.0000; 
stroke:#4D7FC4; stroke-width:0.0212; stroke-opacity:1; 
stroke-linecap:round; stroke-linejoin:round;">
</g>
<g >
</g>
<g style="fill:#4D7FC4; fill-opacity:1.0000; 
stroke:#4D7FC4; stroke-width:0.0212; stroke-opacity:1; 
stroke-linecap:round; stroke-linejoin:round;">
</g>
<g style="fill:#4D7FC4; fill-opacity:1.0000; 
stroke:#4D7FC4; stroke-width:0.0000; stroke-opacity:1; 
stroke-linecap:round; stroke-linejoin:round;">
<circle cx="10.7272" cy="65.2750" r="0.7500" /> 
</g>
<g style="fill:#4D7FC4; fill-opacity:1.0000; 
stroke:#4D7FC4; stroke-width:0.0212; stroke-opacity:1; 
stroke-linecap:round; stroke-linejoin:round;">
</g>
<g >
</g>
<g style="fill:#4D7FC4; fill-opacity:1.0000; 
stroke:#4D7FC4; stroke-width:0.0212; stroke-opacity:1; 
stroke-linecap:round; stroke-linejoin:round;">
</g>
<g style="fill:#4D7FC4; fill-opacity:1.0000; 
stroke:#4D7FC4; stroke-width:4.0000; stroke-opacity:1; 
stroke-linecap:round; stroke-linejoin:round;">
</g>
<g style="fill:#4D7FC4; fill-opacity:0.0; 
stroke:#4D7FC4; stroke-width:4.0000; stroke-opacity:1; 
stroke-linecap:round; stroke-linejoin:round;">
<path d="M3.7272 3.2750
L6.5272 3.2750
" />
</g>
<g >
</g>
<g style="fill:#4D7FC4; fill-opacity:0.0; 
stroke:#4D7FC4; stroke-width:4.0000; stroke-opacity:1; 
stroke-linecap:round; stroke-linejoin:round;">
<path d="M3.7272 197.2750
L6.5272 197.2750
" />
</g>
<g >
</g>
<g style="fill:#4D7FC4; fill-opacity:0.0; 
stroke:#4D7FC4; stroke-width:4.0000; stroke-opacity:1; 
stroke-linecap:round; stroke-linejoin:round;">
</g>
<g style="fill:#4D7FC4; fill-opacity:1.0000; 
stroke:#4D7FC4; stroke-width:0.0000; stroke-opacity:1; 
stroke-linecap:round; stroke-linejoin:round;">
<circle cx="10.7272" cy="50.2750" r="0.7500" /> 
</g>
<g style="fill:#4D7FC4; fill-opacity:1.0000; 
stroke:#4D7FC4; stroke-width:0.0212; stroke-opacity:1; 
stroke-linecap:round; stroke-linejoin:round;">
</g>
<g >
</g>
<g style="fill:#4D7FC4; fill-opacity:1.0000; 
stroke:#4D7FC4; stroke-width:0.0212; stroke-opacity:1; 
stroke-linecap:round; stroke-linejoin:round;">
</g>
<g style="fill:#4D7FC4; fill-opacity:1.0000; 
stroke:#4D7FC4; stroke-width:0.0000; stroke-opacity:1; 
stroke-linecap:round; stroke-linejoin:round;">
<path style="fill:#4D7FC4; fill-opacity:1.0000; 
stroke:#4D7FC4; stroke-width:0.0000; stroke-opacity:1; 
stroke-linecap:round; stroke-linejoin:round;fill-rule:evenodd;"
d="M 12.8608,181.2186
12.8608,179.4914
11.1336,179.4914
11.1336,181.2186
Z" /> 
<circle cx="9.4572" cy="180.3550" r="0.8636" /> 
<circle cx="11.9972" cy="177.8150" r="0.8636" /> 
<circle cx="9.4572" cy="177.8150" r="0.8636" /> 
<circle cx="11.9972" cy="175.2750" r="0.8636" /> 
<circle cx="9.4572" cy="175.2750" r="0.8636" /> 
<circle cx="11.9972" cy="172.7350" r="0.8636" /> 
<circle cx="9.4572" cy="172.7350" r="0.8636" /> 
<circle cx="11.9972" cy="170.1950" r="0.8636" /> 
<circle cx="9.4572" cy="170.1950" r="0.8636" /> 
</g>
<g >
</g>
<g >
</g>
<g >
</g>
<g >
</g>
<g >
</g>
<g >
</g>
<g >
</g>
<g style="fill:#4D7FC4; fill-opacity:1.0000; 
stroke:#4D7FC4; stroke-width:0.0000; stroke-opacity:1; 
stroke-linecap:round; stroke-linejoin:round;">
<g >
<path style="fill:#4D7FC4; fill-opacity:1.0000; 
stroke:#4D7FC4; stroke-width:0.0000; stroke-opacity:1; 
stroke-linecap:round; stroke-linejoin:round;fill-rule:evenodd;"
d="M 10.0118,177.5847
9.9661,177.6375
9.9561,177.7066
9.9599,177.7239
9.9652,177.7420
9.9652,177.8880
9.9599,177.9061
9.9599,177.9759
9.9977,178.0347
10.0612,178.0637
10.0789,178.0650
11.3755,178.0650
11.4426,178.0453
11.4883,177.9925
11.4983,177.9234
11.4945,177.9061
11.4892,177.8880
11.4892,177.7420
11.4945,177.7239
11.4945,177.6541
11.4567,177.5953
11.3932,177.5663
11.3755,177.5650
10.0789,177.5650
Z" /> 
<path style="fill:#4D7FC4; fill-opacity:1.0000; 
stroke:#4D7FC4; stroke-width:0.0000; stroke-opacity:1; 
stroke-linecap:round; stroke-linejoin:round;fill-rule:evenodd;"
d="M 11.8197,175.7826
11.7669,175.8283
11.7472,175.8954
11.7472,177.1946
11.7669,177.2617
11.8197,177.3074
11.8888,177.3174
11.9609,177.3070
11.9609,177.3070
12.0335,177.3070
12.0335,177.3070
12.1056,177.3174
12.1747,177.3074
12.2275,177.2617
12.2472,177.1946
12.2472,175.8954
12.2275,175.8283
12.1747,175.7826
12.1056,175.7726
12.0335,175.7830
12.0335,175.7830
11.9609,175.7830
11.9609,175.7830
11.8888,175.7726
Z" /> 
<path style="fill:#4D7FC4; fill-opacity:1.0000; 
stroke:#4D7FC4; stroke-width:0.0000; stroke-opacity:1; 
stroke-linecap:round; stroke-linejoin:round;fill-rule:evenodd;"
d="M 9.2797,175.7826
9.2269,175.8283
9.2072,175.8954
9.2072,177.1946
9.2269,177.2617
9.2797,177.3074
9.3488,177.3174
9.4209,177.3070
9.4209,177.3070
9.4935,177.3070
9.4935,177.3070
9.5656,177.3174
9.6347,177.3074
9.6875,177.2617
9.7072,177.1946
9.7072,175.8954
9.6875,175.8283
9.6347,175.7826
9.5656,175.7726
9.4935,175.7830
9.4935,175.7830
9.4209,175.7830
9.4209,175.7830
9.3488,175.7726
Z" /> 
<path style="fill:#4D7FC4; fill-opacity:1.0000; 
stroke:#4D7FC4; stroke-width:0.0000; stroke-opacity:1; 
stroke-linecap:round; stroke-linejoin:round;fill-rule:evenodd;"
d="M 10.0118,175.0447
9.9661,175.0975
9.9561,175.1666
9.9599,175.1839
9.9652,175.2020
9.9652,175.3480
9.9599,175.3661
9.9599,175.4359
9.9977,175.4947
10.0612,175.5237
10.0789,175.5250
11.3755,175.5250
11.4426,175.5053
11.4883,175.4525
11.4983,175.3834
11.4945,175.3661
11.4892,175.3480
11.4892,175.2020
11.4945,175.1839
11.4945,175.1141
11.4567,175.0553
11.3932,175.0263
11.3755,175.0250
10.0789,175.0250
Z" /> 
<path style="fill:#4D7FC4; fill-opacity:1.0000; 
stroke:#4D7FC4; stroke-width:0.0000; stroke-opacity:1; 
stroke-linecap:round; stroke-linejoin:round;fill-rule:evenodd;"
d="M 11.8197,173.2426
11.7669,173.2883
11.7472,173.3554
11.7472,174.6546
11.7669,174.7217
11.8197,174.7674
11.8888,174.7774
11.9609,174.7670
11.9609,174.7670
12.0335,174.7670
12.0335,174.7670
12.1056,174.7774
12.1747,174.7674
12.2275,174.7217
12.2472,174.6546
12.2472,173.3554
12.2275,173.2883
12.1747,173.2426
12.1056,173.2326
12.0335,173.2430
12.0335,173.2430
11.9609,173.2430
11.9609,173.2430
11.8888,173.2326
Z" /> 
<path style="fill:#4D7FC4; fill-opacity:1.0000; 
stroke:#4D7FC4; stroke-width:0.0000; stroke-opacity:1; 
stroke-linecap:round; stroke-linejoin:round;fill-rule:evenodd;"
d="M 9.2797,173.2426
9.2269,173.2883
9.2072,173.3554
9.2072,174.6546
9.2269,174.7217
9.2797,174.7674
9.3488,174.7774
9.4209,174.7670
9.4209,174.7670
9.4935,174.7670
9.4935,174.7670
9.5656,174.7774
9.6347,174.7674
9.6875,174.7217
9.7072,174.6546
9.7072,173.3554
9.6875,173.2883
9.6347,173.2426
9.5656,173.2326
9.4935,173.2430
9.4935,173.2430
9.4209,173.2430
9.4209,173.2430
9.3488,173.2326
Z" /> 
<path style="fill:#4D7FC4; fill-opacity:1.0000; 
stroke:#4D7FC4; stroke-width:0.0000; stroke-opacity:1; 
stroke-linecap:round; stroke-linejoin:round;fill-rule:evenodd;"
d="M 10.0118,172.5047
9.9661,172.5575
9.9561,172.6266
9.9599,172.6439
9.9652,172.6620
9.9652,172.8080
9.9599,172.8261
9.9599,172.8959
9.9977,172.9547
10.0612,172.9837
10.0789,172.9850
11.3755,172.9850
11.4426,172.9653
11.4883,172.9125
11.4983,172.8434
11.4945,172.8261
11.4892,172.8080
11.4892,172.6620
11.4945,172.6439
11.4945,172.5741
11.4567,172.5153
11.3932,172.4863
11.3755,172.4850
10.0789,172.4850
Z" /> 
<path style="fill:#4D7FC4; fill-opacity:1.0000; 
stroke:#4D7FC4; stroke-width:0.0000; stroke-opacity:1; 
stroke-linecap:round; stroke-linejoin:round;fill-rule:evenodd;"
d="M 0.8347,0.3452
0.7889,0.3980
0.7777,0.4495
0.7777,200.1005
0.7974,200.1675
0.8502,200.2133
0.9017,200.2245
20.5527,200.2245
20.6197,200.2048
20.6655,200.1520
20.6767,200.1005
20.6767,197.0250
9.0155,197.0250
9.0155,197.0250
8.2466,197.0250
8.1796,197.0447
8.1338,197.0975
8.1230,197.1587
8.1321,197.2750
8.1230,197.3913
8.1374,197.4596
8.1864,197.5094
8.2466,197.5250
9.0155,197.5250
8.9878,197.7444
8.9878,197.7444
8.9095,198.0491
8.7937,198.3415
8.7937,198.3416
8.6422,198.6172
8.6422,198.6172
8.4573,198.8717
8.4573,198.8717
8.2420,199.1010
7.9996,199.3015
7.7340,199.4701
7.7340,199.4701
7.4493,199.6040
7.4493,199.6040
7.1502,199.7012
6.8411,199.7602
6.8411,199.7602
6.6058,199.7750
5.3772,199.7750
5.3772,198.9990
5.3575,198.9320
5.3047,198.8862
5.2532,198.8750
5.0012,198.8750
4.9342,198.8947
4.8884,198.9475
4.8772,198.9990
4.8772,199.7750
3.6486,199.7750
3.4133,199.7602
3.4133,199.7602
3.1042,199.7012
2.8051,199.6040
2.8051,199.6040
2.5204,199.4701
2.5204,199.4701
2.2548,199.3015
2.0124,199.1010
1.7971,198.8717
1.7971,198.8717
1.6122,198.6172
1.6122,198.6172
1.4607,198.3416
1.4607,198.3415
1.3449,198.0491
1.2666,197.7444
1.2666,197.7444
1.2389,197.5250
2.0078,197.5250
2.0748,197.5053
2.1206,197.4525
2.1314,197.3913
2.1223,197.2750
2.1314,197.1587
2.1170,197.0904
2.0680,197.0406
2.0078,197.0250
1.2389,197.0250
1.2389,197.0250
1.2666,196.8056
1.2666,196.8056
1.3449,196.5009
1.4607,196.2085
1.4607,196.2084
1.6122,195.9328
1.6122,195.9328
1.7971,195.6783
1.7971,195.6783
2.0124,195.4490
2.2548,195.2485
2.5204,195.0799
2.5204,195.0799
2.8051,194.9460
2.8051,194.9460
3.1042,194.8488
3.4133,194.7898
3.4133,194.7898
3.6486,194.7750
4.8772,194.7750
4.8772,195.5510
4.8969,195.6180
4.9497,195.6638
5.0012,195.6750
5.2532,195.6750
5.3202,195.6553
5.3660,195.6025
5.3772,195.5510
5.3772,194.7750
6.6058,194.7750
6.8411,194.7898
6.8411,194.7898
7.1502,194.8488
7.4493,194.9460
7.4493,194.9460
7.7340,195.0799
7.7340,195.0799
7.9996,195.2485
8.2420,195.4490
8.4573,195.6783
8.4573,195.6783
8.6422,195.9328
8.6422,195.9328
8.7937,196.2084
8.7937,196.2085
8.9095,196.5009
8.9878,196.8056
8.9878,196.8056
9.0155,197.0250
20.6767,197.0250
20.6767,170.1950
13.3740,170.1950
13.3552,170.4216
13.3552,170.4216
13.3552,170.4216
13.2994,170.6420
13.2081,170.8503
13.0837,171.0406
12.9297,171.2079
12.9297,171.2079
12.9297,171.2080
12.7502,171.3476
12.7502,171.3476
12.7259,171.3608
12.6763,171.4100
12.6612,171.4782
12.6854,171.5438
12.7259,171.5789
12.7456,171.5895
12.7456,171.5895
12.9239,171.7283
12.9239,171.7283
13.0770,171.8946
13.2006,172.0838
13.2913,172.2907
13.3405,172.4850
12.6189,172.4850
12.5518,172.5047
12.5061,172.5575
12.4961,172.6266
12.4999,172.6439
12.5052,172.6620
12.5052,172.8080
12.4999,172.8261
12.4999,172.8959
12.5377,172.9547
12.6012,172.9837
12.6189,172.9850
13.3405,172.9850
13.2913,173.1793
13.2006,173.3862
13.0770,173.5754
12.9239,173.7417
12.9239,173.7417
12.7456,173.8805
12.7456,173.8805
12.7170,173.8959
12.6674,173.9452
12.6523,174.0134
12.6765,174.0789
12.7170,174.1141
12.7456,174.1295
12.7456,174.1295
12.9239,174.2683
12.9239,174.2683
13.0770,174.4346
13.2006,174.6238
13.2913,174.8307
13.3405,175.0250
12.6189,175.0250
12.5518,175.0447
12.5061,175.0975
12.4961,175.1666
12.4999,175.1839
12.5052,175.2020
12.5052,175.3480
12.4999,175.3661
12.4999,175.4359
12.5377,175.4947
12.6012,175.5237
12.6189,175.5250
13.3405,175.5250
13.2913,175.7193
13.2006,175.9262
13.0770,176.1154
12.9239,176.2817
12.9239,176.2817
12.7456,176.4205
12.7456,176.4205
12.7170,176.4359
12.6674,176.4852
12.6523,176.5534
12.6765,176.6189
12.7170,176.6541
12.7456,176.6695
12.7456,176.6695
12.9239,176.8083
12.9239,176.8083
13.0770,176.9746
13.2006,177.1638
13.2913,177.3707
13.3405,177.5650
12.6189,177.5650
12.5518,177.5847
12.5061,177.6375
12.4961,177.7066
12.4999,177.7239
12.5052,177.7420
12.5052,177.8880
12.4999,177.9061
12.4999,177.9759
12.5377,178.0347
12.6012,178.0637
12.6189,178.0650
13.3405,178.0650
13.2913,178.2593
13.2006,178.4662
13.0770,178.6554
12.9457,178.7980
12.9147,178.8607
12.9226,178.9301
12.9668,178.9843
12.9936,178.9982
13.1070,179.0405
13.2241,179.1281
13.3117,179.2452
13.3628,179.3822
13.3628,179.3822
13.3693,179.4427
13.3693,181.2673
13.3628,181.3278
13.3628,181.3278
13.3117,181.4648
13.3117,181.4648
13.2241,181.5819
13.1070,181.6695
12.9700,181.7206
12.9428,181.7235
12.9095,181.7271
12.9094,181.7271
11.0850,181.7271
11.0849,181.7271
11.0579,181.7242
11.0244,181.7206
10.8874,181.6695
10.7703,181.5819
10.6827,181.4648
10.6431,181.3586
10.6012,181.3027
10.5358,181.2783
10.4675,181.2931
10.4357,181.3180
10.3897,181.3679
10.3897,181.3679
10.3897,181.3680
10.2102,181.5076
10.2102,181.5076
10.0220,181.6095
10.0103,181.6158
10.0103,181.6158
9.8540,181.6695
9.7952,181.6897
9.5709,181.7271
9.5709,181.7271
9.3435,181.7271
9.3435,181.7271
9.1192,181.6897
8.9041,181.6158
8.7042,181.5076
8.6492,181.4648
8.5247,181.3680
8.5247,181.3679
8.3707,181.2006
8.2463,181.0103
8.1550,180.8020
8.0992,180.5816
8.0804,180.3550
8.0992,180.1284
8.1550,179.9080
8.2463,179.6997
8.3707,179.5094
8.5247,179.3421
8.5247,179.3421
8.5247,179.3420
8.7042,179.2024
8.7042,179.2024
8.7285,179.1892
8.7781,179.1400
8.7932,179.0718
8.7690,179.0062
8.7285,178.9711
8.7088,178.9605
8.7088,178.9605
8.5305,178.8217
8.5305,178.8217
8.3774,178.6554
8.2538,178.4662
8.1631,178.2593
8.1139,178.0650
8.8355,178.0650
8.9026,178.0453
8.9483,177.9925
8.9583,177.9234
8.9545,177.9061
8.9492,177.8880
8.9492,177.7420
8.9545,177.7239
8.9545,177.6541
8.9167,177.5953
8.8532,177.5663
8.8355,177.5650
8.1139,177.5650
8.1631,177.3707
8.2538,177.1638
8.3774,176.9746
8.5305,176.8083
8.5305,176.8083
8.7088,176.6695
8.7374,176.6541
8.7870,176.6048
8.8021,176.5366
8.7779,176.4711
8.7374,176.4359
8.7088,176.4205
8.5305,176.2817
8.5305,176.2817
8.3774,176.1154
8.2538,175.9262
8.1631,175.7193
8.1139,175.5250
8.8355,175.5250
8.9026,175.5053
8.9483,175.4525
8.9583,175.3834
8.9545,175.3661
8.9492,175.3480
8.9492,175.2020
8.9545,175.1839
8.9545,175.1141
8.9167,175.0553
8.8532,175.0263
8.8355,175.0250
8.1139,175.0250
8.1631,174.8307
8.2538,174.6238
8.3774,174.4346
8.5305,174.2683
8.5305,174.2683
8.7088,174.1295
8.7374,174.1141
8.7870,174.0648
8.8021,173.9966
8.7779,173.9311
8.7374,173.8959
8.7088,173.8805
8.5305,173.7417
8.5305,173.7417
8.3774,173.5754
8.2538,173.3862
8.1631,173.1793
8.1139,172.9850
8.8355,172.9850
8.9026,172.9653
8.9483,172.9125
8.9583,172.8434
8.9545,172.8261
8.9492,172.8080
8.9492,172.6620
8.9545,172.6439
8.9545,172.5741
8.9167,172.5153
8.8532,172.4863
8.8355,172.4850
8.1139,172.4850
8.1631,172.2907
8.2538,172.0838
8.3774,171.8946
8.5305,171.7283
8.5305,171.7283
8.7088,171.5895
8.7088,171.5895
8.7285,171.5789
8.7781,171.5297
8.7932,171.4614
8.7690,171.3959
8.7285,171.3608
8.7042,171.3476
8.7042,171.3476
8.7042,171.3476
8.5247,171.2079
8.3707,171.0406
8.2463,170.8503
8.1550,170.6420
8.0992,170.4216
8.0804,170.1950
8.0992,169.9684
8.1550,169.7480
8.2463,169.5397
8.3707,169.3494
8.5247,169.1821
8.5247,169.1821
8.5247,169.1820
8.7042,169.0424
8.7042,169.0424
8.9041,168.9342
8.9041,168.9342
9.1192,168.8603
9.2687,168.8354
9.3435,168.8229
9.5709,168.8229
9.6270,168.8323
9.7952,168.8603
10.0103,168.9342
10.0103,168.9342
10.2102,169.0424
10.2102,169.0424
10.3897,169.1820
10.3897,169.1821
10.5437,169.3494
10.6234,169.4713
10.6765,169.5167
10.7458,169.5261
10.8091,169.4966
10.8310,169.4713
10.9107,169.3494
10.9107,169.3494
10.9107,169.3494
11.0647,169.1821
11.0647,169.1821
11.0647,169.1820
11.2442,169.0424
11.2442,169.0424
11.4441,168.9342
11.4441,168.9342
11.6592,168.8603
11.8087,168.8354
11.8835,168.8229
12.1109,168.8229
12.1670,168.8323
12.3352,168.8603
12.5503,168.9342
12.5503,168.9342
12.7502,169.0424
12.7502,169.0424
12.9297,169.1820
12.9297,169.1821
13.0837,169.3494
13.2081,169.5397
13.2994,169.7480
13.3552,169.9684
13.3740,170.1950
13.3740,170.1950
20.6767,170.1950
20.6767,85.2750
11.9905,85.2750
11.9713,85.4944
11.9143,85.7071
11.8213,85.9067
11.6949,86.0870
11.5392,86.2427
11.3589,86.3691
11.1593,86.4621
10.9466,86.5191
10.7899,86.5328
10.7272,86.5383
10.7272,86.5383
10.7272,86.5383
10.6724,86.5335
10.5078,86.5191
10.2951,86.4621
10.0955,86.3691
9.9152,86.2427
9.7595,86.0870
9.6331,85.9067
9.5401,85.7071
9.4831,85.4944
9.4639,85.2750
9.4831,85.0556
9.5401,84.8429
9.6331,84.6433
9.6331,84.6433
9.6331,84.6433
9.6963,84.5532
9.7595,84.4630
9.9152,84.3073
10.0955,84.1809
10.0955,84.1809
10.2951,84.0879
10.2951,84.0879
10.2951,84.0879
10.4464,84.0473
10.5078,84.0309
10.5078,84.0309
10.7272,84.0117
10.7272,84.0117
10.9466,84.0309
10.9466,84.0309
11.1593,84.0879
11.3589,84.1809
11.3589,84.1809
11.5392,84.3072
11.5392,84.3073
11.6949,84.4630
11.6950,84.4630
11.8213,84.6433
11.8213,84.6433
11.9143,84.8429
11.9713,85.0556
11.9713,85.0556
11.9905,85.2750
11.9905,85.2750
20.6767,85.2750
20.6767,65.2750
11.9905,65.2750
11.9713,65.4944
11.9143,65.7071
11.8213,65.9067
11.6949,66.0870
11.5392,66.2427
11.3589,66.3691
11.1593,66.4621
10.9466,66.5191
10.7899,66.5328
10.7272,66.5383
10.7272,66.5383
10.7272,66.5383
10.6724,66.5335
10.5078,66.5191
10.2951,66.4621
10.0955,66.3691
9.9152,66.2427
9.7595,66.0870
9.6331,65.9067
9.5401,65.7071
9.4831,65.4944
9.4639,65.2750
9.4831,65.0556
9.5401,64.8429
9.6331,64.6433
9.6331,64.6433
9.6331,64.6433
9.6963,64.5532
9.7595,64.4630
9.9152,64.3073
10.0955,64.1809
10.0955,64.1809
10.2951,64.0879
10.2951,64.0879
10.2951,64.0879
10.4464,64.0473
10.5078,64.0309
10.5078,64.0309
10.7272,64.0117
10.7272,64.0117
10.9466,64.0309
10.9466,64.0309
11.1593,64.0879
11.3589,64.1809
11.3589,64.1809
11.5392,64.3072
11.5392,64.3073
11.6949,64.4630
11.6950,64.4630
11.8213,64.6433
11.8213,64.6433
11.9143,64.8429
11.9713,65.0556
11.9713,65.0556
11.9905,65.2750
11.9905,65.2750
20.6767,65.2750
20.6767,50.2750
11.9820,50.2750
11.9629,50.4929
11.9629,50.4929
11.9063,50.7041
11.9063,50.7042
11.8139,50.9024
11.7703,50.9646
11.7703,50.9646
11.2278,50.4220
11.1664,50.3885
11.0967,50.3935
11.0408,50.4354
11.0363,50.4419
10.9883,50.5153
10.8886,50.5929
10.8478,50.6496
10.8441,50.7194
10.8771,50.7784
11.4168,51.3181
11.3546,51.3617
11.3546,51.3617
11.1564,51.4541
11.1564,51.4541
10.9451,51.5107
10.9451,51.5107
10.7272,51.5298
10.7272,51.5298
10.5093,51.5107
10.5093,51.5107
10.2980,51.4541
10.2980,51.4541
10.0998,51.3617
10.0376,51.3181
10.5808,50.7750
10.6143,50.7136
10.6093,50.6439
10.5674,50.5880
10.5521,50.5782
10.5093,50.5550
10.4301,50.4691
10.4266,50.4611
10.3817,50.4076
10.3150,50.3869
10.2476,50.4056
10.2254,50.4232
9.6841,50.9646
9.6405,50.9024
9.5481,50.7042
9.5481,50.7041
9.4915,50.4929
9.4915,50.4929
9.4724,50.2750
9.4724,50.2750
9.4915,50.0571
9.4915,50.0571
9.5481,49.8458
9.5481,49.8458
9.6405,49.6476
9.6841,49.5854
10.2266,50.1280
10.2880,50.1615
10.3577,50.1565
10.4136,50.1146
10.4181,50.1081
10.4661,50.0347
10.4661,50.0347
10.5658,49.9571
10.6066,49.9004
10.6103,49.8306
10.5773,49.7716
10.0376,49.2319
10.0376,49.2319
10.0998,49.1883
10.2980,49.0959
10.2980,49.0959
10.5093,49.0393
10.5093,49.0393
10.7272,49.0202
10.7272,49.0202
10.9451,49.0393
10.9451,49.0393
11.1564,49.0959
11.1564,49.0959
11.3546,49.1883
11.3546,49.1883
11.4168,49.2319
11.4168,49.2319
10.8736,49.7750
10.8401,49.8364
10.8451,49.9061
10.8870,49.9620
10.9023,49.9718
10.9451,49.9950
10.9451,49.9950
11.0243,50.0809
11.0278,50.0889
11.0727,50.1424
11.1395,50.1631
11.2068,50.1444
11.2290,50.1268
11.7703,49.5854
11.7703,49.5854
11.8139,49.6476
11.8139,49.6476
11.9063,49.8458
11.9063,49.8458
11.9629,50.0571
11.9629,50.0571
11.9820,50.2750
11.9820,50.2750
20.6767,50.2750
20.6767,3.0250
9.0155,3.0250
9.0155,3.0250
8.2466,3.0250
8.1796,3.0447
8.1338,3.0975
8.1230,3.1587
8.1321,3.2750
8.1230,3.3913
8.1374,3.4596
8.1864,3.5094
8.2466,3.5250
9.0155,3.5250
8.9878,3.7444
8.9878,3.7444
8.9095,4.0491
8.7937,4.3415
8.7937,4.3416
8.6422,4.6172
8.6422,4.6172
8.4573,4.8717
8.4573,4.8717
8.2420,5.1010
7.9996,5.3015
7.7340,5.4701
7.7340,5.4701
7.4493,5.6040
7.4493,5.6040
7.1502,5.7012
6.8411,5.7602
6.8411,5.7602
6.6058,5.7750
5.3772,5.7750
5.3772,4.9990
5.3575,4.9320
5.3047,4.8862
5.2532,4.8750
5.0012,4.8750
4.9342,4.8947
4.8884,4.9475
4.8772,4.9990
4.8772,5.7750
3.6486,5.7750
3.4133,5.7602
3.4133,5.7602
3.1042,5.7012
2.8051,5.6040
2.8051,5.6040
2.5204,5.4701
2.5204,5.4701
2.2548,5.3015
2.0124,5.1010
1.7971,4.8717
1.7971,4.8717
1.6122,4.6172
1.6122,4.6172
1.4607,4.3416
1.4607,4.3415
1.3449,4.0491
1.2666,3.7444
1.2666,3.7444
1.2389,3.5250
2.0078,3.5250
2.0748,3.5053
2.1206,3.4525
2.1314,3.3913
2.1223,3.2750
2.1314,3.1587
2.1170,3.0904
2.0680,3.0406
2.0078,3.0250
1.2389,3.0250
1.2389,3.0250
1.2666,2.8056
1.2666,2.8056
1.3449,2.5009
1.4607,2.2085
1.4607,2.2084
1.6122,1.9328
1.6122,1.9328
1.7971,1.6783
1.7971,1.6783
2.0124,1.4490
2.2548,1.2485
2.5204,1.0799
2.5204,1.0799
2.8051,0.9460
2.8051,0.9460
3.1042,0.8488
3.4133,0.7898
3.4133,0.7898
3.6486,0.7750
4.8772,0.7750
4.8772,1.5510
4.8969,1.6180
4.9497,1.6638
5.0012,1.6750
5.2532,1.6750
5.3202,1.6553
5.3660,1.6025
5.3772,1.5510
5.3772,0.7750
6.6058,0.7750
6.8411,0.7898
6.8411,0.7898
7.1502,0.8488
7.4493,0.9460
7.4493,0.9460
7.7340,1.0799
7.7340,1.0799
7.9996,1.2485
8.2420,1.4490
8.4573,1.6783
8.4573,1.6783
8.6422,1.9328
8.6422,1.9328
8.7937,2.2084
8.7937,2.2085
8.9095,2.5009
8.9878,2.8056
8.9878,2.8056
9.0155,3.0250
20.6767,3.0250
20.6767,0.4495
20.6570,0.3825
20.6042,0.3367
20.5527,0.3255
0.9017,0.3255
Z" /> 
</g>
</g>
</g>
<g style="fill:#FFFFFF; fill-opacity:1.0000; 
stroke:#FFFFFF; stroke-width:0.0000; stroke-opacity:1; 
stroke-linecap:round; stroke-linejoin:round;">
<circle cx="10.7272" cy="85.2750" r="0.3500" /> 
</g>
<g style="fill:#FFFFFF; fill-opacity:1.0000; 
stroke:#FFFFFF; stroke-width:0.0212; stroke-opacity:1; 
stroke-linecap:round; stroke-linejoin:round;">
</g>
<g style="fill:#FFFFFF; fill-opacity:1.0000; 
stroke:#FFFFFF; stroke-width:0.0000; stroke-opacity:1; 
stroke-linecap:round; stroke-linejoin:round;">
<circle cx="10.7272" cy="65.2750" r="0.3500" /> 
</g>
<g style="fill:#FFFFFF; fill-opacity:1.0000; 
stroke:#FFFFFF; stroke-width:0.0212; stroke-opacity:1; 
stroke-linecap:round; stroke-linejoin:round;">
</g>
<g style="fill:#FFFFFF; fill-opacity:1.0000; 
stroke:#FFFFFF; stroke-width:3.2000; stroke-opacity:1; 
stroke-linecap:round; stroke-linejoin:round;">
</g>
<g style="fill:#FFFFFF; fill-opacity:0.0; 
stroke:#FFFFFF; stroke-width:3.2000; stroke-opacity:1; 
stroke-linecap:round; stroke-linejoin:round;">
<path d="M3.7272 3.2750
L6.5272 3.2750
" />
<path d="M3.7272 197.2750
L6.5272 197.2750
" />
</g>
<g style="fill:#FFFFFF; fill-opacity:1.0000; 
stroke:#FFFFFF; stroke-width:0.0000; stroke-opacity:1; 
stroke-linecap:round; stroke-linejoin:round;">
<circle cx="10.7272" cy="50.2750" r="0.3500" /> 
</g>
<g style="fill:#FFFFFF; fill-opacity:1.0000; 
stroke:#FFFFFF; stroke-width:0.0212; stroke-opacity:1; 
stroke-linecap:round; stroke-linejoin:round;">
</g>
<g style="fill:#FFFFFF; fill-opacity:1.0000; 
stroke:#FFFFFF; stroke-width:0.0000; stroke-opacity:1; 
stroke-linecap:round; stroke-linejoin:round;">
<circle cx="11.9972" cy="180.3550" r="0.5080" /> 
</g>
<g style="fill:#FFFFFF; fill-opacity:1.0000; 
stroke:#FFFFFF; stroke-width:0.0212; stroke-opacity:1; 
stroke-linecap:round; stroke-linejoin:round;">
</g>
<g style="fill:#FFFFFF; fill-opacity:1.0000; 
stroke:#FFFFFF; stroke-width:0.0000; stroke-opacity:1; 
stroke-linecap:round; stroke-linejoin:round;">
<circle cx="9.4572" cy="180.3550" r="0.5080" /> 
</g>
<g style="fill:#FFFFFF; fill-opacity:1.0000; 
stroke:#FFFFFF; stroke-width:0.0212; stroke-opacity:1; 
stroke-linecap:round; stroke-linejoin:round;">
</g>
<g style="fill:#FFFFFF; fill-opacity:1.0000; 
stroke:#FFFFFF; stroke-width:0.0000; stroke-opacity:1; 
stroke-linecap:round; stroke-linejoin:round;">
<circle cx="11.9972" cy="177.8150" r="0.5080" /> 
</g>
<g style="fill:#FFFFFF; fill-opacity:1.0000; 
stroke:#FFFFFF; stroke-width:0.0212; stroke-opacity:1; 
stroke-linecap:round; stroke-linejoin:round;">
</g>
<g style="fill:#FFFFFF; fill-opacity:1.0000; 
stroke:#FFFFFF; stroke-width:0.0000; stroke-opacity:1; 
stroke-linecap:round; stroke-linejoin:round;">
<circle cx="9.4572" cy="177.8150" r="0.5080" /> 
</g>
<g style="fill:#FFFFFF; fill-opacity:1.0000; 
stroke:#FFFFFF; stroke-width:0.0212; stroke-opacity:1; 
stroke-linecap:round; stroke-linejoin:round;">
</g>
<g style="fill:#FFFFFF; fill-opacity:1.0000; 
stroke:#FFFFFF; stroke-width:0.0000; stroke-opacity:1; 
stroke-linecap:round; stroke-linejoin:round;">
<circle cx="11.9972" cy="175.2750" r="0.5080" /> 
</g>
<g style="fill:#FFFFFF; fill-opacity:1.0000; 
stroke:#FFFFFF; stroke-width:0.0212; stroke-opacity:1; 
stroke-linecap:round; stroke-linejoin:round;">
</g>
<g style="fill:#FFFFFF; fill-opacity:1.0000; 
stroke:#FFFFFF; stroke-width:0.0000; stroke-opacity:1; 
stroke-linecap:round; stroke-linejoin:round;">
<circle cx="9.4572" cy="175.2750" r="0.5080" /> 
</g>
<g style="fill:#FFFFFF; fill-opacity:1.0000; 
stroke:#FFFFFF; stroke-width:0.0212; stroke-opacity:1; 
stroke-linecap:round; stroke-linejoin:round;">
</g>
<g style="fill:#FFFFFF; fill-opacity:1.0000; 
stroke:#FFFFFF; stroke-width:0.0000; stroke-opacity:1; 
stroke-linecap:round; stroke-linejoin:round;">
<circle cx="11.9972" cy="172.7350" r="0.5080" /> 
</g>
<g style="fill:#FFFFFF; fill-opacity:1.0000; 
stroke:#FFFFFF; stroke-width:0.0212; stroke-opacity:1; 
stroke-linecap:round; stroke-linejoin:round;">
</g>
<g style="fill:#FFFFFF; fill-opacity:1.0000; 
stroke:#FFFFFF; stroke-width:0.0000; stroke-opacity:1; 
stroke-linecap:round; stroke-linejoin:round;">
<circle cx="9.4572" cy="172.7350" r="0.5080" /> 
</g>
<g style="fill:#FFFFFF; fill-opacity:1.0000; 
stroke:#FFFFFF; stroke-width:0.0212; stroke-opacity:1; 
stroke-linecap:round; stroke-linejoin:round;">
</g>
<g style="fill:#FFFFFF; fill-opacity:1.0000; 
stroke:#FFFFFF; stroke-width:0.0000; stroke-opacity:1; 
stroke-linecap:round; stroke-linejoin:round;">
<circle cx="11.9972" cy="170.1950" r="0.5080" /> 
</g>
<g style="fill:#FFFFFF; fill-opacity:1.0000; 
stroke:#FFFFFF; stroke-width:0.0212; stroke-opacity:1; 
stroke-linecap:round; stroke-linejoin:round;">
</g>
<g style="fill:#FFFFFF; fill-opacity:1.0000; 
stroke:#FFFFFF; stroke-width:0.0000; stroke-opacity:1; 
stroke-linecap:round; stroke-linejoin:round;">
<circle cx="9.4572" cy="170.1950" r="0.5080" /> 
</g>
<g style="fill:#FFFFFF; fill-opacity:1.0000; 
stroke:#FFFFFF; stroke-width:0.0212; stroke-opacity:1; 
stroke-linecap:round; stroke-linejoin:round;">
</g>
<g style="fill:#FFFFFF; fill-opacity:1.0000; 
stroke:#FFFFFF; stroke-width:0.0000; stroke-opacity:1; 
stroke-linecap:round; stroke-linejoin:round;">
<circle cx="10.7272" cy="75.4250" r="2.5000" /> 
</g>
<g style="fill:#FFFFFF; fill-opacity:1.0000; 
stroke:#FFFFFF; stroke-width:0.0212; stroke-opacity:1; 
stroke-linecap:round; stroke-linejoin:round;">
</g>
<g style="fill:#FFFFFF; fill-opacity:1.0000; 
stroke:#FFFFFF; stroke-width:0.0000; stroke-opacity:1; 
stroke-linecap:round; stroke-linejoin:round;">
<circle cx="10.7272" cy="95.2750" r="2.5000" /> 
</g>
<g style="fill:#FFFFFF; fill-opacity:1.0000; 
stroke:#FFFFFF; stroke-width:0.0212; stroke-opacity:1; 
stroke-linecap:round; stroke-linejoin:round;">
</g>
<g style="fill:#000000; fill-opacity:1.0000; 
stroke:#000000; stroke-width:0.0212; stroke-opacity:1; 
stroke-linecap:round; stroke-linejoin:round;">
</g>
<g style="fill:#D0D2CD; fill-opacity:1.0000; 
stroke:#D0D2CD; stroke-width:0.0212; stroke-opacity:1; 
stroke-linecap:round; stroke-linejoin:round;">
</g>
<g style="fill:#D0D2CD; fill-opacity:0.0; 
stroke:#D0D2CD; stroke-width:0.1000; stroke-opacity:1; 
stroke-linecap:round; stroke-linejoin:round;">
<path style="fill:#D0D2CD; fill-opacity:0.0; 
stroke:#D0D2CD; stroke-width:0.1000; stroke-opacity:1; 
stroke-linecap:round; stroke-linejoin:round;fill:none"
d="M 20.7272,0.2750
0.7272,0.2750
0.7272,200.2750
20.7272,200.2750
Z" /> 
<g >
</g>
<g >
</g>
<g >
</g>
<g >
</g>
<g >
</g>
<g >
</g>
<g >
</g>
<g >
</g>
<g >
</g>
<g >
</g>
<g >
</g>
<g >
</g>
<g >
</g>
<g >
</g>
<g >
</g>
<g >
</g>
<g >
</g>
<g >
</g>
</g> 
</svg>
