(footprint "powerdisplay_panel_holes" (version 20221018) (generator pcbnew)
  (layer "F.Cu")
  (attr board_only exclude_from_pos_files exclude_from_bom)
  (fp_text reference "G***" (at 0 0) (layer "F.SilkS") hide
      (effects (font (size 1.5 1.5) (thickness 0.3)))
    (tstamp 7251fcc5-23f6-443f-b2d0-74ec8526119c)
  )
  (fp_text value "LOGO" (at 0.75 0) (layer "F.SilkS") hide
      (effects (font (size 1.5 1.5) (thickness 0.3)))
    (tstamp c02cbe87-ed0e-4096-a7ca-9ca4f9bef202)
  )
  (fp_poly
    (pts
      (xy -6.83944 -16.157857)
      (xy -6.83944 -16.018018)
      (xy -7.347948 -16.018018)
      (xy -7.856457 -16.018018)
      (xy -7.856457 -16.157857)
      (xy -7.856457 -16.297697)
      (xy -7.347948 -16.297697)
      (xy -6.83944 -16.297697)
    )

    (stroke (width 0) (type solid)) (fill solid) (layer "Eco1.User") (tstamp d4d70d64-2ccb-4ade-a623-68862dc603ba))
  (fp_poly
    (pts
      (xy -7.195396 -36.638038)
      (xy -7.195396 -36.332933)
      (xy -6.876309 -36.332933)
      (xy -6.557222 -36.332933)
      (xy -6.564848 -36.186736)
      (xy -6.572473 -36.04054)
      (xy -6.883934 -36.033401)
      (xy -7.195396 -36.026262)
      (xy -7.195396 -35.72194)
      (xy -7.195396 -35.417617)
      (xy -7.335236 -35.417617)
      (xy -7.475075 -35.417617)
      (xy -7.475075 -35.722722)
      (xy -7.475075 -36.027827)
      (xy -7.78018 -36.027827)
      (xy -8.085286 -36.027827)
      (xy -8.085286 -36.18038)
      (xy -8.085286 -36.332933)
      (xy -7.78018 -36.332933)
      (xy -7.475075 -36.332933)
      (xy -7.475075 -36.638038)
      (xy -7.475075 -36.943143)
      (xy -7.335236 -36.943143)
      (xy -7.195396 -36.943143)
    )

    (stroke (width 0) (type solid)) (fill solid) (layer "Eco1.User") (tstamp 405811c2-69a9-44e9-81bd-055b968f03ab))
  (fp_poly
    (pts
      (xy 0.146796 4.443093)
      (xy 0.153753 4.881682)
      (xy 0.585385 4.881682)
      (xy 1.017017 4.881682)
      (xy 1.017017 5.008809)
      (xy 1.017017 5.135936)
      (xy 0.584784 5.135936)
      (xy 0.152552 5.135936)
      (xy 0.152552 5.568169)
      (xy 0.152552 6.000401)
      (xy 0.012712 6.000401)
      (xy -0.127127 6.000401)
      (xy -0.127127 5.568169)
      (xy -0.127127 5.135936)
      (xy -0.55936 5.135936)
      (xy -0.991592 5.135936)
      (xy -0.991592 5.008809)
      (xy -0.991592 4.881682)
      (xy -0.55996 4.881682)
      (xy -0.128328 4.881682)
      (xy -0.121371 4.443093)
      (xy -0.114415 4.004505)
      (xy 0.012712 4.004505)
      (xy 0.13984 4.004505)
    )

    (stroke (width 0) (type solid)) (fill solid) (layer "Eco1.User") (tstamp c0a38a36-acfe-46ac-8554-1e9651d933d2))
  (fp_poly
    (pts
      (xy 0.146826 -25.609759)
      (xy 0.153812 -25.196596)
      (xy 0.585414 -25.196596)
      (xy 1.017017 -25.196596)
      (xy 1.017017 -25.056756)
      (xy 1.017017 -24.916917)
      (xy 0.584784 -24.916917)
      (xy 0.152552 -24.916917)
      (xy 0.152552 -24.471972)
      (xy 0.152552 -24.027027)
      (xy 0.012712 -24.027027)
      (xy -0.127127 -24.027027)
      (xy -0.127127 -24.471972)
      (xy -0.127127 -24.916917)
      (xy -0.55936 -24.916917)
      (xy -0.991592 -24.916917)
      (xy -0.991592 -25.056756)
      (xy -0.991592 -25.196596)
      (xy -0.559989 -25.196596)
      (xy -0.128387 -25.196596)
      (xy -0.121401 -25.609759)
      (xy -0.114415 -26.022923)
      (xy 0.012712 -26.022923)
      (xy 0.13984 -26.022923)
    )

    (stroke (width 0) (type solid)) (fill solid) (layer "Eco1.User") (tstamp e05d342b-4326-4ba9-9760-b1a807ebc2f2))
  (fp_poly
    (pts
      (xy 0.152552 -85.658258)
      (xy 0.152552 -85.226026)
      (xy 0.584784 -85.226026)
      (xy 1.017017 -85.226026)
      (xy 1.017017 -85.086186)
      (xy 1.017017 -84.946346)
      (xy 0.584784 -84.946346)
      (xy 0.152552 -84.946346)
      (xy 0.152552 -84.514114)
      (xy 0.152552 -84.081881)
      (xy 0.012712 -84.081881)
      (xy -0.127127 -84.081881)
      (xy -0.127127 -84.514114)
      (xy -0.127127 -84.946346)
      (xy -0.55936 -84.946346)
      (xy -0.991592 -84.946346)
      (xy -0.991592 -85.086186)
      (xy -0.991592 -85.226026)
      (xy -0.55936 -85.226026)
      (xy -0.127127 -85.226026)
      (xy -0.127127 -85.658258)
      (xy -0.127127 -86.09049)
      (xy 0.012712 -86.09049)
      (xy 0.152552 -86.09049)
    )

    (stroke (width 0) (type solid)) (fill solid) (layer "Eco1.User") (tstamp a7287fdc-4ce6-4b3c-a120-2a7c0cbc6f88))
  (fp_poly
    (pts
      (xy 0.152552 -50.622022)
      (xy 0.152552 -50.189789)
      (xy 0.584784 -50.189789)
      (xy 1.017017 -50.189789)
      (xy 1.017017 -50.04995)
      (xy 1.017017 -49.91011)
      (xy 0.584784 -49.91011)
      (xy 0.152552 -49.91011)
      (xy 0.152552 -49.477877)
      (xy 0.152552 -49.045645)
      (xy 0.012712 -49.045645)
      (xy -0.127127 -49.045645)
      (xy -0.127127 -49.477877)
      (xy -0.127127 -49.91011)
      (xy -0.55936 -49.91011)
      (xy -0.991592 -49.91011)
      (xy -0.991592 -50.04995)
      (xy -0.991592 -50.189789)
      (xy -0.55936 -50.189789)
      (xy -0.127127 -50.189789)
      (xy -0.127127 -50.622022)
      (xy -0.127127 -51.054254)
      (xy 0.012712 -51.054254)
      (xy 0.152552 -51.054254)
    )

    (stroke (width 0) (type solid)) (fill solid) (layer "Eco1.User") (tstamp 41d044fe-4941-4fb2-9943-20bf91bdebcf))
  (fp_poly
    (pts
      (xy 0.152552 -35.595595)
      (xy 0.152552 -35.163363)
      (xy 0.584784 -35.163363)
      (xy 1.017017 -35.163363)
      (xy 1.017017 -35.036236)
      (xy 1.017017 -34.909109)
      (xy 0.584784 -34.909109)
      (xy 0.152552 -34.909109)
      (xy 0.152552 -34.476876)
      (xy 0.152552 -34.044644)
      (xy 0.012712 -34.044644)
      (xy -0.127127 -34.044644)
      (xy -0.127127 -34.476876)
      (xy -0.127127 -34.909109)
      (xy -0.55936 -34.909109)
      (xy -0.991592 -34.909109)
      (xy -0.991592 -35.036236)
      (xy -0.991592 -35.163363)
      (xy -0.55936 -35.163363)
      (xy -0.127127 -35.163363)
      (xy -0.127127 -35.595595)
      (xy -0.127127 -36.027827)
      (xy 0.012712 -36.027827)
      (xy 0.152552 -36.027827)
    )

    (stroke (width 0) (type solid)) (fill solid) (layer "Eco1.User") (tstamp c84fbb34-abef-4cd4-a1de-ec62a8b92dc8))
  (fp_poly
    (pts
      (xy 0.152552 -15.585785)
      (xy 0.152552 -15.153553)
      (xy 0.584784 -15.153553)
      (xy 1.017017 -15.153553)
      (xy 1.017017 -15.013713)
      (xy 1.017017 -14.873873)
      (xy 0.584784 -14.873873)
      (xy 0.152552 -14.873873)
      (xy 0.152552 -14.441641)
      (xy 0.152552 -14.009409)
      (xy 0.012712 -14.009409)
      (xy -0.127127 -14.009409)
      (xy -0.127127 -14.441641)
      (xy -0.127127 -14.873873)
      (xy -0.55936 -14.873873)
      (xy -0.991592 -14.873873)
      (xy -0.991592 -15.013713)
      (xy -0.991592 -15.153553)
      (xy -0.55936 -15.153553)
      (xy -0.127127 -15.153553)
      (xy -0.127127 -15.585785)
      (xy -0.127127 -16.018018)
      (xy 0.012712 -16.018018)
      (xy 0.152552 -16.018018)
    )

    (stroke (width 0) (type solid)) (fill solid) (layer "Eco1.User") (tstamp 30dc3888-d31e-4e7a-bf4a-13b9434d202a))
  (fp_poly
    (pts
      (xy -5.40926 -52.644236)
      (xy -5.149065 -52.603048)
      (xy -4.914229 -52.527799)
      (xy -4.801758 -52.476236)
      (xy -4.655612 -52.402462)
      (xy -4.647876 -52.522903)
      (xy -4.64014 -52.643343)
      (xy -4.500301 -52.643343)
      (xy -4.360461 -52.643343)
      (xy -4.353878 -51.314864)
      (xy -4.347294 -49.986386)
      (xy -4.500074 -49.986386)
      (xy -4.652853 -49.986386)
      (xy -4.652853 -51.001552)
      (xy -4.652853 -52.016718)
      (xy -4.748199 -52.095756)
      (xy -4.860199 -52.174888)
      (xy -4.989266 -52.245111)
      (xy -5.115784 -52.296715)
      (xy -5.195264 -52.31705)
      (xy -5.288489 -52.332179)
      (xy -5.288489 -51.159282)
      (xy -5.288489 -49.986386)
      (xy -5.441041 -49.986386)
      (xy -5.593594 -49.986386)
      (xy -5.593594 -51.323801)
      (xy -5.593594 -52.661217)
    )

    (stroke (width 0) (type solid)) (fill solid) (layer "Eco1.User") (tstamp 27eda476-644a-4b62-9727-c5b82a9e5ca3))
  (fp_poly
    (pts
      (xy -5.94955 -16.26129)
      (xy -5.94955 -14.924724)
      (xy -6.08939 -14.924724)
      (xy -6.22923 -14.924724)
      (xy -6.22923 -15.929029)
      (xy -6.229729 -16.149401)
      (xy -6.231152 -16.353056)
      (xy -6.23339 -16.53458)
      (xy -6.236332 -16.688555)
      (xy -6.239869 -16.809567)
      (xy -6.243888 -16.892198)
      (xy -6.248282 -16.931032)
      (xy -6.249667 -16.933333)
      (xy -6.27788 -16.916522)
      (xy -6.326694 -16.873757)
      (xy -6.356357 -16.844344)
      (xy -6.412228 -16.792238)
      (xy -6.45692 -16.760205)
      (xy -6.470771 -16.755355)
      (xy -6.503471 -16.772407)
      (xy -6.555305 -16.81584)
      (xy -6.586554 -16.846676)
      (xy -6.674174 -16.937997)
      (xy -6.381782 -17.215973)
      (xy -6.276019 -17.315616)
      (xy -6.177858 -17.406441)
      (xy -6.095557 -17.480928)
      (xy -6.037372 -17.53156)
      (xy -6.01947 -17.545903)
      (xy -5.94955 -17.597857)
    )

    (stroke (width 0) (type solid)) (fill solid) (layer "Eco1.User") (tstamp 27250220-0f00-46c4-b860-8df4948e5071))
  (fp_poly
    (pts
      (xy 0.152552 -5.58088)
      (xy 0.152552 -5.161361)
      (xy 0.584784 -5.161361)
      (xy 1.017017 -5.161361)
      (xy 1.017017 -5.034234)
      (xy 1.017017 -4.907107)
      (xy 0.585371 -4.907107)
      (xy 0.153726 -4.907107)
      (xy 0.146783 -4.455805)
      (xy 0.13984 -4.004504)
      (xy 0.024478 -3.996976)
      (xy -0.048669 -3.996121)
      (xy -0.099056 -4.002724)
      (xy -0.109005 -4.00757)
      (xy -0.114924 -4.037765)
      (xy -0.120032 -4.11018)
      (xy -0.12399 -4.216184)
      (xy -0.126457 -4.347147)
      (xy -0.127127 -4.466399)
      (xy -0.127127 -4.907107)
      (xy -0.55936 -4.907107)
      (xy -0.991592 -4.907107)
      (xy -0.991592 -5.034234)
      (xy -0.991592 -5.161361)
      (xy -0.55936 -5.161361)
      (xy -0.127127 -5.161361)
      (xy -0.127127 -5.58088)
      (xy -0.127127 -6.0004)
      (xy 0.012712 -6.0004)
      (xy 0.152552 -6.0004)
    )

    (stroke (width 0) (type solid)) (fill solid) (layer "Eco1.User") (tstamp 749b3c5b-8830-4205-bbc5-605c0eeaa714))
  (fp_poly
    (pts
      (xy -5.66987 -36.299782)
      (xy -5.66987 -34.95996)
      (xy -5.80971 -34.95996)
      (xy -5.94955 -34.95996)
      (xy -5.94955 -35.964264)
      (xy -5.949992 -36.184636)
      (xy -5.951253 -36.388292)
      (xy -5.953236 -36.569816)
      (xy -5.955843 -36.723791)
      (xy -5.958975 -36.844802)
      (xy -5.962537 -36.927433)
      (xy -5.966429 -36.966268)
      (xy -5.967657 -36.968568)
      (xy -5.994094 -36.952154)
      (xy -6.044502 -36.909503)
      (xy -6.096849 -36.86051)
      (xy -6.207935 -36.752452)
      (xy -6.294858 -36.852034)
      (xy -6.344105 -36.911513)
      (xy -6.375609 -36.955446)
      (xy -6.381782 -36.968898)
      (xy -6.364001 -36.991285)
      (xy -6.31509 -37.041207)
      (xy -6.241697 -37.112161)
      (xy -6.150471 -37.197641)
      (xy -6.108459 -37.236291)
      (xy -6.003131 -37.332741)
      (xy -5.904097 -37.423552)
      (xy -5.820871 -37.499989)
      (xy -5.762969 -37.553319)
      (xy -5.752503 -37.563003)
      (xy -5.66987 -37.639604)
    )

    (stroke (width 0) (type solid)) (fill solid) (layer "Eco1.User") (tstamp 867a1337-9cbe-41fd-aa83-94141781f39d))
  (fp_poly
    (pts
      (xy -5.924124 -52.495877)
      (xy -5.924124 -52.361125)
      (xy -6.070321 -52.330528)
      (xy -6.292722 -52.259706)
      (xy -6.491525 -52.147485)
      (xy -6.660701 -51.998455)
      (xy -6.794225 -51.817203)
      (xy -6.828289 -51.753453)
      (xy -6.861703 -51.681201)
      (xy -6.883365 -51.618603)
      (xy -6.89579 -51.551092)
      (xy -6.901492 -51.464103)
      (xy -6.902987 -51.343068)
      (xy -6.903003 -51.320686)
      (xy -6.902045 -51.194238)
      (xy -6.897365 -51.103803)
      (xy -6.886254 -51.034555)
      (xy -6.866003 -50.971664)
      (xy -6.833902 -50.900305)
      (xy -6.821588 -50.875094)
      (xy -6.711898 -50.699148)
      (xy -6.570605 -50.544824)
      (xy -6.40758 -50.420301)
      (xy -6.232694 -50.333758)
      (xy -6.133485 -50.30498)
      (xy -6.050452 -50.287275)
      (xy -6.057208 -51.007651)
      (xy -6.063964 -51.728028)
      (xy -6.261011 -51.735453)
      (xy -6.458058 -51.742879)
      (xy -6.458058 -51.88165)
      (xy -6.458058 -52.02042)
      (xy -6.114815 -52.02042)
      (xy -5.771572 -52.02042)
      (xy -5.771572 -51.003403)
      (xy -5.771572 -49.986386)
      (xy -5.917768 -49.988504)
      (xy -6.030601 -49.996493)
      (xy -6.154436 -50.014466)
      (xy -6.213108 -50.026722)
      (xy -6.431756 -50.104372)
      (xy -6.639581 -50.225531)
      (xy -6.826901 -50.38287)
      (xy -6.984032 -50.569062)
      (xy -7.036021 -50.649567)
      (xy -7.095916 -50.77331)
      (xy -7.149648 -50.925005)
      (xy -7.191623 -51.084736)
      (xy -7.216251 -51.232586)
      (xy -7.22038 -51.306219)
      (xy -7.194761 -51.551998)
      (xy -7.122723 -51.790323)
      (xy -7.008694 -52.013019)
      (xy -6.857098 -52.211911)
      (xy -6.672364 -52.378822)
      (xy -6.619503 -52.415937)
      (xy -6.484715 -52.493153)
      (xy -6.33607 -52.558327)
      (xy -6.189916 -52.605497)
      (xy -6.062603 -52.628701)
      (xy -6.032182 -52.630094)
      (xy -5.924124 -52.63063)
    )

    (stroke (width 0) (type solid)) (fill solid) (layer "Eco1.User") (tstamp c38c9b5f-4151-4c8b-afd5-8b5f5d96728b))
  (fp_poly
    (pts
      (xy -4.044952 -52.645212)
      (xy -3.946953 -52.636273)
      (xy -3.912946 -52.632304)
      (xy -3.67001 -52.577866)
      (xy -3.441205 -52.478892)
      (xy -3.234196 -52.340513)
      (xy -3.05665 -52.167858)
      (xy -2.916231 -51.966057)
      (xy -2.915501 -51.964743)
      (xy -2.821442 -51.765324)
      (xy -2.766853 -51.571046)
      (xy -2.746633 -51.362568)
      (xy -2.746248 -51.322962)
      (xy -2.766613 -51.070134)
      (xy -2.828756 -50.841667)
      (xy -2.935424 -50.630965)
      (xy -3.089368 -50.431432)
      (xy -3.14004 -50.377961)
      (xy -3.338796 -50.208539)
      (xy -3.554291 -50.08706)
      (xy -3.787365 -50.013165)
      (xy -4.038859 -49.986494)
      (xy -4.056607 -49.986386)
      (xy -4.195196 -49.986386)
      (xy -4.195196 -51.309306)
      (xy -4.194997 -51.610307)
      (xy -4.194337 -51.86418)
      (xy -4.19312 -52.07465)
      (xy -4.191251 -52.24544)
      (xy -4.189697 -52.325525)
      (xy -3.89009 -52.325525)
      (xy -3.89009 -51.305752)
      (xy -3.89009 -50.285978)
      (xy -3.82017 -50.303044)
      (xy -3.756486 -50.323625)
      (xy -3.671551 -50.357207)
      (xy -3.623123 -50.378519)
      (xy -3.444391 -50.487555)
      (xy -3.291437 -50.634325)
      (xy -3.169218 -50.810173)
      (xy -3.082691 -51.006439)
      (xy -3.036811 -51.214465)
      (xy -3.034559 -51.406635)
      (xy -3.078751 -51.616109)
      (xy -3.168464 -51.816286)
      (xy -3.298384 -51.996469)
      (xy -3.358404 -52.058632)
      (xy -3.467414 -52.150429)
      (xy -3.585194 -52.229511)
      (xy -3.699183 -52.28882)
      (xy -3.796815 -52.321293)
      (xy -3.832883 -52.325277)
      (xy -3.89009 -52.325525)
      (xy -4.189697 -52.325525)
      (xy -4.188634 -52.380271)
      (xy -4.185172 -52.482867)
      (xy -4.180771 -52.556951)
      (xy -4.175335 -52.606245)
      (xy -4.168767 -52.634473)
      (xy -4.160972 -52.645357)
      (xy -4.160844 -52.645408)
      (xy -4.120978 -52.648507)
    )

    (stroke (width 0) (type solid)) (fill solid) (layer "Eco1.User") (tstamp bf18b4bd-db0f-42b0-b987-4a6289e8526a))
  (fp_poly
    (pts
      (xy -1.949136 -37.600468)
      (xy -1.896068 -37.59081)
      (xy -1.881482 -37.580536)
      (xy -1.888935 -37.552441)
      (xy -1.91035 -37.480437)
      (xy -1.944313 -37.369085)
      (xy -1.989408 -37.222948)
      (xy -2.04422 -37.046585)
      (xy -2.107333 -36.844559)
      (xy -2.177333 -36.621431)
      (xy -2.252805 -36.381762)
      (xy -2.288289 -36.269369)
      (xy -2.365691 -36.024198)
      (xy -2.438272 -35.793912)
      (xy -2.504621 -35.583012)
      (xy -2.563326 -35.396004)
      (xy -2.612977 -35.23739)
      (xy -2.652163 -35.111674)
      (xy -2.679473 -35.02336)
      (xy -2.693495 -34.97695)
      (xy -2.695095 -34.970914)
      (xy -2.717335 -34.960375)
      (xy -2.772778 -34.957232)
      (xy -2.844507 -34.960284)
      (xy -2.915607 -34.968327)
      (xy -2.969162 -34.98016)
      (xy -2.988082 -34.991741)
      (xy -2.997799 -35.021513)
      (xy -3.021321 -35.09511)
      (xy -3.057166 -35.207858)
      (xy -3.103855 -35.355082)
      (xy -3.159905 -35.532107)
      (xy -3.223836 -35.73426)
      (xy -3.294169 -35.956867)
      (xy -3.369421 -36.195252)
      (xy -3.394449 -36.27458)
      (xy -3.471104 -36.517409)
      (xy -3.543444 -36.746249)
      (xy -3.60997 -36.95638)
      (xy -3.669184 -37.143086)
      (xy -3.719588 -37.301649)
      (xy -3.759683 -37.42735)
      (xy -3.787971 -37.515471)
      (xy -3.802953 -37.561296)
      (xy -3.804678 -37.566217)
      (xy -3.806659 -37.588191)
      (xy -3.784482 -37.599231)
      (xy -3.728415 -37.601577)
      (xy -3.661681 -37.599144)
      (xy -3.503112 -37.591491)
      (xy -3.177142 -36.540217)
      (xy -3.108451 -36.319109)
      (xy -3.044293 -36.113419)
      (xy -2.986247 -35.928144)
      (xy -2.935891 -35.768282)
      (xy -2.894803 -35.638832)
      (xy -2.864559 -35.544793)
      (xy -2.846738 -35.491161)
      (xy -2.842587 -35.480357)
      (xy -2.83354 -35.502013)
      (xy -2.811116 -35.567416)
      (xy -2.77687 -35.671708)
      (xy -2.732358 -35.810028)
      (xy -2.679138 -35.977516)
      (xy -2.618764 -36.169312)
      (xy -2.552794 -36.380556)
      (xy -2.503938 -36.537976)
      (xy -2.173874 -37.604181)
      (xy -2.027678 -37.604192)
    )

    (stroke (width 0) (type solid)) (fill solid) (layer "Eco1.User") (tstamp a77439ee-16b7-4b3f-8164-830953f99570))
  (fp_poly
    (pts
      (xy -5.007342 -17.571811)
      (xy -4.817277 -17.510948)
      (xy -4.640241 -17.402462)
      (xy -4.514355 -17.28633)
      (xy -4.393867 -17.134889)
      (xy -4.317674 -16.983371)
      (xy -4.280943 -16.818579)
      (xy -4.278012 -16.640941)
      (xy -4.289203 -16.527761)
      (xy -4.307959 -16.419744)
      (xy -4.330412 -16.338711)
      (xy -4.332565 -16.333286)
      (xy -4.360292 -16.284352)
      (xy -4.415059 -16.202819)
      (xy -4.491866 -16.095571)
      (xy -4.585708 -15.969493)
      (xy -4.691584 -15.83147)
      (xy -4.766723 -15.735789)
      (xy -5.157798 -15.242542)
      (xy -4.752773 -15.235556)
      (xy -4.347748 -15.22857)
      (xy -4.347748 -15.076647)
      (xy -4.347748 -14.924724)
      (xy -5.062773 -14.924724)
      (xy -5.278339 -14.925147)
      (xy -5.447516 -14.92655)
      (xy -5.57476 -14.92914)
      (xy -5.664525 -14.933122)
      (xy -5.721269 -14.938702)
      (xy -5.749447 -14.946083)
      (xy -5.753515 -14.955472)
      (xy -5.752785 -14.956506)
      (xy -5.731528 -14.983427)
      (xy -5.682586 -15.045361)
      (xy -5.609813 -15.137433)
      (xy -5.517062 -15.254769)
      (xy -5.408188 -15.392492)
      (xy -5.287043 -15.545727)
      (xy -5.192711 -15.665042)
      (xy -5.06387 -15.828774)
      (xy -4.943821 -15.982804)
      (xy -4.836589 -16.121855)
      (xy -4.746199 -16.240648)
      (xy -4.676678 -16.333906)
      (xy -4.63205 -16.39635)
      (xy -4.617841 -16.41878)
      (xy -4.569941 -16.563978)
      (xy -4.564214 -16.721945)
      (xy -4.598957 -16.879744)
      (xy -4.672467 -17.024437)
      (xy -4.702791 -17.064522)
      (xy -4.81984 -17.170762)
      (xy -4.961657 -17.244689)
      (xy -5.115655 -17.282842)
      (xy -5.269248 -17.281761)
      (xy -5.381399 -17.251151)
      (xy -5.441265 -17.226832)
      (xy -5.47673 -17.21374)
      (xy -5.479869 -17.213013)
      (xy -5.500512 -17.233863)
      (xy -5.531779 -17.285366)
      (xy -5.565429 -17.350953)
      (xy -5.593223 -17.414053)
      (xy -5.606924 -17.458097)
      (xy -5.606297 -17.467283)
      (xy -5.575956 -17.486293)
      (xy -5.510173 -17.513425)
      (xy -5.42249 -17.543165)
      (xy -5.411894 -17.546418)
      (xy -5.20677 -17.583989)
    )

    (stroke (width 0) (type solid)) (fill solid) (layer "Eco1.User") (tstamp acbec917-3a8d-4dbc-855e-c716cf99c066))
  (fp_poly
    (pts
      (xy -3.677112 -17.232082)
      (xy -3.63747 -17.105573)
      (xy -3.586428 -16.941966)
      (xy -3.52756 -16.752757)
      (xy -3.464441 -16.549446)
      (xy -3.400643 -16.343528)
      (xy -3.355026 -16.195996)
      (xy -3.299878 -16.018415)
      (xy -3.248811 -15.855774)
      (xy -3.203952 -15.714703)
      (xy -3.167427 -15.601832)
      (xy -3.141363 -15.523793)
      (xy -3.127886 -15.487215)
      (xy -3.127413 -15.486275)
      (xy -3.109678 -15.483607)
      (xy -3.085899 -15.530577)
      (xy -3.067061 -15.587977)
      (xy -3.050283 -15.643344)
      (xy -3.02035 -15.740916)
      (xy -2.979222 -15.874344)
      (xy -2.928863 -16.037282)
      (xy -2.871233 -16.223381)
      (xy -2.808296 -16.426296)
      (xy -2.742013 -16.639677)
      (xy -2.737668 -16.653653)
      (xy -2.449145 -17.581681)
      (xy -2.292776 -17.589242)
      (xy -2.204282 -17.590984)
      (xy -2.158316 -17.584421)
      (xy -2.14703 -17.568175)
      (xy -2.14818 -17.563817)
      (xy -2.15982 -17.528421)
      (xy -2.184559 -17.45118)
      (xy -2.220698 -17.337503)
      (xy -2.266535 -17.192798)
      (xy -2.32037 -17.022471)
      (xy -2.380501 -16.831932)
      (xy -2.445228 -16.626588)
      (xy -2.51285 -16.411846)
      (xy -2.581666 -16.193115)
      (xy -2.649975 -15.975803)
      (xy -2.716076 -15.765317)
      (xy -2.778269 -15.567066)
      (xy -2.834853 -15.386456)
      (xy -2.884126 -15.228897)
      (xy -2.924388 -15.099795)
      (xy -2.953938 -15.004559)
      (xy -2.971075 -14.948597)
      (xy -2.974775 -14.935679)
      (xy -2.99776 -14.92964)
      (xy -3.05697 -14.925661)
      (xy -3.112572 -14.924724)
      (xy -3.250368 -14.924724)
      (xy -3.289967 -15.045495)
      (xy -3.305572 -15.093968)
      (xy -3.334778 -15.185558)
      (xy -3.37588 -15.314889)
      (xy -3.427173 -15.476584)
      (xy -3.486953 -15.665268)
      (xy -3.553516 -15.875564)
      (xy -3.625158 -16.102097)
      (xy -3.695004 -16.323123)
      (xy -3.768949 -16.557199)
      (xy -3.838642 -16.777791)
      (xy -3.902496 -16.979884)
      (xy -3.958929 -17.158466)
      (xy -4.006355 -17.308521)
      (xy -4.043189 -17.425037)
      (xy -4.067848 -17.502999)
      (xy -4.078681 -17.537187)
      (xy -4.08573 -17.568795)
      (xy -4.074199 -17.585909)
      (xy -4.033652 -17.592963)
      (xy -3.953653 -17.59439)
      (xy -3.943994 -17.594394)
      (xy -3.791068 -17.594394)
    )

    (stroke (width 0) (type solid)) (fill solid) (layer "Eco1.User") (tstamp a02ac521-35e0-46bb-845c-086401bcdb42))
  (fp_poly
    (pts
      (xy -4.765016 -37.600961)
      (xy -4.681532 -37.587469)
      (xy -4.597931 -37.558079)
      (xy -4.506216 -37.514706)
      (xy -4.327123 -37.402907)
      (xy -4.187338 -37.263758)
      (xy -4.079262 -37.089544)
      (xy -4.071505 -37.073321)
      (xy -4.037303 -36.992091)
      (xy -4.016956 -36.916253)
      (xy -4.007134 -36.827331)
      (xy -4.004507 -36.706849)
      (xy -4.004505 -36.701601)
      (xy -4.006357 -36.584881)
      (xy -4.014337 -36.501021)
      (xy -4.032082 -36.432093)
      (xy -4.063228 -36.360168)
      (xy -4.080781 -36.325523)
      (xy -4.119248 -36.262061)
      (xy -4.183972 -36.167315)
      (xy -4.269056 -36.049396)
      (xy -4.368603 -35.916415)
      (xy -4.476712 -35.77648)
      (xy -4.51937 -35.722467)
      (xy -4.622831 -35.591742)
      (xy -4.71478 -35.474483)
      (xy -4.790762 -35.376457)
      (xy -4.846326 -35.303434)
      (xy -4.877017 -35.26118)
      (xy -4.881682 -35.253149)
      (xy -4.857676 -35.248588)
      (xy -4.791329 -35.244684)
      (xy -4.691153 -35.241721)
      (xy -4.565655 -35.239981)
      (xy -4.474875 -35.239639)
      (xy -4.068068 -35.239639)
      (xy -4.068068 -35.099799)
      (xy -4.068068 -34.95996)
      (xy -4.782117 -34.95996)
      (xy -5.496165 -34.95996)
      (xy -5.411396 -35.066448)
      (xy -5.198725 -35.333678)
      (xy -5.015476 -35.564262)
      (xy -4.85938 -35.761326)
      (xy -4.728169 -35.92799)
      (xy -4.619573 -36.067377)
      (xy -4.531323 -36.182611)
      (xy -4.461149 -36.276813)
      (xy -4.406782 -36.353107)
      (xy -4.365953 -36.414615)
      (xy -4.336393 -36.46446)
      (xy -4.315833 -36.505765)
      (xy -4.302003 -36.541652)
      (xy -4.292633 -36.575243)
      (xy -4.285456 -36.609663)
      (xy -4.28388 -36.618007)
      (xy -4.28195 -36.758059)
      (xy -4.322403 -36.901283)
      (xy -4.398648 -37.037165)
      (xy -4.504093 -37.155192)
      (xy -4.632149 -37.244848)
      (xy -4.694318 -37.272734)
      (xy -4.819496 -37.31153)
      (xy -4.924068 -37.321793)
      (xy -5.029011 -37.304255)
      (xy -5.085085 -37.286386)
      (xy -5.151848 -37.263485)
      (xy -5.195095 -37.24988)
      (xy -5.202378 -37.248248)
      (xy -5.221594 -37.268025)
      (xy -5.254695 -37.316512)
      (xy -5.291843 -37.377439)
      (xy -5.3232 -37.434536)
      (xy -5.338928 -37.471535)
      (xy -5.33934 -37.474745)
      (xy -5.315966 -37.503587)
      (xy -5.253636 -37.533806)
      (xy -5.164034 -37.562169)
      (xy -5.058844 -37.585443)
      (xy -4.949751 -37.600395)
      (xy -4.871432 -37.604204)
    )

    (stroke (width 0) (type solid)) (fill solid) (layer "Eco1.User") (tstamp ffe6ec61-4460-42ee-949d-4f313f2f87fe))
  (fp_poly
    (pts
      (xy 0.309448 3.048536)
      (xy 0.597864 3.113771)
      (xy 0.873279 3.219216)
      (xy 1.129537 3.363537)
      (xy 1.360483 3.545401)
      (xy 1.536919 3.734231)
      (xy 1.72263 4.002916)
      (xy 1.861112 4.287434)
      (xy 1.951714 4.584278)
      (xy 1.993788 4.88994)
      (xy 1.986683 5.200911)
      (xy 1.929748 5.513684)
      (xy 1.890919 5.644445)
      (xy 1.777205 5.91002)
      (xy 1.620049 6.16076)
      (xy 1.426289 6.389414)
      (xy 1.202767 6.588731)
      (xy 0.956322 6.751458)
      (xy 0.75708 6.846527)
      (xy 0.491801 6.930045)
      (xy 0.210176 6.97783)
      (xy -0.072731 6.988477)
      (xy -0.341854 6.960581)
      (xy -0.381382 6.952713)
      (xy -0.676517 6.865067)
      (xy -0.953246 6.734162)
      (xy -1.206501 6.564466)
      (xy -1.431215 6.360445)
      (xy -1.62232 6.126567)
      (xy -1.774749 5.8673)
      (xy -1.865494 5.644445)
      (xy -1.941583 5.338377)
      (xy -1.969294 5.032176)
      (xy -1.966814 4.992159)
      (xy -1.44925 4.992159)
      (xy -1.438056 5.203845)
      (xy -1.401248 5.391052)
      (xy -1.33399 5.575715)
      (xy -1.30819 5.631732)
      (xy -1.170217 5.864128)
      (xy -0.998056 6.06262)
      (xy -0.797105 6.224738)
      (xy -0.572761 6.348013)
      (xy -0.330424 6.429977)
      (xy -0.075492 6.468159)
      (xy 0.186638 6.46009)
      (xy 0.406806 6.416219)
      (xy 0.647824 6.323376)
      (xy 0.870362 6.187408)
      (xy 1.067645 6.014679)
      (xy 1.232897 5.81155)
      (xy 1.359344 5.584383)
      (xy 1.398722 5.484844)
      (xy 1.442221 5.313082)
      (xy 1.465907 5.11494)
      (xy 1.468759 4.911285)
      (xy 1.449755 4.722989)
      (xy 1.438671 4.668446)
      (xy 1.362185 4.440897)
      (xy 1.245337 4.22245)
      (xy 1.095763 4.023204)
      (xy 0.9211 3.853259)
      (xy 0.728984 3.722714)
      (xy 0.719894 3.717845)
      (xy 0.549547 3.643076)
      (xy 0.357657 3.58388)
      (xy 0.165534 3.545793)
      (xy 0.012712 3.534135)
      (xy -0.246873 3.558329)
      (xy -0.492842 3.627873)
      (xy -0.720622 3.738205)
      (xy -0.92564 3.884763)
      (xy -1.103322 4.062987)
      (xy -1.249094 4.268315)
      (xy -1.358383 4.496186)
      (xy -1.426616 4.742039)
      (xy -1.44925 4.992159)
      (xy -1.966814 4.992159)
      (xy -1.950601 4.730566)
      (xy -1.887477 4.438272)
      (xy -1.781895 4.160017)
      (xy -1.63583 3.900526)
      (xy -1.451255 3.664524)
      (xy -1.230144 3.456735)
      (xy -0.974471 3.281882)
      (xy -0.851134 3.216404)
      (xy -0.572261 3.107447)
      (xy -0.28177 3.04404)
      (xy 0.014185 3.024848)
    )

    (stroke (width 0) (type solid)) (fill solid) (layer "Eco1.User") (tstamp 964b1563-2429-4c89-a7d8-31fc20d47fa8))
  (fp_poly
    (pts
      (xy 0.254769 -87.05324)
      (xy 0.468387 -87.019436)
      (xy 0.672075 -86.958373)
      (xy 0.826166 -86.893889)
      (xy 1.109954 -86.735997)
      (xy 1.359028 -86.541579)
      (xy 1.571406 -86.313024)
      (xy 1.745106 -86.052721)
      (xy 1.878146 -85.76306)
      (xy 1.946086 -85.543843)
      (xy 1.976291 -85.371346)
      (xy 1.990073 -85.169765)
      (xy 1.987623 -84.95808)
      (xy 1.969129 -84.755267)
      (xy 1.936514 -84.586741)
      (xy 1.833615 -84.294627)
      (xy 1.687905 -84.024184)
      (xy 1.503899 -83.779922)
      (xy 1.286113 -83.566351)
      (xy 1.039061 -83.387981)
      (xy 0.767259 -83.249323)
      (xy 0.512157 -83.163984)
      (xy 0.303261 -83.123702)
      (xy 0.079677 -83.103629)
      (xy -0.138228 -83.104689)
      (xy -0.321373 -83.126102)
      (xy -0.608643 -83.199423)
      (xy -0.869217 -83.306921)
      (xy -1.118719 -83.454927)
      (xy -1.347433 -83.640868)
      (xy -1.549149 -83.864715)
      (xy -1.718031 -84.118133)
      (xy -1.848239 -84.392788)
      (xy -1.911527 -84.586741)
      (xy -1.944497 -84.75829)
      (xy -1.962481 -84.958364)
      (xy -1.964304 -85.097161)
      (xy -1.447667 -85.097161)
      (xy -1.439943 -84.910461)
      (xy -1.414487 -84.74494)
      (xy -1.410656 -84.729215)
      (xy -1.323159 -84.485428)
      (xy -1.19255 -84.260051)
      (xy -1.024921 -84.059236)
      (xy -0.826361 -83.889132)
      (xy -0.602964 -83.75589)
      (xy -0.360819 -83.665659)
      (xy -0.355956 -83.664369)
      (xy -0.21211 -83.639063)
      (xy -0.040831 -83.627904)
      (xy 0.136456 -83.630935)
      (xy 0.298327 -83.648197)
      (xy 0.369683 -83.662912)
      (xy 0.617563 -83.751682)
      (xy 0.844808 -83.883382)
      (xy 1.045831 -84.052428)
      (xy 1.215048 -84.253233)
      (xy 1.346871 -84.480212)
      (xy 1.435714 -84.727778)
      (xy 1.436081 -84.729215)
      (xy 1.463462 -84.891057)
      (xy 1.473111 -85.076568)
      (xy 1.465047 -85.262795)
      (xy 1.439292 -85.426784)
      (xy 1.435432 -85.442278)
      (xy 1.344181 -85.694653)
      (xy 1.210321 -85.924236)
      (xy 1.0389 -86.125982)
      (xy 0.834961 -86.294845)
      (xy 0.603552 -86.42578)
      (xy 0.368805 -86.508906)
      (xy 0.212458 -86.536117)
      (xy 0.031867 -86.546518)
      (xy -0.150327 -86.540061)
      (xy -0.311486 -86.516698)
      (xy -0.337627 -86.510404)
      (xy -0.591343 -86.418971)
      (xy -0.821934 -86.285296)
      (xy -1.024444 -86.114315)
      (xy -1.193916 -85.910963)
      (xy -1.325395 -85.680179)
      (xy -1.410008 -85.442278)
      (xy -1.437682 -85.282084)
      (xy -1.447667 -85.097161)
      (xy -1.964304 -85.097161)
      (xy -1.965232 -85.1678)
      (xy -1.952504 -85.367433)
      (xy -1.924051 -85.5381)
      (xy -1.923773 -85.539243)
      (xy -1.82824 -85.828043)
      (xy -1.688787 -86.102106)
      (xy -1.510956 -86.353364)
      (xy -1.300287 -86.573752)
      (xy -1.110447 -86.723364)
      (xy -0.841566 -86.878891)
      (xy -0.557069 -86.986817)
      (xy -0.25437 -87.047925)
      (xy 0.012712 -87.06365)
    )

    (stroke (width 0) (type solid)) (fill solid) (layer "Eco1.User") (tstamp 0faefcb9-3ab8-4c04-a45d-6516324ef0df))
  (fp_poly
    (pts
      (xy -6.063492 95.424766)
      (xy -5.743732 95.425954)
      (xy -5.507575 95.427015)
      (xy -3.877378 95.434498)
      (xy -3.66852 95.505157)
      (xy -3.409657 95.618381)
      (xy -3.174037 95.772463)
      (xy -2.96672 95.961834)
      (xy -2.792767 96.180923)
      (xy -2.657239 96.424161)
      (xy -2.565196 96.685978)
      (xy -2.554339 96.731473)
      (xy -2.52332 96.951204)
      (xy -2.521043 97.18629)
      (xy -2.546504 97.417166)
      (xy -2.598696 97.624266)
      (xy -2.600496 97.629429)
      (xy -2.722094 97.902268)
      (xy -2.883025 98.14349)
      (xy -3.081287 98.351092)
      (xy -3.314875 98.523072)
      (xy -3.581787 98.657427)
      (xy -3.658268 98.686621)
      (xy -3.877378 98.765065)
      (xy -5.517318 98.769956)
      (xy -5.857879 98.77081)
      (xy -6.151488 98.771145)
      (xy -6.40204 98.770891)
      (xy -6.613431 98.769976)
      (xy -6.789559 98.768329)
      (xy -6.934318 98.765879)
      (xy -7.051605 98.762555)
      (xy -7.145317 98.758287)
      (xy -7.219348 98.753002)
      (xy -7.277597 98.74663)
      (xy -7.323957 98.739099)
      (xy -7.335236 98.736796)
      (xy -7.60764 98.653271)
      (xy -7.859004 98.525782)
      (xy -8.084801 98.35846)
      (xy -8.280505 98.155436)
      (xy -8.44159 97.920839)
      (xy -8.563529 97.658801)
      (xy -8.585255 97.596032)
      (xy -8.619757 97.476898)
      (xy -8.640723 97.365719)
      (xy -8.651264 97.241259)
      (xy -8.654211 97.125126)
      (xy -8.651922 97.025525)
      (xy -8.513303 97.025525)
      (xy -8.503158 97.281832)
      (xy -8.44795 97.534234)
      (xy -8.347783 97.777442)
      (xy -8.202759 98.006165)
      (xy -8.060002 98.169673)
      (xy -7.924802 98.295149)
      (xy -7.797609 98.38908)
      (xy -7.677915 98.456202)
      (xy -7.612812 98.488028)
      (xy -7.553097 98.515508)
      (xy -7.494659 98.538947)
      (xy -7.433389 98.558649)
      (xy -7.365177 98.574918)
      (xy -7.285915 98.58806)
      (xy -7.191492 98.598378)
      (xy -7.077798 98.606178)
      (xy -6.940725 98.611762)
      (xy -6.776162 98.615436)
      (xy -6.580001 98.617505)
      (xy -6.348131 98.618272)
      (xy -6.076442 98.618042)
      (xy -5.760826 98.617119)
      (xy -5.517318 98.616245)
      (xy -5.182891 98.614905)
      (xy -4.895467 98.61344)
      (xy -4.651197 98.611746)
      (xy -4.446233 98.609719)
      (xy -4.276725 98.607256)
      (xy -4.138825 98.604253)
      (xy -4.028686 98.600605)
      (xy -3.942458 98.59621)
      (xy -3.876292 98.590962)
      (xy -3.826342 98.584759)
      (xy -3.788757 98.577496)
      (xy -3.759689 98.56907)
      (xy -3.758899 98.568795)
      (xy -3.488297 98.45001)
      (xy -3.251113 98.295936)
      (xy -3.04994 98.109289)
      (xy -2.887375 97.892787)
      (xy -2.766015 97.649146)
      (xy -2.708358 97.469383)
      (xy -2.682254 97.316528)
      (xy -2.671485 97.137206)
      (xy -2.676053 96.953432)
      (xy -2.695956 96.787224)
      (xy -2.708358 96.730017)
      (xy -2.799657 96.472621)
      (xy -2.934359 96.237359)
      (xy -3.108057 96.029038)
      (xy -3.316347 95.852464)
      (xy -3.554822 95.712444)
      (xy -3.694921 95.653606)
      (xy -3.877378 95.586887)
      (xy -5.593594 95.586887)
      (xy -7.30981 95.586887)
      (xy -7.481217 95.653574)
      (xy -7.707063 95.756959)
      (xy -7.898686 95.880957)
      (xy -8.071677 96.035966)
      (xy -8.101179 96.067035)
      (xy -8.272323 96.286068)
      (xy -8.397989 96.522353)
      (xy -8.478281 96.770602)
      (xy -8.513303 97.025525)
      (xy -8.651922 97.025525)
      (xy -8.649704 96.929046)
      (xy -8.628954 96.762729)
      (xy -8.587684 96.606512)
      (xy -8.521616 96.440732)
      (xy -8.491009 96.375075)
      (xy -8.347668 96.127905)
      (xy -8.171148 95.917358)
      (xy -7.957922 95.739891)
      (xy -7.716617 95.597955)
      (xy -7.647286 95.563896)
      (xy -7.583441 95.534464)
      (xy -7.520958 95.509338)
      (xy -7.45571 95.488201)
      (xy -7.383574 95.470733)
      (xy -7.300424 95.456615)
      (xy -7.202136 95.445527)
      (xy -7.084583 95.43715)
      (xy -6.943642 95.431166)
      (xy -6.775188 95.427254)
      (xy -6.575094 95.425097)
      (xy -6.339237 95.424373)
    )

    (stroke (width 0) (type solid)) (fill solid) (layer "Eco1.User") (tstamp ff442ef4-588c-475b-a29b-7bab110944e7))
  (fp_poly
    (pts
      (xy -5.253553 -98.777678)
      (xy -4.95675 -98.777127)
      (xy -4.702188 -98.775741)
      (xy -4.485564 -98.773141)
      (xy -4.302572 -98.768944)
      (xy -4.148909 -98.76277)
      (xy -4.020269 -98.754237)
      (xy -3.912349 -98.742965)
      (xy -3.820843 -98.728571)
      (xy -3.741446 -98.710675)
      (xy -3.669856 -98.688895)
      (xy -3.601766 -98.662851)
      (xy -3.532873 -98.63216)
      (xy -3.458872 -98.596443)
      (xy -3.439036 -98.586666)
      (xy -3.199483 -98.441458)
      (xy -2.992734 -98.261609)
      (xy -2.820717 -98.052731)
      (xy -2.685364 -97.820439)
      (xy -2.588603 -97.570343)
      (xy -2.532366 -97.308056)
      (xy -2.518582 -97.039191)
      (xy -2.549182 -96.769361)
      (xy -2.626095 -96.504177)
      (xy -2.680151 -96.37994)
      (xy -2.830963 -96.125323)
      (xy -3.018366 -95.905141)
      (xy -3.240071 -95.721688)
      (xy -3.470571 -95.588182)
      (xy -3.5387 -95.555943)
      (xy -3.601697 -95.528156)
      (xy -3.663768 -95.504496)
      (xy -3.729124 -95.484636)
      (xy -3.801971 -95.468252)
      (xy -3.886519 -95.455019)
      (xy -3.986976 -95.44461)
      (xy -4.10755 -95.4367)
      (xy -4.252449 -95.430964)
      (xy -4.425881 -95.427077)
      (xy -4.632056 -95.424713)
      (xy -4.875181 -95.423547)
      (xy -5.159465 -95.423254)
      (xy -5.489116 -95.423507)
      (xy -5.598613 -95.423643)
      (xy -5.946954 -95.424345)
      (xy -6.24778 -95.425546)
      (xy -6.504423 -95.427314)
      (xy -6.720216 -95.429717)
      (xy -6.898493 -95.432823)
      (xy -7.042587 -95.4367)
      (xy -7.15583 -95.441418)
      (xy -7.241557 -95.447044)
      (xy -7.3031 -95.453647)
      (xy -7.335236 -95.459247)
      (xy -7.611922 -95.544904)
      (xy -7.865134 -95.67271)
      (xy -8.090775 -95.838497)
      (xy -8.284751 -96.038099)
      (xy -8.442963 -96.26735)
      (xy -8.561317 -96.522081)
      (xy -8.632079 -96.778483)
      (xy -8.66069 -96.965652)
      (xy -8.666286 -97.099699)
      (xy -8.516635 -97.099699)
      (xy -8.492088 -96.839126)
      (xy -8.421494 -96.587719)
      (xy -8.30942 -96.351313)
      (xy -8.160432 -96.135747)
      (xy -7.979099 -95.946855)
      (xy -7.769987 -95.790475)
      (xy -7.537665 -95.672442)
      (xy -7.353329 -95.613179)
      (xy -7.314883 -95.605808)
      (xy -7.261823 -95.599535)
      (xy -7.190507 -95.594299)
      (xy -7.097297 -95.590037)
      (xy -6.978553 -95.586687)
      (xy -6.830635 -95.584188)
      (xy -6.649904 -95.582475)
      (xy -6.432719 -95.581488)
      (xy -6.175441 -95.581164)
      (xy -5.874431 -95.58144)
      (xy -5.542743 -95.582208)
      (xy -3.877378 -95.586886)
      (xy -3.712112 -95.64633)
      (xy -3.44992 -95.76654)
      (xy -3.218021 -95.926968)
      (xy -3.018836 -96.125703)
      (xy -2.899507 -96.28761)
      (xy -2.781646 -96.515517)
      (xy -2.70615 -96.763901)
      (xy -2.673407 -97.02454)
      (xy -2.683804 -97.289211)
      (xy -2.737727 -97.549692)
      (xy -2.829019 -97.784543)
      (xy -2.923864 -97.939558)
      (xy -3.053964 -98.097909)
      (xy -3.206354 -98.246782)
      (xy -3.368074 -98.373358)
      (xy -3.508709 -98.456564)
      (xy -3.576874 -98.48934)
      (xy -3.64003 -98.517543)
      (xy -3.702442 -98.541518)
      (xy -3.768378 -98.561607)
      (xy -3.842105 -98.578154)
      (xy -3.927888 -98.591503)
      (xy -4.029996 -98.601996)
      (xy -4.152695 -98.609977)
      (xy -4.300251 -98.61579)
      (xy -4.476931 -98.619777)
      (xy -4.687003 -98.622283)
      (xy -4.934733 -98.62365)
      (xy -5.224387 -98.624222)
      (xy -5.560234 -98.624342)
      (xy -5.593594 -98.624342)
      (xy -5.926452 -98.624142)
      (xy -6.212415 -98.623484)
      (xy -6.455436 -98.622283)
      (xy -6.659471 -98.620452)
      (xy -6.828472 -98.617905)
      (xy -6.966395 -98.614556)
      (xy -7.077194 -98.610319)
      (xy -7.164822 -98.605109)
      (xy -7.233233 -98.598837)
      (xy -7.286383 -98.59142)
      (xy -7.30981 -98.586975)
      (xy -7.561844 -98.508979)
      (xy -7.793819 -98.388056)
      (xy -8.001304 -98.229665)
      (xy -8.179866 -98.039271)
      (xy -8.325074 -97.822334)
      (xy -8.432496 -97.584316)
      (xy -8.497699 -97.33068)
      (xy -8.516635 -97.099699)
      (xy -8.666286 -97.099699)
      (xy -8.667588 -97.130895)
      (xy -8.652703 -97.298301)
      (xy -8.630251 -97.424945)
      (xy -8.549206 -97.699139)
      (xy -8.423583 -97.953639)
      (xy -8.257616 -98.182998)
      (xy -8.055542 -98.381767)
      (xy -7.821597 -98.5445)
      (xy -7.716617 -98.599942)
      (xy -7.64363 -98.634617)
      (xy -7.575946 -98.664466)
      (xy -7.509254 -98.68985)
      (xy -7.439247 -98.711131)
      (xy -7.361616 -98.72867)
      (xy -7.272053 -98.742829)
      (xy -7.166249 -98.753968)
      (xy -7.039896 -98.76245)
      (xy -6.888685 -98.768636)
      (xy -6.708308 -98.772888)
      (xy -6.494456 -98.775566)
      (xy -6.242821 -98.777033)
      (xy -5.949095 -98.777649)
      (xy -5.608969 -98.777777)
      (xy -5.596902 -98.777777)
    )

    (stroke (width 0) (type solid)) (fill solid) (layer "Eco1.User") (tstamp 582f7231-899c-428e-816c-229547d6f498))
  (fp_poly
    (pts
      (xy 0.82132 -18.102888)
      (xy 1.580614 -18.102841)
      (xy 2.292133 -18.102753)
      (xy 2.957415 -18.102619)
      (xy 3.577998 -18.102432)
      (xy 4.155419 -18.102184)
      (xy 4.691217 -18.101869)
      (xy 5.186929 -18.10148)
      (xy 5.644093 -18.10101)
      (xy 6.064248 -18.100453)
      (xy 6.44893 -18.099802)
      (xy 6.799679 -18.09905)
      (xy 7.118031 -18.09819)
      (xy 7.405525 -18.097215)
      (xy 7.663699 -18.096119)
      (xy 7.89409 -18.094895)
      (xy 8.098236 -18.093535)
      (xy 8.277676 -18.092034)
      (xy 8.433946 -18.090385)
      (xy 8.568586 -18.08858)
      (xy 8.683133 -18.086613)
      (xy 8.779124 -18.084476)
      (xy 8.858098 -18.082165)
      (xy 8.921593 -18.07967)
      (xy 8.971146 -18.076987)
      (xy 9.008295 -18.074107)
      (xy 9.034579 -18.071024)
      (xy 9.051535 -18.067732)
      (xy 9.060701 -18.064223)
      (xy 9.062348 -18.062948)
      (xy 9.065932 -18.056139)
      (xy 9.069297 -18.042076)
      (xy 9.072451 -18.019223)
      (xy 9.075399 -17.986043)
      (xy 9.078149 -17.940999)
      (xy 9.080708 -17.882553)
      (xy 9.083082 -17.809169)
      (xy 9.085278 -17.71931)
      (xy 9.087303 -17.611438)
      (xy 9.089164 -17.484016)
      (xy 9.090867 -17.335508)
      (xy 9.092419 -17.164375)
      (xy 9.093827 -16.969082)
      (xy 9.095098 -16.748091)
      (xy 9.096238 -16.499865)
      (xy 9.097255 -16.222867)
      (xy 9.098155 -15.91556)
      (xy 9.098944 -15.576406)
      (xy 9.099631 -15.203869)
      (xy 9.10022 -14.796412)
      (xy 9.10072 -14.352497)
      (xy 9.101137 -13.870587)
      (xy 9.101478 -13.349146)
      (xy 9.101749 -12.786637)
      (xy 9.101957 -12.181521)
      (xy 9.10211 -11.532263)
      (xy 9.102214 -10.837324)
      (xy 9.102275 -10.095169)
      (xy 9.1023 -9.30426)
      (xy 9.102302 -9.003869)
      (xy 9.102266 -8.161274)
      (xy 9.102154 -7.368286)
      (xy 9.101963 -6.62366)
      (xy 9.101689 -5.926153)
      (xy 9.101327 -5.274519)
      (xy 9.100872 -4.667516)
      (xy 9.100322 -4.103898)
      (xy 9.099671 -3.582422)
      (xy 9.098916 -3.101843)
      (xy 9.098051 -2.660917)
      (xy 9.097074 -2.258401)
      (xy 9.09598 -1.893049)
      (xy 9.094764 -1.563618)
      (xy 9.093423 -1.268864)
      (xy 9.091951 -1.007542)
      (xy 9.090346 -0.778408)
      (xy 9.088603 -0.580218)
      (xy 9.086718 -0.411727)
      (xy 9.084686 -0.271693)
      (xy 9.082503 -0.15887)
      (xy 9.080165 -0.072014)
      (xy 9.077668 -0.009882)
      (xy 9.075008 0.028772)
      (xy 9.07218 0.045191)
      (xy 9.071791 0.045766)
      (xy 9.043839 0.048599)
      (xy 8.967243 0.051306)
      (xy 8.844212 0.053887)
      (xy 8.676953 0.056343)
      (xy 8.467675 0.058672)
      (xy 8.218584 0.060877)
      (xy 7.93189 0.062955)
      (xy 7.609798 0.064908)
      (xy 7.254518 0.066735)
      (xy 6.868257 0.068436)
      (xy 6.453223 0.070011)
      (xy 6.011623 0.071461)
      (xy 5.545665 0.072785)
      (xy 5.057557 0.073984)
      (xy 4.549507 0.075057)
      (xy 4.023722 0.076004)
      (xy 3.48241 0.076825)
      (xy 2.927779 0.07752)
      (xy 2.362037 0.07809)
      (xy 1.78739 0.078534)
      (xy 1.206048 0.078853)
      (xy 0.620218 0.079046)
      (xy 0.032107 0.079112)
      (xy -0.556077 0.079054)
      (xy -1.142125 0.078869)
      (xy -1.723831 0.078559)
      (xy -2.298987 0.078123)
      (xy -2.865384 0.077562)
      (xy -3.420816 0.076875)
      (xy -3.963073 0.076062)
      (xy -4.48995 0.075123)
      (xy -4.999237 0.074058)
      (xy -5.488727 0.072868)
      (xy -5.956213 0.071552)
      (xy -6.399486 0.070111)
      (xy -6.816339 0.068544)
      (xy -7.204565 0.066851)
      (xy -7.561955 0.065032)
      (xy -7.886301 0.063088)
      (xy -8.175397 0.061017)
      (xy -8.427034 0.058822)
      (xy -8.639004 0.0565)
      (xy -8.8091 0.054053)
      (xy -8.935114 0.05148)
      (xy -9.014839 0.048781)
      (xy -9.046065 0.045957)
      (xy -9.046367 0.045766)
      (xy -9.049217 0.032211)
      (xy -9.051899 -0.003414)
      (xy -9.054417 -0.062353)
      (xy -9.056776 -0.145849)
      (xy -9.058979 -0.255147)
      (xy -9.061031 -0.391491)
      (xy -9.062936 -0.556125)
      (xy -9.064698 -0.750293)
      (xy -9.066321 -0.97524)
      (xy -9.06781 -1.232209)
      (xy -9.069168 -1.522446)
      (xy -9.0704 -1.847193)
      (xy -9.071511 -2.207696)
      (xy -9.072503 -2.605198)
      (xy -9.073382 -3.040944)
      (xy -9.074152 -3.516178)
      (xy -9.074816 -4.032143)
      (xy -9.07538 -4.590085)
      (xy -9.075847 -5.191246)
      (xy -9.076221 -5.836873)
      (xy -9.076507 -6.528208)
      (xy -9.076709 -7.266495)
      (xy -9.076831 -8.05298)
      (xy -9.076877 -8.888906)
      (xy -9.076877 -9.003869)
      (xy -9.076863 -9.812912)
      (xy -9.076816 -10.572642)
      (xy -9.076728 -11.284595)
      (xy -9.076594 -11.950308)
      (xy -9.076407 -12.571319)
      (xy -9.076159 -13.149164)
      (xy -9.075845 -13.685381)
      (xy -9.075456 -14.181506)
      (xy -9.074988 -14.639077)
      (xy -9.074431 -15.059631)
      (xy -9.073781 -15.444705)
      (xy -9.07303 -15.795836)
      (xy -9.072171 -16.114562)
      (xy -9.071198 -16.402418)
      (xy -9.070103 -16.660942)
      (xy -9.06888 -16.891672)
      (xy -9.067523 -17.096144)
      (xy -9.066024 -17.275896)
      (xy -9.064377 -17.432464)
      (xy -9.062574 -17.567386)
      (xy -9.06061 -17.682198)
      (xy -9.058477 -17.778438)
      (xy -9.056169 -17.857643)
      (xy -9.053678 -17.92135)
      (xy -9.052116 -17.95035)
      (xy -8.924325 -17.95035)
      (xy -8.924325 -9.013313)
      (xy -8.924325 -0.076276)
      (xy 0.012712 -0.076276)
      (xy 8.949749 -0.076276)
      (xy 8.949749 -9.013313)
      (xy 8.949749 -17.95035)
      (xy 0.012712 -17.95035)
      (xy -8.924325 -17.95035)
      (xy -9.052116 -17.95035)
      (xy -9.050998 -17.971096)
      (xy -9.048123 -18.008418)
      (xy -9.045045 -18.034853)
      (xy -9.041757 -18.051939)
      (xy -9.038254 -18.061211)
      (xy -9.036923 -18.062948)
      (xy -9.030111 -18.066534)
      (xy -9.016045 -18.069901)
      (xy -8.993188 -18.073056)
      (xy -8.960001 -18.076006)
      (xy -8.914946 -18.078757)
      (xy -8.856486 -18.081316)
      (xy -8.783082 -18.083691)
      (xy -8.693197 -18.085887)
      (xy -8.585293 -18.087913)
      (xy -8.457832 -18.089773)
      (xy -8.309277 -18.091477)
      (xy -8.138088 -18.093029)
      (xy -7.942729 -18.094437)
      (xy -7.721661 -18.095707)
      (xy -7.473346 -18.096847)
      (xy -7.196248 -18.097863)
      (xy -6.888827 -18.098763)
      (xy -6.549546 -18.099552)
      (xy -6.176867 -18.100237)
      (xy -5.769252 -18.100827)
      (xy -5.325163 -18.101326)
      (xy -4.843063 -18.101742)
      (xy -4.321413 -18.102082)
      (xy -3.758676 -18.102352)
      (xy -3.153313 -18.10256)
      (xy -2.503788 -18.102712)
      (xy -1.808561 -18.102815)
      (xy -1.066095 -18.102876)
      (xy -0.274852 -18.102901)
      (xy 0.012712 -18.102903)
    )

    (stroke (width 0) (type solid)) (fill solid) (layer "Eco1.User") (tstamp c0de291e-7a26-417f-9c8c-c6d2c323c198))
  (fp_poly
    (pts
      (xy 0.82132 -53.139124)
      (xy 1.580614 -53.139077)
      (xy 2.292133 -53.13899)
      (xy 2.957415 -53.138856)
      (xy 3.577998 -53.138668)
      (xy 4.155419 -53.13842)
      (xy 4.691217 -53.138105)
      (xy 5.186929 -53.137716)
      (xy 5.644093 -53.137247)
      (xy 6.064248 -53.13669)
      (xy 6.44893 -53.136038)
      (xy 6.799679 -53.135286)
      (xy 7.118031 -53.134426)
      (xy 7.405525 -53.133451)
      (xy 7.663699 -53.132355)
      (xy 7.89409 -53.131131)
      (xy 8.098236 -53.129772)
      (xy 8.277676 -53.128271)
      (xy 8.433946 -53.126621)
      (xy 8.568586 -53.124816)
      (xy 8.683133 -53.122849)
      (xy 8.779124 -53.120713)
      (xy 8.858098 -53.118401)
      (xy 8.921593 -53.115907)
      (xy 8.971146 -53.113223)
      (xy 9.008295 -53.110343)
      (xy 9.034579 -53.107261)
      (xy 9.051535 -53.103968)
      (xy 9.060701 -53.10046)
      (xy 9.062348 -53.099184)
      (xy 9.068424 -53.089398)
      (xy 9.073858 -53.071067)
      (xy 9.078687 -53.041514)
      (xy 9.082944 -52.99806)
      (xy 9.086666 -52.938026)
      (xy 9.089886 -52.858734)
      (xy 9.092641 -52.757504)
      (xy 9.094966 -52.631659)
      (xy 9.096895 -52.478519)
      (xy 9.098463 -52.295405)
      (xy 9.099707 -52.079639)
      (xy 9.10066 -51.828543)
      (xy 9.101358 -51.539437)
      (xy 9.101835 -51.209643)
      (xy 9.102129 -50.836482)
      (xy 9.102272 -50.417275)
      (xy 9.102302 -50.04995)
      (xy 9.102253 -49.592284)
      (xy 9.102081 -49.182791)
      (xy 9.101753 -48.818792)
      (xy 9.101233 -48.497607)
      (xy 9.100485 -48.216557)
      (xy 9.099475 -47.972965)
      (xy 9.098168 -47.764152)
      (xy 9.096528 -47.587438)
      (xy 9.09452 -47.440145)
      (xy 9.09211 -47.319595)
      (xy 9.089262 -47.223108)
      (xy 9.08594 -47.148006)
      (xy 9.082111 -47.09161)
      (xy 9.077739 -47.051242)
      (xy 9.072788 -47.024222)
      (xy 9.067224 -47.007872)
      (xy 9.062348 -47.000715)
      (xy 9.055536 -46.997129)
      (xy 9.04147 -46.993762)
      (xy 9.018613 -46.990607)
      (xy 8.985426 -46.987657)
      (xy 8.940371 -46.984906)
      (xy 8.881911 -46.982347)
      (xy 8.808507 -46.979972)
      (xy 8.718622 -46.977775)
      (xy 8.610718 -46.97575)
      (xy 8.483257 -46.973889)
      (xy 8.334701 -46.972186)
      (xy 8.163513 -46.970634)
      (xy 7.968153 -46.969226)
      (xy 7.747086 -46.967956)
      (xy 7.498771 -46.966816)
      (xy 7.221673 -46.965799)
      (xy 6.914252 -46.9649)
      (xy 6.574971 -46.964111)
      (xy 6.202292 -46.963425)
      (xy 5.794677 -46.962836)
      (xy 5.350588 -46.962337)
      (xy 4.868488 -46.961921)
      (xy 4.346838 -46.961581)
      (xy 3.784101 -46.96131)
      (xy 3.178738 -46.961103)
      (xy 2.529212 -46.960951)
      (xy 1.833985 -46.960848)
      (xy 1.09152 -46.960787)
      (xy 0.300277 -46.960762)
      (xy 0.012712 -46.96076)
      (xy -0.795895 -46.960775)
      (xy -1.555189 -46.960822)
      (xy -2.266708 -46.960909)
      (xy -2.93199 -46.961044)
      (xy -3.552573 -46.961231)
      (xy -4.129994 -46.961479)
      (xy -4.665792 -46.961794)
      (xy -5.161504 -46.962183)
      (xy -5.618668 -46.962652)
      (xy -6.038823 -46.963209)
      (xy -6.423506 -46.963861)
      (xy -6.774254 -46.964613)
      (xy -7.092606 -46.965473)
      (xy -7.3801 -46.966448)
      (xy -7.638274 -46.967544)
      (xy -7.868665 -46.968768)
      (xy -8.072811 -46.970127)
      (xy -8.252251 -46.971629)
      (xy -8.408521 -46.973278)
      (xy -8.543161 -46.975083)
      (xy -8.657708 -46.97705)
      (xy -8.753699 -46.979186)
      (xy -8.832673 -46.981498)
      (xy -8.896168 -46.983992)
      (xy -8.945721 -46.986676)
      (xy -8.982871 -46.989556)
      (xy -9.009154 -46.992638)
      (xy -9.02611 -46.995931)
      (xy -9.035276 -46.999439)
      (xy -9.036923 -47.000715)
      (xy -9.042999 -47.010502)
      (xy -9.048433 -47.028832)
      (xy -9.053262 -47.058385)
      (xy -9.057519 -47.101839)
      (xy -9.061241 -47.161873)
      (xy -9.064462 -47.241165)
      (xy -9.067217 -47.342395)
      (xy -9.069541 -47.46824)
      (xy -9.07147 -47.62138)
      (xy -9.073039 -47.804494)
      (xy -9.074282 -48.02026)
      (xy -9.075235 -48.271356)
      (xy -9.075933 -48.560462)
      (xy -9.076066 -48.652099)
      (xy -8.9198 -48.652099)
      (xy -8.91966 -48.347462)
      (xy -8.919312 -48.069768)
      (xy -8.918763 -47.822252)
      (xy -8.918017 -47.608148)
      (xy -8.917083 -47.430693)
      (xy -8.915964 -47.293119)
      (xy -8.914669 -47.198663)
      (xy -8.913203 -47.150559)
      (xy -8.912585 -47.145059)
      (xy -8.902652 -47.142114)
      (xy -8.87427 -47.139358)
      (xy -8.826094 -47.136789)
      (xy -8.756776 -47.134402)
      (xy -8.66497 -47.132194)
      (xy -8.549328 -47.13016)
      (xy -8.408504 -47.128297)
      (xy -8.241152 -47.126601)
      (xy -8.045924 -47.125068)
      (xy -7.821474 -47.123694)
      (xy -7.566455 -47.122476)
      (xy -7.27952 -47.121409)
      (xy -6.959322 -47.120491)
      (xy -6.604515 -47.119716)
      (xy -6.213752 -47.119081)
      (xy -5.785686 -47.118583)
      (xy -5.318969 -47.118217)
      (xy -4.812257 -47.117979)
      (xy -4.264201 -47.117867)
      (xy -3.673455 -47.117875)
      (xy -3.038672 -47.118001)
      (xy -2.358505 -47.11824)
      (xy -1.631608 -47.118588)
      (xy -0.856633 -47.119042)
      (xy -0.032235 -47.119597)
      (xy 0.018285 -47.119633)
      (xy 8.937037 -47.126026)
      (xy 8.937037 -50.04995)
      (xy 8.937037 -52.973873)
      (xy 0.012712 -52.973873)
      (xy -8.911612 -52.973873)
      (xy -8.918157 -50.075375)
      (xy -8.918911 -49.695316)
      (xy -8.919431 -49.329261)
      (xy -8.919726 -48.980443)
      (xy -8.9198 -48.652099)
      (xy -9.076066 -48.652099)
      (xy -9.076411 -48.890256)
      (xy -9.076704 -49.263418)
      (xy -9.076847 -49.682624)
      (xy -9.076877 -50.04995)
      (xy -9.076828 -50.507615)
      (xy -9.076657 -50.917108)
      (xy -9.076328 -51.281107)
      (xy -9.075808 -51.602292)
      (xy -9.07506 -51.883342)
      (xy -9.07405 -52.126934)
      (xy -9.072743 -52.335747)
      (xy -9.071103 -52.512461)
      (xy -9.069095 -52.659754)
      (xy -9.066685 -52.780304)
      (xy -9.063837 -52.876791)
      (xy -9.060516 -52.951893)
      (xy -9.056686 -53.008289)
      (xy -9.052314 -53.048657)
      (xy -9.047363 -53.075677)
      (xy -9.0418 -53.092027)
      (xy -9.036923 -53.099184)
      (xy -9.030111 -53.10277)
      (xy -9.016045 -53.106137)
      (xy -8.993188 -53.109292)
      (xy -8.960001 -53.112242)
      (xy -8.914946 -53.114993)
      (xy -8.856486 -53.117553)
      (xy -8.783082 -53.119927)
      (xy -8.693197 -53.122124)
      (xy -8.585293 -53.124149)
      (xy -8.457832 -53.12601)
      (xy -8.309277 -53.127713)
      (xy -8.138088 -53.129265)
      (xy -7.942729 -53.130673)
      (xy -7.721661 -53.131943)
      (xy -7.473346 -53.133083)
      (xy -7.196248 -53.1341)
      (xy -6.888827 -53.134999)
      (xy -6.549546 -53.135788)
      (xy -6.176867 -53.136474)
      (xy -5.769252 -53.137063)
      (xy -5.325163 -53.137562)
      (xy -4.843063 -53.137978)
      (xy -4.321413 -53.138318)
      (xy -3.758676 -53.138589)
      (xy -3.153313 -53.138797)
      (xy -2.503788 -53.138949)
      (xy -1.808561 -53.139051)
      (xy -1.066095 -53.139112)
      (xy -0.274852 -53.139137)
      (xy 0.012712 -53.139139)
    )

    (stroke (width 0) (type solid)) (fill solid) (layer "Eco1.User") (tstamp 383b1c31-5750-4ebc-b670-cbe7d13b9e6e))
  (fp_poly
    (pts
      (xy 0.581502 -38.115489)
      (xy 1.16755 -38.115305)
      (xy 1.749256 -38.114995)
      (xy 2.324412 -38.114559)
      (xy 2.890809 -38.113997)
      (xy 3.44624 -38.11331)
      (xy 3.988498 -38.112497)
      (xy 4.515374 -38.111558)
      (xy 5.024662 -38.110494)
      (xy 5.514152 -38.109304)
      (xy 5.981638 -38.107988)
      (xy 6.424911 -38.106547)
      (xy 6.841764 -38.104979)
      (xy 7.22999 -38.103286)
      (xy 7.58738 -38.101468)
      (xy 7.911726 -38.099523)
      (xy 8.200822 -38.097453)
      (xy 8.452459 -38.095257)
      (xy 8.664429 -38.092936)
      (xy 8.834525 -38.090488)
      (xy 8.960539 -38.087915)
      (xy 9.040263 -38.085217)
      (xy 9.07149 -38.082392)
      (xy 9.071791 -38.082202)
      (xy 9.074642 -38.068646)
      (xy 9.077324 -38.033021)
      (xy 9.079842 -37.974083)
      (xy 9.082201 -37.890587)
      (xy 9.084404 -37.781289)
      (xy 9.086456 -37.644945)
      (xy 9.088361 -37.480311)
      (xy 9.090123 -37.286143)
      (xy 9.091746 -37.061196)
      (xy 9.093234 -36.804226)
      (xy 9.094593 -36.51399)
      (xy 9.095825 -36.189242)
      (xy 9.096935 -35.828739)
      (xy 9.097928 -35.431237)
      (xy 9.098807 -34.995492)
      (xy 9.099577 -34.520258)
      (xy 9.100241 -34.004293)
      (xy 9.100805 -33.446351)
      (xy 9.101272 -32.845189)
      (xy 9.101646 -32.199563)
      (xy 9.101932 -31.508228)
      (xy 9.102134 -30.76994)
      (xy 9.102255 -29.983456)
      (xy 9.102301 -29.14753)
      (xy 9.102302 -29.032566)
      (xy 9.102288 -28.223523)
      (xy 9.10224 -27.463794)
      (xy 9.102153 -26.751841)
      (xy 9.102019 -26.086128)
      (xy 9.101832 -25.465117)
      (xy 9.101584 -24.887272)
      (xy 9.10127 -24.351055)
      (xy 9.100881 -23.85493)
      (xy 9.100412 -23.397358)
      (xy 9.099856 -22.976804)
      (xy 9.099206 -22.59173)
      (xy 9.098455 -22.240599)
      (xy 9.097596 -21.921874)
      (xy 9.096622 -21.634018)
      (xy 9.095528 -21.375493)
      (xy 9.094305 -21.144764)
      (xy 9.092948 -20.940291)
      (xy 9.091449 -20.76054)
      (xy 9.089802 -20.603972)
      (xy 9.087999 -20.46905)
      (xy 9.086035 -20.354238)
      (xy 9.083902 -20.257997)
      (xy 9.081593 -20.178792)
      (xy 9.079103 -20.115085)
      (xy 9.076423 -20.065339)
      (xy 9.073548 -20.028017)
      (xy 9.070469 -20.001582)
      (xy 9.067182 -19.984497)
      (xy 9.063678 -19.975224)
      (xy 9.062348 -19.973487)
      (xy 9.055536 -19.969902)
      (xy 9.04147 -19.966535)
      (xy 9.018613 -19.96338)
      (xy 8.985426 -19.96043)
      (xy 8.940371 -19.957679)
      (xy 8.881911 -19.955119)
      (xy 8.808507 -19.952745)
      (xy 8.718622 -19.950548)
      (xy 8.610718 -19.948523)
      (xy 8.483257 -19.946662)
      (xy 8.334701 -19.944959)
      (xy 8.163513 -19.943407)
      (xy 7.968153 -19.941999)
      (xy 7.747086 -19.940729)
      (xy 7.498771 -19.939588)
      (xy 7.221673 -19.938572)
      (xy 6.914252 -19.937673)
      (xy 6.574971 -19.936884)
      (xy 6.202292 -19.936198)
      (xy 5.794677 -19.935609)
      (xy 5.350588 -19.93511)
      (xy 4.868488 -19.934694)
      (xy 4.346838 -19.934354)
      (xy 3.784101 -19.934083)
      (xy 3.178738 -19.933875)
      (xy 2.529212 -19.933723)
      (xy 1.833985 -19.93362)
      (xy 1.09152 -19.93356)
      (xy 0.300277 -19.933535)
      (xy 0.012712 -19.933533)
      (xy -0.795895 -19.933547)
      (xy -1.555189 -19.933595)
      (xy -2.266708 -19.933682)
      (xy -2.93199 -19.933816)
      (xy -3.552573 -19.934004)
      (xy -4.129994 -19.934252)
      (xy -4.665792 -19.934567)
      (xy -5.161504 -19.934956)
      (xy -5.618668 -19.935425)
      (xy -6.038823 -19.935982)
      (xy -6.423506 -19.936633)
      (xy -6.774254 -19.937386)
      (xy -7.092606 -19.938246)
      (xy -7.3801 -19.939221)
      (xy -7.638274 -19.940317)
      (xy -7.868665 -19.941541)
      (xy -8.072811 -19.9429)
      (xy -8.252251 -19.944401)
      (xy -8.408521 -19.946051)
      (xy -8.543161 -19.947856)
      (xy -8.657708 -19.949823)
      (xy -8.753699 -19.951959)
      (xy -8.832673 -19.954271)
      (xy -8.896168 -19.956765)
      (xy -8.945721 -19.959449)
      (xy -8.982871 -19.962329)
      (xy -9.009154 -19.965411)
      (xy -9.02611 -19.968703)
      (xy -9.035276 -19.972212)
      (xy -9.036923 -19.973487)
      (xy -9.040507 -19.980297)
      (xy -9.043872 -19.99436)
      (xy -9.047026 -20.017213)
      (xy -9.049974 -20.050393)
      (xy -9.052724 -20.095437)
      (xy -9.055283 -20.153882)
      (xy -9.057657 -20.227266)
      (xy -9.059853 -20.317126)
      (xy -9.061878 -20.424998)
      (xy -9.063739 -20.55242)
      (xy -9.065442 -20.700928)
      (xy -9.066994 -20.87206)
      (xy -9.068402 -21.067353)
      (xy -9.069673 -21.288344)
      (xy -9.070813 -21.536571)
      (xy -9.07183 -21.813569)
      (xy -9.07273 -22.120876)
      (xy -9.07352 -22.46003)
      (xy -9.074206 -22.832567)
      (xy -9.074796 -23.240024)
      (xy -9.075295 -23.683939)
      (xy -9.075712 -24.165848)
      (xy -9.076053 -24.687289)
      (xy -9.076324 -25.249799)
      (xy -9.076533 -25.854914)
      (xy -9.076685 -26.504173)
      (xy -9.076789 -27.199111)
      (xy -9.07685 -27.941267)
      (xy -9.076875 -28.732176)
      (xy -9.076877 -29.032566)
      (xy -9.076841 -29.875161)
      (xy -9.07673 -30.66815)
      (xy -9.076539 -31.412775)
      (xy -9.076264 -32.110283)
      (xy -9.075902 -32.761916)
      (xy -9.075448 -33.36892)
      (xy -9.074897 -33.932538)
      (xy -9.074246 -34.454014)
      (xy -9.073491 -34.934593)
      (xy -9.072627 -35.375518)
      (xy -9.071649 -35.778035)
      (xy -9.070555 -36.143387)
      (xy -9.069339 -36.472818)
      (xy -9.067998 -36.767572)
      (xy -9.066527 -37.028894)
      (xy -9.064922 -37.258028)
      (xy -9.063178 -37.456218)
      (xy -9.061293 -37.624708)
      (xy -9.059261 -37.764743)
      (xy -9.057078 -37.877566)
      (xy -9.054855 -37.96016)
      (xy -8.924325 -37.96016)
      (xy -8.924325 -29.040073)
      (xy -8.924277 -28.369543)
      (xy -8.924136 -27.712044)
      (xy -8.923904 -27.069396)
      (xy -8.923587 -26.443422)
      (xy -8.923186 -25.835945)
      (xy -8.922706 -25.248785)
      (xy -8.922149 -24.683765)
      (xy -8.92152 -24.142707)
      (xy -8.920822 -23.627432)
      (xy -8.920058 -23.139764)
      (xy -8.919232 -22.681523)
      (xy -8.918347 -22.254531)
      (xy -8.917407 -21.860612)
      (xy -8.916415 -21.501585)
      (xy -8.915374 -21.179275)
      (xy -8.914289 -20.895501)
      (xy -8.913162 -20.652087)
      (xy -8.911997 -20.450855)
      (xy -8.910798 -20.293626)
      (xy -8.909567 -20.182222)
      (xy -8.908309 -20.118466)
      (xy -8.907339 -20.103)
      (xy -8.880928 -20.101741)
      (xy -8.80549 -20.100542)
      (xy -8.682846 -20.099405)
      (xy -8.514819 -20.098333)
      (xy -8.303232 -20.097328)
      (xy -8.049906 -20.096391)
      (xy -7.756666 -20.095525)
      (xy -7.425333 -20.094733)
      (xy -7.057731 -20.094016)
      (xy -6.655681 -20.093376)
      (xy -6.221006 -20.092816)
      (xy -5.755529 -20.092338)
      (xy -5.261073 -20.091944)
      (xy -4.73946 -20.091635)
      (xy -4.192513 -20.091416)
      (xy -3.622054 -20.091286)
      (xy -3.029906 -20.091249)
      (xy -2.417891 -20.091307)
      (xy -1.787833 -20.091462)
      (xy -1.141554 -20.091716)
      (xy -0.480876 -20.092072)
      (xy 0.023342 -20.092406)
      (xy 8.937037 -20.098798)
      (xy 8.943429 -29.029479)
      (xy 8.949821 -37.96016)
      (xy 0.012748 -37.96016)
      (xy -8.924325 -37.96016)
      (xy -9.054855 -37.96016)
      (xy -9.05474 -37.964421)
      (xy -9.052243 -38.026554)
      (xy -9.049583 -38.065208)
      (xy -9.046756 -38.081627)
      (xy -9.046367 -38.082202)
      (xy -9.018414 -38.085034)
      (xy -8.941818 -38.087741)
      (xy -8.818787 -38.090323)
      (xy -8.651528 -38.092778)
      (xy -8.44225 -38.095108)
      (xy -8.193159 -38.097312)
      (xy -7.906465 -38.099391)
      (xy -7.584374 -38.101343)
      (xy -7.229094 -38.10317)
      (xy -6.842833 -38.104872)
      (xy -6.427798 -38.106447)
      (xy -5.986198 -38.107897)
      (xy -5.52024 -38.109221)
      (xy -5.032132 -38.110419)
      (xy -4.524082 -38.111492)
      (xy -3.998297 -38.112439)
      (xy -3.456985 -38.11326)
      (xy -2.902354 -38.113956)
      (xy -2.336612 -38.114526)
      (xy -1.761966 -38.11497)
      (xy -1.180623 -38.115288)
      (xy -0.594793 -38.115481)
      (xy -0.006682 -38.115548)
    )

    (stroke (width 0) (type solid)) (fill solid) (layer "Eco1.User") (tstamp 03208b01-b145-4755-9249-20a60434ff90))
)
